<?xml version="1.0" encoding="UTF-8"?>
<svg width="19px" height="13px" viewBox="0 0 19 13" version="1.1" xmlns="http://www.w3.org/2000/svg" xmlns:xlink="http://www.w3.org/1999/xlink">
    <!-- Generator: Sketch 52.6 (67491) - http://www.bohemiancoding.com/sketch -->
    <title>Fill 1</title>
    <desc>Created with Sketch.</desc>
    <g id="Welcome" stroke="none" stroke-width="1" fill="none" fill-rule="evenodd">
        <g id="Sermons" transform="translate(-347.000000, -826.000000)" fill="#132024">
            <g id="Group-3" transform="translate(355.251731, 828.251731) rotate(-141.000000) translate(-355.251731, -828.251731) translate(347.251731, 820.251731)">
                <path d="M1.29409789,14.8428174 C1.3219644,14.7417326 1.34822939,14.6403185 1.37321316,14.5385752 C1.39915785,14.4315635 1.4231807,14.3245519 1.44656295,14.217211 C1.47058581,14.1049311 1.49300714,13.9926513 1.51446756,13.8800421 C1.53656859,13.7631525 1.5573884,13.6459336 1.57724729,13.5287147 C1.5977468,13.4075447 1.61696508,13.2860453 1.63490215,13.1642167 C1.65380013,13.0390954 1.67141689,12.9136449 1.68807274,12.7881943 C1.7053692,12.6594511 1.72106413,12.5307079 1.73643876,12.4016354 C1.75213369,12.2699288 1.76654741,12.1382222 1.78064082,12.0061864 C1.79441392,11.8718456 1.80786672,11.7371756 1.8200383,11.6028349 C1.83285049,11.4661893 1.84470177,11.3298729 1.85559213,11.1932273 C1.8671231,11.0549354 1.87769316,10.9166434 1.88762261,10.7783515 C1.89755205,10.6387425 1.90684089,10.4991335 1.91548912,10.3595245 C1.92413735,10.2192569 1.93246527,10.0789894 1.94015259,9.93839261 C1.9478399,9.79779581 1.95488661,9.65686973 1.9612927,9.51627293 C1.9680191,9.37567613 1.97378459,9.23507932 1.97955007,9.09448252 C1.98499525,8.95421498 1.98979982,8.81394745 1.9946044,8.67367991 C1.99908866,8.53440017 2.00325262,8.39512043 2.00709628,8.25616996 C2.01061963,8.11820729 2.01382268,7.98024462 2.01670542,7.84228195 C2.01958817,7.70629487 2.02215061,7.5703078 2.02407243,7.43432073 C2.02631457,7.30063852 2.0282364,7.16695631 2.02951762,7.03294484 C2.03079883,6.90189677 2.03208005,6.77084869 2.03272066,6.63980062 C2.03368158,6.51171594 2.03400188,6.38396053 2.03432219,6.25587586 C2.03432219,6.13174238 2.03432219,6.00727963 2.03400188,5.88314616 C2.03368158,5.76263461 2.03304097,5.64245233 2.03240036,5.52194078 C2.03143944,5.40603897 2.03047853,5.29013715 2.02951762,5.17456461 C2.0282364,5.06327252 2.02695518,4.95230971 2.02567396,4.84134689 C2.02407243,4.7359816 2.02247091,4.63028705 2.02086939,4.52492176 C2.01894756,4.42482474 2.01702573,4.32505699 2.0151039,4.22528923 C2.01318207,4.13177754 2.01126024,4.03793658 2.00901811,3.94442489 C2.00709628,3.85749853 2.00485415,3.77057217 2.00261202,3.68364581 C2.00069019,3.60363404 1.99844805,3.52395154 1.99620592,3.44393978 C1.99428409,3.37183041 1.99204196,3.29939178 1.98979982,3.22728241 C1.987878,3.16307544 1.98595617,3.09886847 1.98371403,3.03433223 C1.98179221,2.97835692 1.97987038,2.92271088 1.97794855,2.86673557 C1.97634703,2.81965046 1.9747455,2.77256535 1.97282367,2.7258095 C1.97154245,2.68794385 1.96994093,2.65040747 1.96833941,2.61254182 C1.96705819,2.5733591 1.96577697,2.53417639 1.96545666,2.49499367 C1.96513636,2.47523768 1.96577697,2.45515242 1.9676988,2.4357257 C1.9680191,2.43243303 1.96705819,2.4268355 1.97058154,2.42650623 C1.97346428,2.42650623 1.97922977,2.4327623 1.9814719,2.43407936 C1.98851861,2.44000616 1.99524501,2.44593296 2.00261202,2.45120122 C2.01414299,2.45976215 2.02567396,2.46733528 2.03784554,2.47457915 C2.10414862,2.51540819 2.18006085,2.53746905 2.25405125,2.55887138 C2.28960508,2.56907864 2.32515891,2.57895663 2.36039243,2.59015169 C2.46000721,2.62044421 2.55962199,2.6500782 2.65955708,2.68004145 C2.68037689,2.68596825 2.701517,2.69222432 2.72233681,2.69848038 C2.92124607,2.75807762 3.12079593,2.81668706 3.3206661,2.8733209 C3.44622557,2.90954022 3.57242564,2.94477174 3.69830541,2.97967399 C4.72520247,3.26416026 5.76042746,3.51506135 6.80205854,3.73534065 C7.96732725,3.98196127 9.13836146,4.20059424 10.3154814,4.38004449 C11.4346263,4.55060455 12.5508884,4.80348124 13.6905327,4.71655488 C13.9551044,4.69646962 14.2228792,4.65761617 14.464389,4.54401922 C14.8039121,4.38432496 15.0758508,4.06954617 15.0137117,3.66718248 C14.9371588,3.16999004 14.4301164,2.80878466 13.9669557,2.76993121 C9.60504549,2.40707951 5.3866318,1.48974299 1.19672524,0.213505957 C0.670464519,0.0531531623 -0.0396511339,0.511821424 0.0269722562,1.12952541 C0.270083569,3.388623 0.417423759,5.65265959 0.44849332,7.92591564 C0.479562882,10.1787572 0.246701321,12.4737448 0.388276025,14.7170376 C0.421267416,15.2366202 1.14611709,15.3768877 1.29409789,14.8428174" id="Fill-1"></path>
            </g>
        </g>
    </g>
</svg>