<?xml version="1.0" encoding="UTF-8"?>
<svg width="180px" height="174px" viewBox="0 0 180 174" version="1.1" xmlns="http://www.w3.org/2000/svg" xmlns:xlink="http://www.w3.org/1999/xlink">
    <!-- Generator: Sketch 52.6 (67491) - http://www.bohemiancoding.com/sketch -->
    <title>Group 99</title>
    <desc>Created with Sketch.</desc>
    <defs>
        <polygon id="path-1" points="0 0 180 0 180 174 0 174"></polygon>
    </defs>
    <g id="Welcome" stroke="none" stroke-width="1" fill="none" fill-rule="evenodd">
        <g id="11-copy-3" transform="translate(-964.000000, -2610.000000)">
            <g id="Group-99" transform="translate(964.000000, 2610.000000)">
                <mask id="mask-2" fill="white">
                    <use xlink:href="#path-1"></use>
                </mask>
                <g id="Clip-98"></g>
                <path d="M177.38701,83.0559123 C176.954907,83.535471 176.479157,82.998732 175.848461,83.1427615 C175.983221,82.4404156 175.804815,81.4084741 175.641139,80.4838805 C175.479101,79.5587474 175.335066,78.7377255 175.590945,78.416761 C175.879014,78.6476397 175.983221,79.1158703 176.37495,79.2135082 L176.398411,79.1741294 C176.64065,79.5738516 176.657563,80.0544893 176.665747,80.5594015 C176.672294,80.9537294 176.677204,81.3583065 176.784685,81.7553316 C176.844699,82.3573424 177.443751,82.318503 177.38701,83.0559123 Z M176.043235,100.084834 C176.229279,100.151185 176.105977,100.277413 176.012137,100.26069 C175.858827,100.128528 175.243408,100.067033 175.091735,99.5648176 C175.330156,99.5497134 175.305605,99.1537672 175.375985,98.8991533 C175.89429,98.5954508 176.246738,98.7281521 176.723033,99.108994 L176.690844,99.3053488 C176.505345,99.6090514 176.356401,99.9688553 176.043235,100.084834 Z M174.042031,107.269045 C173.576647,106.934595 173.67267,107.150369 173.052886,106.994472 C173.377508,106.012159 173.336044,105.780741 173.841255,105.393426 C173.800882,105.186282 173.875082,103.851717 174.844586,104.186167 C174.898053,104.785481 174.779661,105.486748 175.123925,105.901035 C174.733832,106.305073 174.20516,106.449642 174.042031,107.269045 Z M172.406913,111.050493 C172.132484,111.520881 171.984631,111.954049 172.350173,112.485933 C172.089383,112.608924 171.712384,112.468671 171.323928,112.304682 C171.824775,111.007338 171.651279,109.604804 172.779002,109.10205 C172.745721,109.304878 172.979777,109.363676 173.216015,109.421396 C173.082893,110.073574 172.680797,110.580644 172.406913,111.050493 Z M169.852486,109.794146 C169.473305,109.936018 169.219062,110.325491 168.766773,110.315781 C168.66202,109.960293 168.921719,108.670501 169.467303,108.783243 C169.514224,109.160309 170.00034,109.319982 169.852486,109.794146 Z M167.951669,112.511286 C168.093521,111.949733 168.150808,111.51279 168.645653,111.161078 C168.528352,111.451834 168.646199,111.539222 168.90917,111.434032 C168.723672,112.072725 168.432875,112.50805 167.951669,112.511286 Z M168.404505,114.137686 C167.922208,113.935398 167.785266,114.232088 167.101103,114.151712 C167.312244,113.624143 167.495015,113.056117 167.927118,113.040473 C168.042236,113.422394 168.728036,113.568042 168.404505,114.137686 Z M167.745438,121.184881 C167.670693,121.190275 167.604677,121.192972 167.549028,121.191894 L167.571942,121.148739 C167.646687,120.679429 167.715431,120.281325 168.207003,120.291575 L167.745438,121.184881 Z M167.022539,116.865615 C166.653723,116.948688 165.804248,117.705517 165.87572,116.895284 C166.138692,117.026907 166.329646,116.962714 166.484592,116.805738 C166.296911,116.662248 166.288182,116.454565 165.933006,116.371492 C166.206344,115.532668 166.69737,115.267266 167.334613,115.341708 C167.743802,115.844463 166.834858,116.184307 167.022539,116.865615 Z M165.496538,115.269963 C165.422885,115.26295 165.351959,115.264029 165.282124,115.267266 C165.337773,115.103817 165.393423,114.940367 165.447981,114.776918 C165.469805,114.711647 165.439798,114.642599 165.380874,114.623718 C165.322497,114.604299 165.257027,114.642599 165.235203,114.70787 C165.169188,114.904765 165.099898,115.10058 165.032246,115.298014 C164.728901,115.359509 164.456109,115.495447 164.180588,115.623294 C164.202412,115.536444 164.231328,115.44528 164.268427,115.3498 C163.695018,115.179877 163.721752,115.411295 163.67865,115.822346 C163.564623,115.85687 163.447323,115.882763 163.324566,115.893012 C163.314745,115.820188 163.312018,115.745746 163.313109,115.670225 C163.485513,115.224111 163.623546,114.754801 163.70593,114.29736 C164.511758,114.233167 164.914945,114.704634 165.579467,114.233167 C165.497084,114.292505 165.480716,113.65597 165.86699,113.997972 C165.62366,114.467821 165.870264,114.755341 165.496538,115.269963 Z M165.73114,120.970725 C165.494356,121.293847 165.440889,121.559789 165.471442,121.802535 C164.962411,121.940631 164.473567,122.139683 163.922527,122.114329 C164.06056,121.430324 164.560861,122.001048 164.787824,121.6256 C164.814558,120.952384 164.687436,120.32448 164.225326,119.801227 C164.453381,119.085395 164.893667,119.018505 165.144636,118.396535 C165.570192,118.588035 165.327407,118.798415 165.757873,118.697541 C165.239022,119.067054 165.498175,119.403123 165.062253,120.046671 C165.310494,120.345518 165.613294,120.628722 165.73114,120.970725 Z M162.883734,124.841719 C162.589664,124.541792 161.716183,124.37187 161.807841,123.985634 C162.239398,123.74073 162.84336,124.156095 163.154344,123.424081 C163.521522,123.660893 163.805772,123.918744 163.859785,124.236471 C163.684106,124.331412 163.366576,124.746239 162.883734,124.841719 Z M160.796327,128.568144 C160.537174,128.49586 160.297117,128.526608 160.039055,128.452165 C160.300936,128.191618 160.525717,127.757372 160.761409,127.390555 C160.867798,127.390015 161.011833,127.256235 161.123678,126.92664 C161.22352,126.833317 161.328272,126.765888 161.441208,126.741613 C160.98619,127.398107 161.313541,127.907335 160.796327,128.568144 Z M159.514749,130.920086 C159.438367,131.025276 159.351073,131.121835 159.257778,131.208684 C159.2365,131.206527 159.215768,131.20329 159.18958,131.204908 C159.192854,131.227025 159.193399,131.245905 159.19449,131.265325 C158.858956,131.549069 158.454678,131.688243 158.155152,131.494046 C158.234261,131.318729 158.318827,131.122375 158.413213,130.923323 C158.891145,130.923862 159.378898,130.245791 159.328159,129.86333 C159.267053,129.813163 159.209767,129.781336 159.155208,129.760838 C159.254505,129.661042 159.360348,129.575272 159.475466,129.508381 C159.992135,129.798598 159.874289,130.429199 159.514749,130.920086 Z M157.718684,126.418491 C157.395152,126.95469 157.301312,127.620355 157.035612,127.928373 C156.59969,128.432206 155.914981,128.57246 155.504701,128.865913 C155.603452,128.726738 155.704931,128.587564 155.810229,128.446232 C156.092296,128.064311 156.377091,127.66351 156.584413,127.212541 L156.615512,127.243289 C156.665706,126.946599 157.288763,126.446542 156.921585,126.292263 C156.897033,126.269606 156.870845,126.252345 156.843566,126.239937 C156.937952,126.139602 157.035612,126.041964 157.134908,125.944326 C157.283307,125.947024 157.358052,125.844531 157.395152,125.695646 C157.57465,125.528961 157.757966,125.365511 157.945102,125.20422 C158.067858,125.099569 158.12569,124.228919 158.683278,124.726819 C158.521784,125.435638 158.089136,125.801915 157.718684,126.418491 Z M155.932985,133.192191 C155.859331,133.047083 155.744213,132.923013 155.61109,132.878779 C155.390674,133.227255 155.165893,133.572494 154.939476,133.917193 C154.763798,133.994333 154.581027,134.049895 154.388981,134.072012 C154.48173,134.281313 153.91214,135.105032 153.833576,134.925939 C154.053992,134.381109 154.495915,133.450042 155.06987,132.70508 C155.374852,132.310213 155.719662,131.967132 156.099934,131.761067 L156.253244,131.853311 L156.385821,131.635918 C156.641154,131.550687 156.910127,131.529109 157.193831,131.598157 C156.85175,132.048586 156.437106,132.678648 155.932985,133.192191 Z M156.11903,138.214342 L155.869698,137.981306 L156.234148,137.596688 L156.484571,137.828106 L156.11903,138.214342 Z M151.661058,134.493311 C151.146571,134.088734 151.097469,133.705734 151.141116,133.559008 C151.214224,133.312485 151.564489,133.15497 151.949126,133.037912 C151.945853,133.044925 151.941488,133.051398 151.937669,133.058411 L151.877655,133.192731 C151.819823,133.322735 151.7609,133.452199 151.693793,133.57627 C151.623958,133.706813 151.665968,133.861632 151.788724,133.924746 C151.911481,133.98786 152.068609,133.931758 152.139535,133.803372 C152.213189,133.666356 152.278659,133.523944 152.341947,133.380994 L152.40087,133.249911 C152.454338,133.132314 152.418875,133.00231 152.323943,132.935959 C152.706398,132.841558 153.046297,132.775207 153.096491,132.706699 C153.35237,132.358762 152.717855,132.5713 152.693849,132.135436 C152.692213,132.114937 152.69876,132.093899 152.710217,132.073401 C152.719492,132.120331 152.742406,132.163486 152.781689,132.194234 C152.874438,132.267058 153.013016,132.244402 153.090489,132.143527 C153.119951,132.105767 153.155414,132.068546 153.193605,132.032403 C153.58097,132.032403 153.861946,131.453049 154.224214,131.321966 C154.417897,131.879743 153.714638,131.818247 153.745191,132.417021 C153.779017,132.439138 153.811752,132.4564 153.845033,132.473662 C153.154868,133.230491 152.277023,133.907484 151.661058,134.493311 Z M148.648885,142.83731 C148.684348,143.484634 148.954958,144.164323 147.935806,144.723179 C147.447508,143.922117 146.985943,144.519272 146.261952,144.298643 C147.063416,143.703105 146.355793,142.937106 146.868642,142.3119 C147.632461,142.364225 148.421376,142.271442 149.244118,141.67051 C149.36742,140.652594 150.061404,139.990166 151.062551,139.831572 C151.064734,139.677293 151.11711,139.480938 151.203858,139.265164 C151.192946,139.389234 151.240958,139.487412 151.377899,139.534882 C151.512113,139.348237 151.677425,139.154579 151.825279,138.963619 C151.830735,139.361184 151.725982,140.068384 151.452099,140.777204 L151.399723,140.79015 L151.330433,140.987584 C151.319522,141.017792 151.320067,141.047461 151.325523,141.075512 C151.28024,141.174768 151.232228,141.272945 151.179306,141.369504 C150.67846,142.290322 149.839896,143.045533 148.648885,142.83731 Z M143.800274,146.51195 C144.64102,146.069612 145.137502,144.93302 146.056267,144.881774 C145.547236,145.748108 144.931817,146.183433 143.800274,146.51195 Z M139.69966,156.379317 C139.273559,155.828013 140.11976,155.541033 140.447657,155.778924 C140.325991,156.009263 140.112668,156.219104 139.69966,156.379317 Z M135.488838,154.721629 C135.773633,154.660133 135.790546,154.518801 135.811824,154.378548 C135.931853,154.311118 136.047517,154.25232 136.160453,154.201073 C136.397782,154.321368 136.652024,154.396889 136.858255,154.607808 C136.297394,154.935246 135.828737,154.994584 135.488838,154.721629 Z M127.653697,163.041354 L127.715894,163.117414 C127.640603,163.124966 127.56804,163.141149 127.498751,163.163806 C127.359081,163.210737 127.229778,163.280324 127.110295,163.345596 C127.000632,163.405473 126.894243,163.459417 126.788945,163.49448 C126.709836,163.382277 126.590898,163.329413 126.452865,163.311072 C126.919886,162.9777 127.367811,162.622212 127.80537,162.265105 C127.924307,162.226805 128.041608,162.189584 128.155635,162.156139 C128.481349,162.655657 127.582225,162.647026 127.653697,163.041354 Z M117.553289,159.693613 C117.57784,159.56253 117.598572,159.442775 117.593662,159.372109 C117.359606,159.285259 117.171925,159.276628 116.994064,159.318704 C117.378702,159.161729 117.735514,159.006371 118.050862,158.860184 C118.023037,159.172517 117.837538,159.453564 117.553289,159.693613 Z M98.9875891,168.581903 C98.9935905,168.411441 98.835371,168.375299 98.8031815,168.237203 C99.0536049,168.235585 99.0814297,168.028441 99.3945953,168.086161 C99.3967776,168.377996 99.2314654,168.515552 98.9875891,168.581903 Z M97.7856662,169.042042 C97.913333,168.993493 97.9946251,168.901249 98.0677334,168.801453 C98.1293845,168.791744 98.1883076,168.783652 98.2412293,168.777718 C98.3994489,168.761535 98.5211143,168.626137 98.5058379,168.477792 C98.5036555,168.456214 98.4976541,168.435716 98.4905615,168.415756 C98.5723992,168.39364 98.6722412,168.387706 98.7971801,168.406586 C99.1119824,168.752904 98.7720832,168.620742 98.7726288,169.083039 C98.2925143,168.845148 97.7971234,169.421266 97.7856662,169.042042 Z M92.6828131,172.583441 C92.4984055,172.590453 92.3129067,172.595308 92.1290447,172.601781 C92.1126771,172.291606 92.047207,171.979811 91.9233593,171.669636 C92.2054265,171.750551 92.508226,171.814205 92.8137534,171.85682 C92.9168689,171.871924 93.02053,171.883252 93.1236455,171.893502 C93.0674502,171.985206 93.0499915,172.101185 93.091456,172.242517 C93.6321303,172.181561 94.1728047,172.11521 94.7129335,172.044004 C94.7047497,171.964707 94.6638309,171.896199 94.6021798,171.8374 C94.8482385,171.783457 95.057743,171.705238 95.2088699,171.59843 C94.7898609,172.438332 93.758706,172.544601 92.6828131,172.583441 Z M89.7628441,171.725737 C89.7579338,171.724119 89.7535692,171.724658 89.7492045,171.724119 L89.7715735,171.647519 C89.6515448,171.55042 89.5069649,171.514817 89.3634762,171.525606 C89.4758666,171.41664 89.5953496,171.30228 89.7071945,171.173354 L89.681552,171.144764 C89.8921477,171.163105 90.0787376,171.113477 90.2467777,171.067085 C90.3749901,171.032561 90.4911996,170.999656 90.6090459,170.997498 C90.6385074,171.028246 90.6701514,171.058994 90.7045232,171.088123 C90.468285,171.239166 90.3569858,171.48407 90.2309557,171.718724 C90.0776464,171.754327 89.9194269,171.767813 89.7628441,171.725737 Z M86.5384389,172.0672 L86.5575344,172.008941 C86.2050867,171.588181 85.9895808,171.17713 85.333788,171.504568 C85.3201484,171.471663 85.3076,171.441994 85.2945059,171.410706 C85.2939604,171.031483 85.0271695,170.795749 84.8394884,170.518479 C84.8896821,170.357727 85.0386268,170.257392 85.2328549,170.206145 C85.2372196,170.208842 85.2415842,170.21154 85.2459489,170.215855 C85.3414262,170.292455 85.4865517,170.282745 85.5694806,170.194278 C85.57821,170.185647 85.5814835,170.174318 85.5885761,170.164069 C86.0026748,170.164069 86.4756967,170.304323 86.7102981,170.525491 L86.7343038,170.487191 L86.9334422,170.722925 L86.8810661,170.727241 C86.4680585,170.828115 87.2760693,171.490543 87.3137147,171.832545 C87.3060765,171.877319 87.2935281,171.919934 87.2782517,171.961471 C87.0305563,171.977654 86.7828608,172.007862 86.5384389,172.0672 Z M83.6883048,170.981315 C83.6948518,170.985631 83.7013988,170.990485 83.7084914,170.994801 C83.7625043,171.070322 83.8307024,171.154474 83.9103577,171.240784 C83.6964886,171.293649 83.4024184,171.327633 83.096891,171.37834 C83.3396762,171.304437 83.5453616,171.182525 83.6883048,170.981315 Z M66.50348,169.140759 C66.5263945,169.624633 66.2928843,169.762189 65.8034949,169.55127 C66.0080891,168.662818 64.1241854,168.966521 64.286224,168.10666 C64.6042998,168.031138 64.8383557,167.835323 65.0434955,167.598511 C65.3959431,168.247992 66.2388714,168.772324 67.2274708,169.237857 C67.309854,169.276157 67.3949652,169.313918 67.4789853,169.352218 L67.4489781,169.509733 L67.4571619,169.511351 C67.3911462,169.563677 67.3202202,169.624633 67.2465662,169.692063 L67.2171047,169.648908 C66.8264661,169.571768 67.0632498,169.118642 66.50348,169.140759 Z M59.1337227,165.985596 C58.1827687,166.361044 58.8642039,165.295658 59.1337227,165.985596 Z M57.35348,163.901215 C56.6567685,164.237284 56.225211,163.512821 55.4002871,164.18334 C54.7172151,163.701084 54.103978,163.537635 53.4891041,163.817602 C53.2834187,163.784157 53.072823,163.702163 52.8845963,163.581329 C52.7580207,162.771096 53.5802167,162.994423 53.968673,162.493286 C55.4772145,162.994962 56.2377595,163.228538 57.2247221,163.094758 C57.3327478,163.813287 57.8952456,164.329527 58.4719285,164.835518 C57.6388208,164.740578 57.4844204,164.321975 57.35348,163.901215 Z M51.7585096,162.780806 C51.5768299,162.808857 51.3913312,162.83421 51.1469092,162.722547 L51.2183808,162.555861 L51.2074691,162.555322 C51.3084023,162.265105 51.155093,162.016964 51.0508863,161.845424 C51.0034205,161.767205 50.9706854,161.711104 50.9526811,161.664173 C51.0901684,161.585415 51.2058324,161.497487 51.3040376,161.413335 L51.8250709,161.633425 C51.5697373,162.101116 52.0105697,162.312036 51.7585096,162.780806 Z M48.7757984,160.88253 C48.1969331,160.504385 48.0659928,161.259596 47.4854908,160.873899 L47.5040406,160.836678 C47.5138612,160.823731 47.5231361,160.809706 47.5302287,160.794602 L47.6529852,160.544843 C47.9339613,160.377078 48.5935731,160.42293 49.0502275,160.353343 C49.5123377,160.282677 49.7622154,160.103045 49.2237234,159.494021 L49.2351807,159.388292 C49.3939458,159.515599 49.5821725,159.5717 49.7660345,159.622407 C49.8445987,159.644524 49.9198894,159.666101 49.991361,159.691994 C49.9984536,160.15537 49.669466,160.130017 49.8598751,160.384091 C50.1037514,160.601484 50.8512024,160.636547 50.8506568,160.937013 C50.7639088,161.009837 50.6793432,161.071872 50.5865938,161.123658 C50.416917,161.015771 50.2286903,160.915975 50.0071829,160.816719 L49.9815405,160.805391 C49.8696956,160.755763 49.7409376,160.800536 49.6929262,160.904647 C49.6454603,161.009298 49.6978364,161.133907 49.8091357,161.184075 L49.8342326,161.195403 C50.0344622,161.284949 50.2030478,161.375035 50.3541748,161.469437 C50.3579939,161.497487 50.3667232,161.525538 50.3787261,161.553049 C50.3732702,161.770442 50.4823872,161.953311 50.5702263,162.095722 C50.6837079,162.280749 50.6984387,162.32768 50.6624301,162.392412 C50.6438802,162.425318 50.6340597,162.459841 50.6318773,162.495984 L50.6067805,162.492747 C49.7834932,162.431791 48.898555,161.601598 48.7757984,160.88253 Z M46.5176236,160.198525 C46.3784995,160.71045 46.9077166,160.094953 47.1172211,160.291847 L47.0315643,160.462309 C46.7511338,160.65273 45.7690815,160.385709 46.5176236,160.198525 Z M40.582754,150.696356 C41.1463429,150.194141 41.8092282,150.811256 42.3008,151.380901 C41.4382307,152.205699 41.4960626,150.550169 40.582754,150.696356 Z M38.9312693,154.817649 C37.9273935,154.922839 38.8772564,154.086173 38.9312693,154.817649 Z M37.9148451,153.927579 C36.837861,153.538106 36.4455857,153.012156 35.8268927,152.248854 C35.029248,152.299561 34.678437,151.895523 34.4165564,151.438081 C34.153039,150.97956 33.9773608,150.466557 33.501611,150.27182 C34.0390118,149.923344 33.8420558,149.752343 34.4427445,149.395236 C35.5955648,150.065216 36.1662463,150.735196 36.6365403,151.340443 C37.1068342,151.943533 37.476195,152.478114 38.2198269,152.819577 C38.1499921,153.183157 38.1030718,153.543501 37.9148451,153.927579 Z M32.6597739,148.904349 L32.6390417,148.96153 C32.5686613,148.875759 32.492825,148.789989 32.4006212,148.714468 C32.3346054,148.660524 32.2582236,148.614133 32.1769315,148.572057 L32.222215,148.545085 C32.1038231,148.292089 32.2031195,148.025068 32.4022579,147.752114 C32.7301543,147.955481 34.3178056,148.69343 33.4465069,148.839078 C33.636916,148.435579 32.8600034,148.931861 32.6597739,148.904349 Z M32.3438804,149.582421 C32.122373,149.584039 31.8844981,149.461047 31.6362571,149.2388 C31.7726533,149.000908 31.9466948,149.092613 32.096185,148.975555 C32.1491067,149.012776 32.1976637,149.055931 32.2429472,149.102322 C32.1212819,149.229629 32.1141893,149.349924 32.1960269,149.462666 C32.3558832,149.326728 32.408805,149.505281 32.3438804,149.582421 Z M21.7797251,138.446839 C20.7169262,136.626781 19.6721317,135.782564 19.2940415,134.421027 C19.6333951,134.502482 19.900186,135.096401 20.2668189,135.517701 C20.6323606,135.940079 21.0917429,136.186062 21.7851809,135.57596 C22.2423809,136.023692 22.3755035,136.42719 22.5713684,136.839319 C21.6411466,137.296761 22.0181456,137.905785 21.7797251,138.446839 Z M17.4270509,44.2370047 C17.5241649,44.0390316 17.3026576,43.9090275 17.0784223,43.7779445 C17.4172304,43.1521985 17.9846384,42.754634 18.4096488,42.3581484 C18.8357504,41.9595051 19.1210912,41.5614012 18.9121323,40.9076045 C19.2165685,40.8606736 19.5581045,41.1185241 19.9045507,41.4038858 C18.9917876,42.5782384 18.7348173,44.0638457 17.4270509,44.2370047 Z M15.9992559,136.086266 C14.858984,135.448113 15.9654296,134.978264 14.8982661,134.22629 C15.5278708,133.459752 15.7008211,132.507107 16.8590973,132.899817 C16.783261,133.551995 17.0205903,134.271064 17.218092,134.977725 C16.3631608,134.7339 16.8039932,135.873729 15.9992559,136.086266 Z M16.4259031,138.468956 C16.299873,138.362687 16.1585666,138.422025 16.0369012,138.262891 L16.0199881,138.286087 C15.9757958,138.199777 15.9305122,138.115625 15.8754082,138.03417 L15.8639509,138.019066 C15.8475834,137.998028 15.8290335,137.979148 15.8088469,137.962965 L15.7957528,137.946242 L16.2349485,137.620962 C16.548114,137.950018 16.6517751,138.237538 16.4259031,138.468956 Z M13.795094,48.6355674 C13.9271255,48.0071243 14.2648423,47.3268952 14.0411526,46.7993266 C14.5643683,46.5037156 15.149235,46.5161226 15.5687896,45.7285458 C15.9419695,46.2102623 15.90978,45.9610428 16.4951923,46.3079003 C15.8601318,47.2136136 15.8306702,47.4628332 15.1950641,47.7061189 C15.171604,47.9294455 14.6833058,49.2715627 13.795094,48.6355674 Z M20.6323606,44.4139398 C21.0633725,44.3842708 21.443645,44.0627668 21.9024816,44.208954 C21.9002993,44.6043608 21.2352316,45.8434457 20.7131071,45.5634783 C20.7813052,45.164835 20.3339258,44.8541197 20.6323606,44.4139398 Z M23.4153878,42.2114218 C23.0962208,42.7433059 22.9025383,43.1716182 22.28821,43.3819983 C22.4977145,43.1203718 22.4044195,42.9946831 22.1027112,43.0227338 C22.4900763,42.4266568 22.9216337,42.0700895 23.4153878,42.2114218 Z M23.4546699,40.4124021 C23.8851362,40.7651933 24.1170097,40.5035668 24.7913523,40.7916257 C24.4127165,41.2679479 24.0504483,41.7933587 23.6041601,41.6784588 C23.6036145,41.2528437 22.9483674,40.8968158 23.4546699,40.4124021 Z M25.711208,38.0426589 C26.1133039,38.0690912 27.2159304,37.5523114 26.8923987,38.3587685 C26.6643443,38.1446123 26.449384,38.1527038 26.2426074,38.2659854 C26.3899153,38.4704318 26.3342656,38.6845879 26.6719825,38.8771667 C26.1329449,39.6512576 25.5491693,39.7747885 24.9206558,39.5061493 C24.6582296,38.8679962 25.6915669,38.7951724 25.711208,38.0426589 Z M26.3080776,33.4099808 C26.3860962,33.4261639 26.4542943,33.4439653 26.5110351,33.4617667 L26.4739353,33.4995272 C26.2524279,33.9564297 26.0587454,34.3421266 25.5595354,34.1829929 L26.3080776,33.4099808 Z M29.1898556,40.1545516 C29.1096547,40.6529906 28.7593893,41.1589818 28.3294686,41.6757616 C27.4674449,41.5036815 27.2044731,40.8854876 26.371911,41.1692311 C26.4750265,41.1330888 26.294438,41.7890432 26.0058237,41.3224309 C26.3991902,40.9151566 26.236606,40.5478006 26.7772804,40.1351319 C27.6163895,40.4668851 28.3769345,39.9873263 29.1898556,40.1545516 Z M28.6982839,35.3837779 C28.5367908,35.0034753 28.3152834,34.6220939 28.3005527,34.2374759 C28.6420886,33.9785466 28.7790304,33.7233932 28.8232227,33.4655427 C29.3857205,33.4784892 29.9476727,33.4229273 30.5025322,33.615506 C30.149539,34.2730787 29.8156412,33.5378272 29.4670126,33.8533974 C29.23132,34.5336264 29.1674866,35.2138554 29.4773787,35.8881507 C29.0234523,36.5505783 28.5531583,36.485846 28.1041422,37.0457808 C27.7282344,36.7210402 28.0419455,36.5797079 27.5700148,36.5521967 C28.2143503,36.3321067 28.0539484,35.9102676 28.6982839,35.3837779 Z M31.222704,31.4653133 C31.4316629,31.421619 31.8850437,31.0931023 32.4082594,31.142191 C32.6155815,31.5375978 33.4557819,31.97562 33.2424583,32.3418971 C32.725244,32.461652 32.2369458,31.8547863 31.6929979,32.5091224 C31.3901984,32.1563311 31.1801484,31.806237 31.222704,31.4653133 Z M35.6932245,27.9649118 C35.935464,28.1164934 36.1907976,28.15803 36.4314005,28.3123088 C35.7772445,28.6645606 35.0668933,29.6835556 34.4689325,29.6360852 C35.1372737,29.1025828 34.9599587,28.4838495 35.6932245,27.9649118 Z M37.2454127,29.0594279 C37.0713712,30.0622398 35.7232316,30.3281818 35.5175462,30.888656 C35.1427296,30.4015451 35.3882426,29.9732328 35.822528,29.6517288 C36.257359,29.3307643 36.8782343,29.1236208 37.2454127,29.0594279 Z M37.7304375,25.9484993 C38.2498341,25.553632 38.9645499,25.3826308 39.2973566,25.7731826 C38.7861438,26.3633258 38.0981615,27.215635 37.334343,27.4028193 C36.895693,26.9502324 37.2104953,26.3412089 37.7304375,25.9484993 Z M41.460054,29.1273968 C40.6907797,30.6912224 39.1756912,31.540295 37.5667621,32.2652972 C37.4096337,32.3338056 37.0806462,33.2071528 36.6649107,32.5290815 C37.0490023,31.8537074 37.6044074,31.6104217 38.1739978,31.0920235 C38.6699342,30.6421337 38.9727337,29.9894159 39.338821,29.75584 C40.0562648,29.2983981 40.9755749,29.4785698 41.460054,29.1273968 Z M43.9435553,24.2767866 C43.9135482,24.0351192 44.750475,23.3651394 44.7755719,23.5717435 C44.3816598,24.062091 43.641847,24.8798762 42.8251068,25.4678617 C42.0067299,26.0553077 41.1026961,26.4161905 40.312144,25.9565909 C41.2292717,25.2866111 42.6035994,24.0432107 43.9435553,24.2767866 Z M43.4568938,19.5205776 L43.6396647,19.8339901 L43.1475473,20.1161152 L42.9631397,19.8037816 L43.4568938,19.5205776 Z M46.8618875,24.6711144 C47.2628922,25.2396802 47.193603,25.6458756 47.1041271,25.7828924 C46.9289944,26.0493739 46.4090523,26.0812006 45.9087512,26.0693331 C45.40845,26.056926 44.9266988,25.9992063 44.8421332,26.0628598 C44.4727724,26.3406695 45.1874883,26.3158554 45.0772802,26.7679029 C45.0374525,26.9345887 44.5617027,26.9728887 44.4891399,27.1314829 C44.4318536,27.2571716 44.7324707,27.5339023 44.6364478,27.680629 C43.8153429,28.9407519 43.2233836,28.5394114 42.172042,28.6392071 C42.0907499,27.608884 42.8289259,26.8196888 43.806068,26.1950217 C44.7832101,25.5681968 45.9933168,25.1129127 46.8618875,24.6711144 Z M58.6115982,14.7638293 C57.6164518,14.9618023 56.757156,15.9737846 55.8023829,15.7483003 C56.5907527,15.0168248 57.3545712,14.757356 58.6115982,14.7638293 Z M65.8542342,5.91869394 C66.1193884,6.61133002 65.1657064,6.64909055 64.9043714,6.30600913 C65.0996907,6.10803605 65.3828491,5.95753335 65.8542342,5.91869394 Z M67.7976067,10.5060594 C67.6099256,10.6975592 67.3442259,10.8372732 66.9006656,10.8701788 L66.7140756,9.98604286 C67.2689352,9.88408942 67.496444,10.2498272 67.7976067,10.5060594 Z M69.6455019,8.8866719 C69.101554,8.84459587 69.3230613,9.30581382 68.946608,9.37324334 C68.7196447,9.08949991 68.3928395,8.93683946 68.2106143,8.58836368 C68.8849569,8.42275677 69.3825301,8.50421163 69.6455019,8.8866719 Z M80.2260247,2.75166404 L80.1856514,2.65564439 C80.2647612,2.67074861 80.343871,2.67668241 80.4218896,2.67344579 C80.5790179,2.66859086 80.7323272,2.63622469 80.8752704,2.60547683 C81.0051195,2.57796558 81.130604,2.55261208 81.2484503,2.54829659 C81.4503166,3.16163555 82.786999,2.8449865 82.8884777,3.06076098 C81.5485218,3.39898747 80.3946103,3.50741415 79.4387461,3.50471697 C79.2603399,2.89623294 80.1763765,3.17673976 80.2260247,2.75166404 Z M84.9366024,2.53319238 C85.0779088,3.23230169 83.6773931,3.5618972 83.5000781,2.87897098 C83.9321811,2.69879929 84.4210249,2.08599977 84.9366024,2.53319238 Z M91.8840772,9.0328591 C92.4454838,9.12402382 92.9741553,9.30095889 93.381707,9.54208687 C93.3740688,9.55395447 93.3664306,9.5663615 93.3587924,9.57768966 C93.1994817,9.54586293 93.1132794,9.5663615 93.0745428,9.62084456 C91.8666185,9.62246287 90.7410774,9.69474732 89.7819396,9.79777963 C89.781394,9.6230023 89.6029878,9.42502922 89.4534976,9.25510682 C89.6324494,9.17041533 89.8343157,9.10460412 90.052004,9.0565943 C90.1098359,9.17311252 90.2085868,9.25888287 90.3226139,9.28747299 C90.3526211,9.2950251 90.3820827,9.2966434 90.4109987,9.29232792 C90.4890173,9.28099976 90.5583065,9.23083219 90.5828578,9.15854774 C90.6052268,9.09327596 90.583949,9.02800418 90.5364831,8.98269154 C90.9691317,8.94115495 91.4345154,8.95895635 91.8840772,9.0328591 Z M107.334488,4.93530176 C107.158265,5.66839555 106.476284,5.62200404 106.291331,6.33352038 C105.316371,6.10911492 105.024483,5.55511395 104.737506,4.98924538 C105.559156,4.90347502 106.238409,4.5976147 107.334488,4.93530176 Z M111.235964,5.75578421 C111.177587,5.92786436 111.327077,6.01309528 111.317256,6.16359798 C111.061377,6.08915578 110.969173,6.29252323 110.666374,6.13878391 C110.754213,5.8404757 110.966445,5.74931098 111.235964,5.75578421 Z M111.610235,5.30805217 C112.027607,5.69644623 112.712316,5.2578846 112.607018,5.64843641 C112.148727,5.68349976 112.028153,6.29306266 111.376179,5.99313614 C111.161765,5.54270692 111.468383,5.78059828 111.610235,5.30805217 Z M116.497582,6.13231068 C117.676591,5.95591504 119.469927,6.18517543 120.230472,6.12745575 L120.235928,6.00500374 C120.267572,6.02280513 120.298671,6.03898822 120.330314,6.05301356 C120.554004,6.15173038 120.77442,6.154967 120.974104,6.15928249 C121.142144,6.16305854 121.292726,6.16791347 121.434032,6.22293596 L121.368562,6.24127679 C121.56279,6.71705951 123.315754,6.42144848 123.719486,7.35359423 L123.754949,7.32176749 L123.88589,7.62169402 L123.832422,7.61144473 C122.5934,7.10653245 121.824125,7.66430948 120.756416,7.55318562 C120.491262,7.39243363 120.461255,7.05636488 119.736173,6.70033699 C119.330258,6.81901296 118.928162,6.94254384 118.587172,7.18852675 C117.471997,6.37721471 117.012614,6.83951153 116.558688,6.5455188 C116.992973,6.55253147 116.386829,6.36103163 116.497582,6.13231068 Z M131.54317,7.93996137 C131.77668,8.35424837 132.333176,8.08399084 132.710175,7.96909093 C132.855846,8.03759932 132.997153,8.11419926 133.132458,8.19835131 C133.014612,8.63529463 133.664403,8.97729718 133.125911,9.46386863 C132.683987,9.1892956 132.240427,8.91903807 131.794684,8.65201715 C132.035287,8.27764843 131.788683,8.36881315 131.536623,8.28088505 C131.514799,8.19295695 131.490794,8.11419926 131.46406,8.03544158 C131.479882,8.00091766 131.508252,7.96963036 131.54317,7.93996137 Z M161.045113,37.4519762 C161.557417,37.8937745 161.581423,38.2465657 161.639255,38.5831739 C161.697087,38.920861 161.7882,39.2412861 162.427625,39.6469421 C162.081724,39.8886095 161.76474,40.134053 161.735824,40.4204936 C161.5596,40.3530641 161.383376,40.2980416 161.218609,40.2586628 C161.224611,40.0596108 161.22843,39.8589405 161.161323,39.6631252 C161.123132,39.5525408 161.078394,39.4419564 161.031474,39.3308325 C161.143319,39.1776326 161.200605,39.0163412 161.100763,38.8345512 C160.610828,38.4143304 160.564999,38.0545265 160.538265,37.6931042 C160.565545,37.6558831 160.596097,37.6181226 160.629923,37.5776649 C160.641926,37.5625606 160.648473,37.5452987 160.655566,37.5285762 L160.664841,37.5323522 C160.78487,37.6645141 160.916901,37.5059198 161.045113,37.4519762 Z M168.979005,56.206015 C169.426385,56.3727008 169.593333,57.1068735 168.879163,57.2093663 C168.711669,56.7977765 168.90917,56.527519 168.979005,56.206015 Z M153.007561,130.749624 C153.214883,130.306208 153.47349,130.12226 153.785019,130.003584 C153.558055,130.252264 153.336003,130.526298 153.007561,130.749624 Z M152.842248,131.198974 C152.852069,131.164451 152.863526,131.134242 152.873892,131.100797 C152.898444,131.215697 152.903354,131.335452 152.972643,131.437945 C152.894079,131.359726 152.818243,131.278272 152.842248,131.198974 Z M143.183764,143.618414 C143.034819,143.279648 143.044094,143.250519 142.930612,143.148565 L142.937159,143.148026 L142.985716,143.10595 C143.111201,142.999141 143.218681,142.919305 143.341983,142.881005 C143.43255,142.852954 143.487654,142.758553 143.46474,142.670085 C143.44128,142.582157 143.349621,142.533608 143.259054,142.561658 C143.089377,142.613984 142.950799,142.711622 142.826406,142.814654 C142.796944,142.813036 142.765846,142.809799 142.733111,142.804944 C142.936068,142.375014 143.260145,142.294638 143.407453,141.978528 C143.894115,142.42626 143.993411,142.563277 144.097072,143.161512 C143.778451,143.425296 143.459829,143.66049 143.183764,143.618414 Z M125.375336,163.488546 C125.280404,163.505269 125.208932,163.505269 125.17838,163.471284 C125.558652,163.2458 125.925285,163.052682 126.278824,162.88222 C125.984754,163.095837 125.683591,163.299744 125.375336,163.488546 Z M90.0274527,167.459336 C90.2309557,167.559132 90.2609629,167.856901 90.6335972,167.769512 L90.7328936,167.728515 L90.7263466,167.740382 C90.7214363,167.749013 90.7170716,167.757105 90.7121614,167.765736 C90.5397566,167.81914 90.3444373,167.841257 90.1403887,167.816443 C90.0885581,167.73337 90.0018102,167.622246 90.0274527,167.459336 L90.0263615,167.459876 L90.0269071,167.458797 L90.0274527,167.459336 Z M78.5096154,171.57901 C78.5063419,171.591957 79.1948697,171.50295 79.1212158,171.429047 C79.583326,171.886489 78.4365071,171.863293 78.5096154,171.57901 Z M105.21762,8.96057465 C104.602746,8.86401558 103.988418,8.67791009 103.789279,8.66550306 C104.104082,7.67995312 105.57716,8.45350463 106.662874,8.69193543 C106.44955,9.06468584 105.832494,9.05605486 105.21762,8.96057465 Z M120.074435,9.99467384 C119.748176,9.71362758 119.515211,9.3829532 119.144213,9.12941818 C119.448104,9.05497599 119.830559,9.08356611 120.18137,9.28046032 C120.000236,9.56096714 120.205921,9.7287318 120.074435,9.99467384 Z M113.907692,159.997315 C113.984074,160.108439 114.061001,160.207156 114.141202,160.275125 C114.067548,160.306952 113.988984,160.350106 113.903327,160.409444 L113.908783,160.415378 C113.603801,160.32799 113.351196,160.192591 113.184247,160.006486 C113.442308,159.991381 113.688913,159.990303 113.907692,159.997315 Z M104.204469,167.262981 L103.055468,167.549961 C103.041829,167.517595 103.031462,167.487926 103.023279,167.458797 C103.12694,167.310452 103.223508,167.157252 103.25788,166.950648 C103.354994,166.882679 103.46302,166.820104 103.551405,166.74728 C103.61251,166.749978 103.670888,166.754832 103.727083,166.762385 C103.880938,166.936622 104.063709,167.066627 104.204469,167.262981 Z M88.8468075,9.91429785 C88.8140724,9.91915278 88.7786094,9.92346826 88.7464199,9.92886263 C88.7578772,9.90135138 88.7731536,9.87599788 88.7862476,9.85010494 C88.8086166,9.86898521 88.8282576,9.89110209 88.8468075,9.91429785 Z M93.8705508,10.2277103 C93.8503642,10.1683723 93.8290864,10.1084949 93.807263,10.0496963 L93.8307231,10.052933 L93.8132644,9.88408942 L93.8056263,9.88516829 C93.8088998,9.88031337 93.8121733,9.87599788 93.8154468,9.87114295 C93.9709384,10.02704 94.0822377,10.1985807 94.1318859,10.3830679 C94.0505938,10.3075468 93.9594811,10.250906 93.8705508,10.2277103 Z M57.2727335,18.0980844 C57.6797397,17.9249254 58.0780164,17.7814353 58.3475352,17.9082028 C58.4140966,18.4557306 58.3524455,18.2901237 58.6230555,18.7173571 C58.4784756,18.7022529 58.3349868,18.6828332 58.1931348,18.6564008 C57.9154322,18.8128373 57.6519148,18.9735893 57.3998547,19.1375779 C57.2323603,18.7998909 57.2127192,18.583577 57.2727335,18.0980844 Z M47.6748086,158.346101 C47.4216574,158.428635 46.7194899,157.944221 46.5776379,157.588733 C47.1761443,157.854675 47.4860363,157.76351 47.6748086,158.346101 Z M48.2498548,155.597134 C47.7670124,155.392148 47.3529137,155.159651 47.6944497,154.699512 C48.1412835,155.072263 48.3622453,155.020477 48.4168037,155.275091 C48.2029345,155.209819 48.2236668,155.402398 48.2498548,155.597134 Z M49.8347782,157.781311 C48.2203933,157.611389 48.8352671,156.773105 49.1293373,155.741703 C49.4506866,156.0125 49.7682169,156.276824 50.0731987,156.536293 C50.046465,156.93116 49.913888,157.364327 49.8347782,157.781311 Z M50.3159838,159.397462 L50.303981,159.520454 C50.2663356,159.498337 50.2292359,159.478378 50.1904994,159.461116 C50.0764722,159.40933 49.9586259,159.375345 49.8424164,159.343519 C49.7354818,159.31331 49.6383677,159.28472 49.5516198,159.243723 C49.6487338,158.847777 48.6017569,158.829436 48.9334724,158.35635 C49.7382097,158.794912 50.4932988,158.621213 50.7355384,159.388292 C50.5816836,159.357004 50.4883886,159.47622 50.3159838,159.397462 Z M53.930482,160.536751 C53.3292478,160.345791 52.6783653,160.449902 52.6079849,159.802579 C52.8125791,159.955779 53.2004898,160.032918 53.5038349,160.142963 C53.5180201,160.154291 53.5316597,160.166159 53.5463905,160.177487 C53.6735117,160.276204 53.7995417,160.374921 53.9244806,160.473098 C53.9288453,160.493597 53.9315732,160.514095 53.930482,160.536751 Z M90.8087299,170.637155 L90.8371003,170.748818 C90.8038196,170.741266 90.7710845,170.735332 90.7394406,170.731017 C90.5119318,170.701887 90.3122478,170.75691 90.1322049,170.806538 C89.9805324,170.846995 89.8446818,170.882598 89.7028298,170.870191 L89.7552059,170.837825 C89.4518609,170.461299 87.9580501,171.192774 87.3420851,170.462917 L87.3186249,170.500677 L87.1194866,170.267102 L87.1707715,170.261707 C88.395609,170.38362 88.9390113,169.709324 89.8910565,169.509194 C89.8725066,169.576084 89.8490465,169.630027 89.8152202,169.670485 L89.7481133,169.668867 C89.5909849,169.668867 89.4611358,169.778912 89.45568,169.921862 C89.4496785,170.065352 89.5718895,170.185647 89.7295634,170.187265 L90.0045381,170.19212 L90.0820111,170.142492 C90.2473233,170.035683 90.3389815,169.896509 90.3968135,169.753558 C90.5506683,169.843105 90.7596272,169.934269 91.0967985,169.99145 C91.4290596,169.777833 91.7564104,169.558822 91.995922,169.247567 C93.2185772,169.680195 93.5050091,169.143456 93.9922162,169.286946 C93.601032,169.395912 94.1968104,169.406161 94.1597107,169.641895 C93.936021,169.746006 93.6790506,169.839868 93.4089862,169.926178 C93.1121882,169.731441 92.6735381,169.671025 92.4269339,169.95261 C92.4127487,170.160293 92.6091591,170.127388 92.7968403,170.10581 C92.0128351,170.317809 91.2195551,170.480718 90.8087299,170.637155 Z M116.077482,160.38517 C115.880526,160.433719 115.67866,160.472559 115.476248,160.497912 C115.352946,160.513556 115.229644,160.522726 115.107978,160.529199 C115.109069,160.45206 115.105796,160.374921 115.093793,160.299939 C114.890836,160.292387 114.718976,160.214169 114.517656,160.20338 C115.296751,159.963331 116.024561,159.704401 116.674352,159.44763 C116.432112,159.578713 116.168049,159.779922 115.789414,159.996776 C115.866887,160.170474 115.964546,160.295623 116.077482,160.38517 Z M124.678624,163.796564 C124.622429,163.842956 124.567325,163.900136 124.512766,163.962711 C124.216514,164.106201 123.912623,164.232968 123.600003,164.337619 C123.542717,164.357039 123.495796,164.392641 123.462516,164.436875 C123.237735,163.860757 124.343635,163.247418 124.678624,163.796564 Z M151.922938,138.834694 C152.105164,138.584935 152.238286,138.344886 152.211007,138.136124 C152.086068,138.105376 151.743987,138.381028 151.492472,138.697677 C151.586313,138.54178 151.69161,138.385343 151.806183,138.23592 C152.233922,137.679761 152.780052,137.214767 153.292901,137.210451 C153.140138,138.095127 152.39596,138.577383 151.922938,138.834694 Z M160.221281,127.087392 C160.214734,127.096023 160.207641,127.103575 160.201094,127.111666 C160.204913,127.102496 160.208187,127.093865 160.212551,127.084155 C159.968675,127.053947 159.892293,127.24221 159.920663,127.416448 C159.645689,127.674838 159.327613,127.886297 159.105014,127.997421 C158.988259,127.05071 160.12744,126.453015 160.15963,125.895238 C160.628832,126.233464 160.524626,126.683893 160.221281,127.087392 Z M175.460005,74.1681615 C175.26905,74.2328938 175.326882,74.4745612 175.384714,74.7183864 C174.447946,75.0274833 175.075368,73.6686436 175.460005,74.1681615 Z M175.164844,75.4676633 C175.153386,75.7298293 176.091246,77.2127394 175.115741,77.4193434 C175.303968,76.8254242 174.964614,75.6079167 175.164844,75.4676633 Z M97.5772528,171.414482 L97.7032829,171.354605 L97.7131034,171.410706 C97.8516819,171.711172 97.7442017,171.858438 97.6749125,172.02944 C97.4419478,172.022966 97.2155302,171.988442 97.0049346,171.906448 C97.010936,171.69445 97.2488109,171.568222 97.5772528,171.414482 Z M11.6176657,53.8788873 C10.994608,54.0326266 10.675441,53.7904197 10.3060802,53.2574568 L10.3999208,53.0654175 C10.6836248,52.8118825 10.9471422,52.4892996 11.3023178,52.465025 C11.132641,52.3414941 11.2979531,52.2503294 11.3885201,52.295642 C11.5047297,52.4763532 12.1141477,52.7244938 12.1141477,53.2855075 C11.8653611,53.2277878 11.7682471,53.639917 11.6176657,53.8788873 Z M10.7938329,106.976671 C11.0333445,107.154145 11.1375512,107.559262 11.3792452,107.73296 C10.7360009,108.123512 10.2220602,107.189209 10.7938329,106.976671 Z M7.6332611,119.580598 C8.00371307,120.157794 7.9387885,120.539715 7.85531405,120.91786 C7.81494079,120.947529 7.77293077,120.976659 7.72546491,121.007946 C7.70855178,121.019274 7.69654892,121.034918 7.68400047,121.050561 L7.67636229,121.043549 C7.59397901,120.872547 7.41011699,120.99446 7.26226355,121.010643 C6.87544404,120.403777 6.96000966,120.036961 7.00529319,119.675538 C7.05057671,119.312498 7.05657814,118.957549 6.52845222,118.349065 C6.95673616,118.207193 7.35664969,118.052375 7.47449597,117.768092 C7.93442382,118.122502 8.43145142,118.377655 8.68405711,118.316159 C8.70697166,118.900369 7.49741053,118.940287 7.6332611,119.580598 Z M5.65278888,72.6189007 C5.53166909,73.6141605 5.42528009,74.4961387 5.06355747,74.7469765 C4.84095894,74.4238542 4.87914987,73.914087 4.50978907,73.6956154 L4.4732349,73.7290604 C4.3488416,73.2468045 4.48087308,72.7505232 4.62818093,72.2326644 C4.74329929,71.8280873 4.8638735,71.4127214 4.87642194,70.9741598 C5.00136082,70.3408617 4.37775759,70.1995294 4.66309835,69.463199 C5.25342093,69.103395 5.57313352,69.7960311 6.2627525,69.8397254 C5.9075769,70.5161784 5.77063516,71.6252593 5.65278888,72.6189007 Z M4.95334938,99.4456022 C4.54797999,99.1392024 4.60417521,98.3386791 5.36581136,98.449803 C5.40945813,98.9212702 5.12411737,99.1375841 4.95334938,99.4456022 Z M4.58780767,77.8902712 C4.68055706,77.6259475 4.18025595,75.8258489 5.24196365,75.9105404 C4.86551025,76.4596864 4.83604868,77.8071981 4.58780767,77.8902712 Z M3.88454908,79.1282773 C4.09896384,79.1207252 4.11533138,78.855862 4.13115333,78.58992 C5.18413168,78.5564749 4.12242398,79.7556416 3.88454908,79.1282773 Z M179.870511,84.9466361 C179.469507,84.897008 179.127971,84.7810292 178.995939,84.4260802 C179.027583,84.0479354 179.752665,84.3527169 179.657733,83.8488835 C179.657733,83.3304853 179.212536,83.3401951 178.774977,83.3418134 C178.480907,82.8940814 178.968114,81.9133864 178.472178,81.3583065 C177.86767,81.2601292 177.836572,81.6765739 177.290987,81.6291035 L177.277347,81.6355767 C177.182416,81.3011263 177.178597,80.9391646 177.171504,80.555086 C177.162229,80.018347 177.145862,79.4627277 176.863249,78.9594338 L176.80378,78.4496666 C177.415926,78.1837245 177.341181,78.8342846 177.866033,78.6875579 L177.96533,79.5851798 C178.130096,79.5636023 178.074447,79.3521433 178.097361,79.2075744 C178.401797,78.923831 178.967023,78.8585592 179.035767,78.3692906 C178.518007,77.1873859 179.024855,75.782694 178.653312,74.5301232 C178.512005,74.0543404 178.306866,73.7716759 178.223937,73.115182 C178.026435,71.5055044 177.165503,69.5937425 176.765589,68.1993 C176.553357,67.4413921 176.835969,66.3004846 175.57676,66.4547633 C175.999043,67.4009344 175.920478,68.0633621 175.628045,68.5828391 C175.335066,69.1039345 174.826581,69.4869342 174.371018,69.898524 C173.965649,69.8618423 174.067673,68.9593656 173.856532,68.5790631 C174.091679,68.1966028 174.874593,68.1442775 175.042633,67.7175834 C174.804758,67.7418581 174.539604,67.3631739 173.792153,67.6884539 C173.391148,66.6570519 174.239532,66.3441789 174.016934,65.4195853 C173.800882,64.7485266 173.236748,64.7717224 172.825377,64.4949916 C172.690072,63.6432219 173.180007,63.1167321 173.390057,62.4397397 C173.769238,62.644186 173.300581,63.5822656 173.857623,64.352041 C174.368836,64.4340353 175.034995,64.2020778 175.383078,64.6282324 L175.437636,64.6115098 C175.429998,64.7657886 175.454549,64.9367899 175.511836,65.1272108 C175.523838,65.1660502 175.537478,65.2048896 175.552209,65.2453474 C175.573487,65.3046853 175.635683,65.3359726 175.691333,65.3154741 C175.747528,65.2955149 175.775899,65.2243094 175.75353,65.1725235 C175.672783,64.9475786 175.638411,64.753921 175.653688,64.5937084 C175.656961,64.5645789 175.648232,64.5370676 175.632955,64.5149508 C175.752438,63.5919754 175.704973,62.7499155 175.512927,61.8787261 C175.303968,60.9330944 174.926423,59.9502417 174.388477,58.7855989 C174.046395,58.7419046 173.758327,58.5574174 173.386783,58.590323 C173.389511,57.7229096 173.191464,56.7735019 173.397695,56.0010293 C172.977049,55.4502649 172.561314,54.8606612 171.961171,54.8482541 C171.913705,54.7738119 171.874423,54.6869627 171.832958,54.5904036 C171.781673,54.4695699 171.728752,54.346039 171.645823,54.2311391 C171.581989,54.143211 171.465234,54.1210941 171.383397,54.1825899 C171.311379,54.235994 171.291738,54.3363292 171.332112,54.4194023 C171.337022,54.4307305 171.343569,54.4409798 171.351207,54.4512291 C171.406857,54.527829 171.448321,54.6265458 171.492514,54.7295782 C171.552528,54.8682133 171.616361,55.0192554 171.726024,55.1514173 L171.695471,55.1541144 C171.674739,55.3245763 171.658371,55.4955776 171.769671,55.7194436 C171.083325,54.7500767 169.972515,55.0661863 169.212515,54.337408 C169.1094,53.9090957 169.614066,53.6987156 169.892314,53.4052623 C169.722637,52.9586091 169.410563,52.9861204 169.0352,53.2321033 C168.765136,52.5594263 168.650018,51.961731 168.86225,51.5701004 C169.073937,51.1795485 169.615157,50.989667 170.656132,51.1746936 C170.575931,51.0150205 170.773433,50.951367 170.871638,50.8537291 C170.694323,50.410852 170.427532,49.6934018 169.974697,49.2327233 L169.377828,49.565016 C169.050477,48.9624658 169.283441,49.01587 168.825696,48.6112928 C168.179724,48.8098053 167.671239,48.4084648 167.085281,48.3636916 C166.69246,47.7444189 167.216221,47.3743656 167.874196,47.0393757 C167.681059,46.297651 168.387046,45.8008302 168.73131,45.1993589 C168.092976,44.2645159 168.132803,44.0174542 167.48574,43.3199632 C167.119107,43.4893461 166.767205,43.5697221 166.460041,43.3345279 C166.585525,42.7082425 166.232532,42.1531627 165.818433,41.609411 C165.405426,41.0651199 164.931858,40.5343147 164.81183,39.9220546 C164.633424,39.5363577 164.389002,39.9069504 164.195865,39.6841632 C163.647552,38.7439259 163.921436,37.9369294 163.092147,36.9648653 C162.186476,37.3225115 161.320088,36.8958175 160.446607,36.5063446 C159.980678,36.718343 160.526808,37.0382287 160.376227,37.2825933 C160.358768,37.2928425 160.341855,37.3041707 160.328215,37.3208932 C160.276385,37.3834678 160.227828,37.4487396 160.182544,37.5177874 L160.16454,37.4762509 L160.161812,37.4762509 C160.15963,37.4719354 160.157993,37.4670804 160.15581,37.462765 C159.975222,36.9934555 159.74935,36.5246854 159.499472,36.0602308 C159.525115,36.054297 159.550212,36.0483632 159.574763,36.0445872 C159.789178,35.4393398 159.143751,34.7558741 160.213642,34.2212928 C160.106708,32.968722 159.196673,32.2874141 158.200435,31.7576877 C157.552826,31.4135274 156.8703,31.1314023 156.323624,30.7715984 C156.176862,30.4301353 156.050832,30.0908299 155.920983,29.7553006 L155.930803,29.7482879 C155.978814,29.7148429 155.985362,29.6468739 155.946079,29.5967063 C155.919891,29.5621824 155.878972,29.5470782 155.840236,29.5503148 C155.640006,29.0475603 155.416317,28.5555945 155.078054,28.0819695 C154.20621,26.8633831 153.439118,25.7035953 152.604374,24.640906 C151.770175,23.5792956 150.867232,22.6158625 149.729142,21.8191153 C149.473809,21.1059806 148.981692,20.024411 148.278979,19.0998174 C147.578993,18.1757632 146.671686,17.4108427 145.656899,17.3304667 C145.649261,16.4641321 144.879986,15.564892 143.897388,14.6866899 C142.91479,13.8068694 141.723234,12.9524025 140.87976,12.1092637 C139.377765,12.1222102 138.84582,12.6033873 137.320911,12.0073103 C137.411478,11.6739387 138.288778,11.7165542 138.5332,11.0848744 C137.967429,10.4780087 137.075398,9.57768966 136.121716,8.86563388 C135.176218,8.15627529 134.174525,7.63410105 133.435257,7.72904182 C133.236119,7.60551093 133.027706,7.49546595 132.8122,7.40106461 L132.84057,7.37786886 C132.884762,6.99810577 131.811597,7.01968322 131.484247,6.99594803 C131.335848,7.20740702 131.189631,7.41778713 131.399681,7.57584194 L131.547535,7.61683909 C131.39368,7.69883339 131.238188,7.80348401 131.193996,7.96693318 L131.185812,7.99768104 L131.197269,8.03112609 C131.238188,8.14818374 131.270923,8.2533738 131.299294,8.39308778 L131.219638,8.31109347 C130.082094,8.33321036 128.488987,7.23168165 127.606231,7.9329487 C127.450194,7.45446879 126.952075,6.56871456 126.30774,6.63021029 C125.856541,7.19985491 126.156067,7.61036586 126.2941,8.05378241 C125.955838,8.5543792 124.703175,8.03382327 124.384554,7.48036173 L124.348,7.51218847 L124.217059,7.21172251 L124.272163,7.22251123 C124.725544,7.24462811 124.104669,6.32327109 124.171776,5.96238828 C124.506219,5.29726345 125.749607,5.33933947 125.58484,4.63969072 C124.382372,4.06249399 123.864066,4.95472146 122.690514,4.45736129 C122.982401,5.37008733 122.220765,5.46934359 121.521326,5.91276015 L121.53933,5.95052068 C121.32928,5.86690807 121.123595,5.86151371 120.937005,5.85827709 C120.795698,5.85504047 120.66694,5.85288273 120.545275,5.81943768 C120.271937,5.27892262 119.45847,4.68446393 118.558256,4.27503185 C117.622578,3.84725895 116.599061,3.62339293 116.030562,3.81543222 C116.718544,3.08233842 117.804803,3.28678474 118.91725,3.57268593 C120.031334,3.8569688 121.166696,4.22108824 122.03363,3.76040972 C122.436817,2.66697255 120.85353,2.95125543 120.061341,2.70311478 C118.777581,2.29314327 117.539103,1.67926488 116.478487,2.05039698 C115.727217,1.45971435 114.831367,1.39228482 113.881504,1.41008622 C112.928913,1.42842705 111.923401,1.53145936 110.903703,1.27900322 C110.930982,2.11890538 111.602597,2.26563202 112.400242,2.38430799 C113.195704,2.50190508 114.121561,2.59522754 114.602767,3.28570587 C114.579852,3.80194631 114.070822,3.48152121 113.945883,3.8181294 C112.955647,3.50471697 112.185827,3.58023803 111.398548,3.62231406 C110.609633,3.66600839 109.803804,3.67571824 108.706634,3.26035237 C106.850009,3.67949429 104.643665,3.02353988 102.557349,2.43339668 C103.448835,1.9225506 105.446766,2.95718923 105.475682,1.26066239 C104.672035,0.409971509 103.792553,0.171001274 102.867787,0.158594242 C101.940293,0.147266082 100.965333,0.363579996 99.9243579,0.426154595 C99.3640425,2.07089556 100.639619,2.15558704 102.143796,2.34331084 C101.687142,2.8762738 101.165017,2.63946131 100.41593,2.35841505 C99.9178109,2.75921614 98.851193,2.45173751 98.3950842,2.90594279 C95.9765075,2.59037261 93.9660281,2.74195419 92.073395,2.90863997 C90.1774884,3.07964124 88.3972458,3.26574673 86.3534857,3.11362572 C86.2803774,2.73332321 86.5106141,2.64054018 86.5848136,2.39833333 C87.451202,2.2801968 87.5395867,2.79050344 88.2090191,2.83581608 C88.4168868,2.02504348 89.0241225,1.60104663 89.5664336,1.11069913 C89.5020547,0.760605037 89.1468791,0.627903732 89.2085301,0.181250562 C87.9449561,-0.0458520767 86.8930689,0.103032313 85.7680734,0.204985755 C84.64035,0.308557504 83.4427917,0.364658869 81.8191318,0 C82.3134315,1.04380904 82.0193614,1.29626518 81.4426784,2.17500674 L81.4819605,2.27264469 C81.2468135,2.22733205 81.0105754,2.27480244 80.7988886,2.32011508 C80.6663115,2.3487052 80.5380991,2.37567701 80.4180705,2.37945306 C80.4033397,2.20845179 80.1605545,2.25160668 80.0001527,2.21708277 C80.0678051,1.59888889 80.7192332,0.819403582 80.1365488,0.222787149 C78.8566073,0.0280506822 79.1632258,1.08426675 78.5090698,1.37987779 C76.430938,1.31838206 75.1128055,2.00832096 73.5971714,2.50460226 C73.8737828,2.96905682 74.513208,3.29487629 75.2055549,3.41678887 C75.898993,3.53870145 76.6486262,3.45778602 77.1674772,3.0909694 C77.8636432,3.20910593 77.2907794,3.41894661 77.4331769,3.97780251 C76.3856544,4.34677687 75.4679811,4.68284562 73.7984921,4.29984592 C73.4760516,4.46059791 72.9217376,4.79720609 72.3548752,4.99679749 C71.7874671,5.19638888 71.2064195,5.26112122 70.8054148,4.86409618 C69.2886895,5.2697522 67.8745341,6.03736991 66.323437,6.1921881 C66.5133005,5.47581683 66.9885047,5.3382606 67.5275423,5.27244938 C68.0545771,5.20663817 68.6399894,5.20609873 69.1108289,4.7853385 C69.1992136,4.75297232 69.2903263,4.72168503 69.3858036,4.69255547 C69.6253152,4.61865271 69.8730107,4.54313164 70.1032474,4.39208951 C70.1910865,4.33490927 70.2118187,4.22702203 70.1501677,4.15150097 C70.0890622,4.0759799 69.9690336,4.06087568 69.8806488,4.11805592 C69.7006059,4.23619245 69.491647,4.30038536 69.2706852,4.36781488 C69.1381082,4.40935147 69.0022576,4.45196693 68.8680438,4.50914716 L68.882229,4.4336261 L68.4790419,4.50213449 C68.788934,3.84186459 70.2843815,3.92817438 70.7966854,3.40492127 L70.7857738,3.39898747 C71.09021,3.30458614 71.4017388,3.21450029 71.7105397,3.16325385 C71.8643946,3.13843979 71.9696924,3.00789623 71.9462323,2.87357662 C71.9222265,2.739257 71.7754643,2.65294721 71.6227006,2.67668241 C71.2353355,2.74141475 70.8621556,2.85415691 70.5020697,2.96635964 L70.5129814,2.89785125 C70.3831323,2.6513289 70.3351208,2.94262445 70.1027018,2.95880754 C69.668962,2.97822724 69.9248412,2.18201941 69.5511157,2.12915467 C68.5008653,2.10164342 66.8270116,2.22193769 65.4292238,2.70257534 C64.0303448,3.17997638 62.9255359,4.00315601 62.9860958,5.26166066 C63.0537483,5.66030401 62.426326,5.15431285 61.9893127,5.50602525 C62.7029374,5.99313614 63.2583425,6.68469334 64.5099137,6.3933978 C64.4706316,6.8837453 63.9059515,7.07848177 63.29326,7.25541684 C62.681114,7.43181247 62.020411,7.59256446 61.8016316,7.98095852 C61.2860541,8.11527814 60.7721134,8.25607098 60.2598094,8.40063988 C60.2548991,8.79281 59.8779002,9.11647172 60.3203693,9.32253634 C59.329042,9.3770194 58.271699,9.64134313 57.282554,9.89703589 C56.2928635,10.1521892 55.3702799,10.3987116 54.6211922,10.4008693 L54.4957077,10.0621034 L54.4536977,10.090154 C54.4340567,9.57337417 54.1487159,9.1504562 53.6527795,8.94654931 C53.0711862,8.70596077 52.3439219,8.83488602 51.8174328,9.27668427 C51.7017688,9.37324334 51.6875836,9.53129815 51.7857888,9.62947554 C51.8834485,9.72765293 52.0547621,9.72819236 52.170426,9.63271215 C52.5277839,9.3338645 53.0133543,9.24377866 53.4007194,9.40291234 C53.7155217,9.53183759 53.8966558,9.79184583 53.9157513,10.1241385 L53.868831,10.0982456 C53.6969718,10.1268357 53.7160673,10.229868 53.7444377,10.3372158 C53.2195853,10.6722057 52.9958956,10.4208284 52.5566999,10.5950663 C52.902055,10.9090182 53.1601165,11.3912742 53.8164549,11.0821772 C53.5305685,11.4943065 52.6559963,12.1313806 51.7465068,12.8752631 C50.8353804,13.6186062 49.8920646,14.4698365 49.4261353,15.2509401 C49.578899,15.80602 50.1479438,15.7348144 49.6356398,16.1512591 C48.9394738,15.8108749 49.3011964,14.9186474 48.5128266,14.6748223 C47.6409824,14.93537 47.6377089,15.9538255 46.6622035,15.7644834 C47.2367042,14.681835 45.7925416,13.0316996 45.1863971,12.8574617 C45.4122691,13.4956148 43.7711506,14.288586 43.8944527,15.5578793 C44.8514081,15.0006417 45.2442291,16.0271888 45.9665831,16.1129592 C44.5186015,17.4825877 43.3657812,18.8727148 41.4142249,19.454227 C41.0617773,18.8969894 41.746486,18.1104914 41.1627104,17.9173733 C39.5084978,18.4400869 39.5035875,18.6385995 38.5275366,19.9656125 C38.9241767,20.574636 39.7109097,19.6381747 40.1010027,20.2563686 C39.784018,20.9500836 39.0382039,21.5682774 38.9301781,22.3002923 C38.2651104,22.2118248 38.3409467,22.569471 37.6742423,22.4885556 C36.4630444,21.3961973 38.2454694,20.7483344 38.6644784,20.5250078 C38.3693171,20.0907617 37.5924046,20.0988532 37.0015364,19.4466749 C36.2579046,19.7773493 35.3467782,20.4840107 34.6838929,21.2926255 C34.0193708,22.100701 33.6041809,23.004796 33.7978634,23.7055236 C34.3712729,24.0523811 34.9452279,23.7362715 35.5000875,23.394269 C36.0538559,23.0522664 36.5890744,22.6843709 37.0457288,22.920644 C37.5416652,23.2313592 36.8438625,24.0124628 36.4788663,23.7637827 C36.1580626,24.1996472 37.0277245,24.0674853 37.1199283,24.6430637 C36.5617952,25.0390099 36.093138,24.9429903 35.6212073,24.8340242 C34.9528661,25.5401461 34.6828017,26.2926596 33.975724,27.0052549 C33.2331833,26.8860395 33.6860186,26.9270366 32.9287471,26.9119324 C32.4933706,27.6072656 31.7644695,29.261177 30.7780525,28.4698241 C30.2302855,28.9666449 30.7033074,29.5082388 30.6563871,30.0234004 C29.3300709,31.3385458 28.0070281,32.5204505 26.5235835,33.2157838 C26.4477472,33.1947458 26.3588169,33.1737078 26.2611573,33.1564458 L26.3440862,33.1132909 C26.1263979,32.7923264 25.9070729,32.8721629 25.6877478,32.7443165 C25.0221346,33.4628456 24.119192,34.2158985 23.8638584,34.9333486 C24.2206708,35.1016527 24.5703905,35.0789964 24.9152,34.8659191 C24.3614316,35.8466141 23.716005,36.9206316 22.977829,37.9045632 C22.2385618,38.8874159 21.4049085,39.7812617 20.4403148,40.4043105 C19.9563812,39.8389814 20.1767974,39.364817 20.5859859,38.8733906 C20.9842627,38.3932924 21.5560354,37.8991688 21.8370115,37.2599369 L22.068885,37.1552863 C22.1054391,37.1391032 22.1365375,37.1159075 22.1610888,37.0867779 C22.2200119,37.0166512 22.2407441,36.9195527 22.2041899,36.8316246 C22.1534506,36.7075543 22.0105074,36.6530712 21.8839318,36.709712 L21.6716993,36.8046528 C21.2777872,36.5063446 21.4540111,36.1454618 21.3814483,35.8104719 L21.3776292,35.8034592 C21.3999982,35.7894339 21.4218216,35.7732508 21.440917,35.7532916 C21.5303929,35.6594297 21.6138674,35.5590946 21.6978874,35.45822 C21.8070043,35.3271371 21.9133933,35.2036062 22.0285117,35.1000344 C22.2091002,35.3082568 22.3755035,35.158833 22.5539097,35.2996258 C22.5713684,34.7704389 23.3990203,34.1754408 23.8371248,33.6235975 C23.1256824,33.2249542 22.41424,33.7298665 21.7306225,34.5848728 L21.7557194,34.596201 C21.5625824,34.7477826 21.4087275,34.9274148 21.2614197,35.1038105 C21.2003142,35.1777132 21.1370264,35.2499977 21.073193,35.3212033 C19.8172572,35.9269901 18.4631161,36.5327769 17.6376466,37.7848084 C18.226878,38.0917476 18.1963252,38.4990219 18.41074,38.8642202 C18.0910274,39.081613 17.4543301,39.7424223 17.0626003,40.4733584 C16.6686882,41.2021367 16.5197436,41.9913318 17.1258882,42.4342089 C16.6070372,42.902979 16.7434333,42.1995542 16.116011,41.9713727 C14.6003769,41.9071798 14.7247702,42.8474171 13.5621293,44.4727383 C13.9282166,44.7322071 14.2904848,44.962007 14.5921931,44.8902619 C14.4798027,45.460446 14.1846414,45.5969234 13.717621,45.934071 C13.0738311,44.7591789 12.4474999,45.3482433 11.8015277,46.3931312 C11.1539188,47.4358613 10.5221317,48.9220081 9.75995001,49.5094541 C10.0551113,50.363921 9.53244122,51.5603905 9.97709269,52.6694713 L9.98309412,52.6754051 C9.96127074,52.6980614 9.94217528,52.7228755 9.92744449,52.7525445 L9.79323067,53.027657 C9.39768181,53.4041834 9.12652625,52.6338685 8.81990768,52.5437827 C8.54111394,52.6996797 8.29069059,52.9467415 7.98516319,53.0168682 C7.57051887,54.3352503 7.38502009,55.5613888 6.5682799,57.1052552 C6.09962269,57.3960113 5.63533017,58.0757009 5.27306197,58.8805397 C4.90915702,59.6842996 4.64782198,60.611051 4.55889169,61.3797476 C3.91728415,62.589703 3.63849041,63.2623799 3.41752863,63.9647258 C3.19984036,64.6692295 3.03889289,65.4060993 2.70935977,66.7795039 C3.10381746,66.9515841 3.41752863,67.1732923 3.44262552,67.5762512 C3.29313533,67.9527776 2.64661754,67.4219724 2.5876944,67.9657241 C2.42674693,68.4959899 2.88503803,68.6200602 3.33296301,68.7506038 C3.49500165,69.2975921 2.6940834,70.1525984 3.02907237,70.8700486 C3.61666702,71.1527131 3.7770689,70.7362684 4.3204712,70.9498851 L4.33683874,70.9477274 C4.33083731,71.3177806 4.22172038,71.6894522 4.11042112,72.08378 C3.95329274,72.6356233 3.79889229,73.2085045 3.93146936,73.8083575 L3.83490087,74.3461754 C3.1272776,74.4335641 3.40498018,73.791635 2.82284138,73.7824646 L2.99906521,72.8346752 C2.82338696,72.807164 2.81520319,73.0407398 2.74700511,73.1804538 C2.34818275,73.3789663 1.75022199,73.2753946 1.52871462,73.753335 C1.69239001,75.1186481 0.739799242,76.4008879 0.732161057,77.7931727 C0.729978718,78.3223596 0.852735261,78.6729932 0.733252226,79.3688659 C0.438090938,81.0740237 0.72670521,83.2884093 0.703790656,84.833894 C0.686331947,85.6732567 0.0452700014,86.7532079 1.37922443,86.977074 C1.24119152,85.8820185 1.52544112,85.2287612 1.98482338,84.7858841 C2.44584239,84.3424676 3.08363083,84.1045762 3.67668133,83.8219117 C4.07986838,83.9815848 3.69632238,84.8732728 3.79452761,85.3253203 C3.43607851,85.645206 2.61933831,85.4623371 2.31599325,85.8474946 C2.56696218,85.894965 2.72027147,86.3615773 3.58502311,86.2553083 C3.67559016,87.4307398 2.71154211,87.4938538 2.65316456,88.5063756 C2.66680417,89.2567313 3.25112532,89.4039974 3.5855687,89.8107323 C3.46008423,90.7229189 2.7971989,91.1123918 2.37327964,91.7413744 C2.04865678,91.4171733 2.81738553,90.6004669 2.48621566,89.6456648 C1.98918806,89.4066946 1.23628126,89.4428368 1.01259156,88.9023217 L0.95148608,88.9028612 C1.0076813,88.748043 1.03550611,88.5651741 1.03550611,88.3531757 C1.03496053,88.3094814 1.03332378,88.265787 1.03114144,88.2193955 C1.02732234,88.1530449 0.973309465,88.1017984 0.910567232,88.1055745 C0.846188245,88.10989 0.795994459,88.173004 0.802541475,88.2339603 C0.814544337,88.4874953 0.790538613,88.6962571 0.725068456,88.8548514 C0.71252001,88.8839809 0.713065594,88.9147288 0.722340533,88.9427795 C0.314788811,89.8495717 0.103101973,90.7239978 0.029448047,91.6723266 C-0.0485705558,92.7021103 0.0327215548,93.8203615 0.222585008,95.173807 C0.558665143,95.3216125 0.795994459,95.5978038 1.18554189,95.6760221 C0.914931909,96.5617763 0.823819275,97.59156 0.373711952,98.31872 C0.632864653,99.0086589 0.875649816,99.7379766 1.48561344,99.9321736 C1.5118015,100.022259 1.52434995,100.123134 1.53689839,100.233718 C1.55162918,100.372893 1.56799672,100.514765 1.61709933,100.657176 C1.65474467,100.766681 1.76822628,100.824401 1.86970502,100.786641 C1.96027207,100.753735 2.01155703,100.657176 1.99628066,100.560077 C1.99409832,100.54767 1.99137039,100.534184 1.98646013,100.521777 C1.95317947,100.425758 1.94063102,100.313555 1.92753699,100.19434 C1.9095327,100.035206 1.89098282,99.8604286 1.82005682,99.692664 L1.85170073,99.6996766 C1.92535465,99.5313726 1.99518949,99.3619896 1.95099713,99.0987447 C2.35309301,100.296833 3.58502311,100.309779 4.13715476,101.28454 C4.10987553,101.75385 3.52882789,101.815885 3.15401125,102.031659 C3.18947425,102.539269 3.51627945,102.606159 3.9762073,102.467524 C4.04385979,103.237299 3.97729846,103.881925 3.63849041,104.219073 C3.3013191,104.554063 2.68971873,104.584811 1.68311508,104.080438 C1.71585015,104.268162 1.49379721,104.273017 1.36340248,104.343683 C1.40814042,104.849135 1.45887979,105.663144 1.77913797,106.270549 L2.49221709,106.111415 C2.64007052,106.826708 2.41856316,106.701558 2.7617359,107.253402 C3.4824532,107.246389 3.87854765,107.8101 4.46341437,108.032887 C4.67346446,108.784322 4.02367316,109.004951 3.24730622,109.147902 C3.21566231,109.963529 2.34054456,110.25914 1.80259811,110.768368 C2.16595748,111.917367 2.04920237,112.157956 2.49439943,113.066366 C2.92213778,113.004331 3.30622936,113.028606 3.54737777,113.361438 C3.22548284,113.963449 3.41480071,114.638283 3.66958873,115.319052 C3.92383117,115.99982 4.24354377,116.685444 4.17643686,117.347332 C4.24027026,117.795603 4.60417521,117.490822 4.7323876,117.776723 C5.00190641,118.903605 4.47268931,119.64533 5.01936512,120.889809 C6.05597592,120.798105 6.8094283,121.496136 7.58197615,122.157484 C8.12374169,122.081963 7.66435943,121.589997 7.89405056,121.385551 C7.91478277,121.380696 7.93551499,121.374223 7.95406487,121.361816 C8.02662762,121.313267 8.09700804,121.263639 8.16466054,121.206998 L8.17011638,121.25231 C9.00922555,121.53066 9.90343877,120.98529 10.1478607,122.045821 C9.98691322,122.72605 8.97594489,122.967178 8.32997268,122.893815 C7.92351213,123.447276 8.37252828,124.341122 7.11331895,124.563909 C6.83507078,125.876358 7.55469692,126.847882 8.40908245,127.689942 C9.26619591,128.536317 10.2569776,129.253228 10.5717799,130.183216 L10.6694396,130.272223 C10.5177671,130.281393 10.3753695,130.33264 10.236791,130.383347 L10.1069418,130.429738 C10.0480187,130.449698 10.0201939,130.516588 10.0441996,130.580241 C10.0676597,130.643355 10.1358578,130.678419 10.194781,130.65792 L10.3306315,130.609371 C10.4130148,130.579162 10.4926702,130.548954 10.5712344,130.529534 C11.0415283,131.245366 11.4572638,132.338264 12.0841406,132.291872 C12.5096966,133.163062 12.9712612,134.514889 14.0711598,134.309364 C14.0493364,134.948056 14.5872829,136.27453 15.2594431,136.615993 C14.9402761,137.009242 14.4781659,138.089732 15.3576484,138.270983 L15.3631042,138.269365 C15.3723791,138.294179 15.3832908,138.317914 15.3991128,138.34111 C15.4471242,138.411776 15.4902254,138.495388 15.5344178,138.586014 C15.9528812,139.701568 16.7499804,139.911408 17.6120041,140.831687 C17.7811353,141.44071 18.3234464,142.35937 18.9885141,143.083833 C19.6530362,143.809914 20.4354046,144.339101 21.0393667,144.206399 C21.2783328,144.959452 21.6744273,145.312783 22.0863437,145.620801 C22.4993512,145.929898 22.9281808,146.193682 23.2593506,146.775734 C23.3400972,146.29132 23.7312813,146.57884 24.0848202,147.081055 C24.7886244,146.775734 26.1362184,145.740017 25.8023206,146.470413 L25.8852495,146.51141 C25.7717679,146.585853 25.6501025,146.681333 25.6413731,146.844242 C25.6359173,146.943499 25.7122991,147.033585 25.8143235,147.045992 C25.9130743,147.057859 25.9976399,146.98989 26.0047325,146.893871 C26.0090972,146.885779 26.0194633,146.876069 26.0325573,146.864741 C26.8945811,146.796772 27.8188014,147.700328 28.705922,147.920418 C28.6590018,148.964766 29.5537606,149.192948 28.941069,150.293397 C29.3611692,150.033389 29.8358278,150.246467 30.2510177,149.97567 C30.823336,150.544775 29.985318,150.460083 30.4998043,150.888396 C30.9242692,151.397084 30.9837379,150.799389 31.0001054,150.595482 C31.2467097,151.363639 31.9286905,151.931126 32.6903266,152.304955 C33.4525084,152.680942 34.2932543,152.861653 34.8666637,152.896177 C35.2349334,153.359553 34.3407201,152.848707 34.2747044,153.361711 C34.9304971,153.943223 35.7603314,154.66391 36.6370859,155.353309 C37.5127492,156.042708 38.4353328,156.700281 39.252073,157.17067 C39.6694453,157.451716 39.1582325,157.907539 39.2706229,158.247924 C40.012618,158.693498 40.0115268,159.282562 40.6967811,159.732452 C40.2324886,160.298321 40.3219645,160.14566 40.0486266,160.823192 C41.1327033,161.604296 40.7627969,162.701509 42.3668157,163.355845 C42.7279927,163.020316 43.171553,162.914586 43.7007701,163.032723 C43.8404398,162.720929 43.1633693,162.611962 43.4165205,162.272118 C43.6396647,161.965718 44.2272593,162.638934 44.4820473,162.416147 C44.2823634,162.053107 44.2752708,161.639898 44.4547681,161.180299 C43.9828374,161.316237 43.4372528,160.855019 43.4885377,160.463928 C44.634811,160.487123 45.7036113,161.082661 46.7342207,161.7726 C47.7457346,162.45175 48.7196032,163.223144 49.6149076,163.63851 C49.5374346,163.731832 49.4817849,163.817063 49.4321367,163.895281 L49.3803062,163.977815 L49.3824885,164.098649 C49.4004928,164.203299 49.4686909,164.562024 49.5849004,164.792364 L49.6116341,164.845228 L49.6574632,164.885686 C49.7687625,164.986021 49.8898822,165.061003 50.0066374,165.132208 C50.1228469,165.203953 50.226508,165.268146 50.2985251,165.34097 C50.2494225,165.388441 50.2025022,165.438069 50.1566731,165.488236 C50.104297,165.545416 50.0535576,165.600978 50.004455,165.642515 C49.5379802,165.73314 49.230816,166.165768 48.860364,166.469471 C49.7425744,167.213353 50.9254019,166.459761 50.2336006,165.871236 L50.2014111,165.857211 C50.2679724,165.802728 50.3290779,165.735837 50.3885466,165.670026 C50.4283743,165.626332 50.4687475,165.582638 50.5096664,165.542719 C50.5260339,165.549732 50.5418559,165.555666 50.558769,165.559981 C50.7322649,165.652764 50.9210372,165.694301 51.0918052,165.728825 C51.2522071,165.760652 51.4180648,165.671105 51.4409794,165.526536 C51.4606204,165.399769 51.3929679,165.277856 51.2696658,165.227149 C51.2516615,165.219597 51.232566,165.214203 51.2123794,165.209887 C51.055251,165.1786 50.9308577,165.151628 50.8430186,165.110091 C50.6984387,164.909421 50.4993003,164.782654 50.3203485,164.672069 C50.2439667,164.624599 50.1714039,164.579286 50.1097528,164.532355 C50.0715619,164.436875 50.0300975,164.293925 49.9989992,164.141804 C50.05574,164.053336 50.1086617,163.980512 50.1937729,163.896899 C50.2117772,163.879638 50.2259624,163.859678 50.2374197,163.83864 C50.7633632,163.691374 51.5959254,163.922253 51.6777631,164.507541 C52.0787678,164.618126 52.0313019,163.792249 52.3892055,163.817602 L52.5719763,163.890966 L52.5736131,163.841338 C52.8594994,164.046323 53.192306,164.177946 53.5191112,164.214088 L53.4896497,164.247533 L53.5671227,164.30795 C53.4487308,164.364591 53.3281566,164.43202 53.201581,164.520488 C53.1175609,164.578747 53.1039213,164.693107 53.1721194,164.775641 C53.2397719,164.857635 53.3641652,164.875976 53.4487308,164.816638 C53.5092907,164.774023 53.5676683,164.737341 53.6249547,164.703896 C54.4466051,165.218518 55.2180618,166.335691 56.3354191,165.658159 C57.517701,166.44142 57.5455258,168.202679 57.5302495,169.087894 L57.5329774,169.138062 C57.4254972,169.07225 57.3174715,169.011833 57.2121736,168.955732 C57.1925326,168.945483 57.1728915,168.933076 57.1532505,168.922827 L57.3054686,168.449202 C56.7887999,168.289528 56.2213919,168.027902 55.8918588,168.180562 C55.8503944,168.684935 56.1979318,169.031253 56.8319011,169.247567 L56.8291732,169.188769 C56.8891875,169.222214 56.9486562,169.257277 57.0086706,169.289643 C57.0997832,169.338732 57.1876223,169.386742 57.2721879,169.436909 C57.511154,169.76165 58.0769253,170.050248 58.6852521,170.221249 C59.3334067,170.404118 60.0213889,170.452128 60.3852939,170.294613 L60.6755449,169.249725 C61.2227663,169.352218 61.8949265,169.444461 62.1295279,168.510697 L62.9075316,168.706513 C62.8829803,169.163415 63.5709625,170.025434 62.7962324,169.982819 C63.7057219,170.575659 64.5906602,171.246718 65.5148806,171.558512 C66.4374642,171.870306 67.3976932,171.822296 68.4075703,170.969447 L67.4080593,170.789276 C67.3431347,170.283285 67.7321366,170.369055 67.7714186,170.001159 C67.7872406,169.986595 67.8030626,169.973109 67.8183389,169.960162 C68.170241,170.146268 68.1986114,169.913771 68.2231627,169.676419 C69.0688189,170.030828 69.9341161,170.370134 70.6379203,170.750436 C71.7825569,170.401961 72.2064761,169.935888 73.249634,169.884102 C73.143245,170.039459 73.0510412,170.20129 72.9812063,170.366358 C73.0870497,170.414368 73.185255,170.467772 73.2829146,170.521715 C73.1492464,170.659272 73.0406751,170.826497 73.0237619,171.047126 C73.3549318,171.241323 73.7766687,171.478136 74.2436892,171.714409 L74.2175011,171.960931 C75.4516136,173.079722 77.0599971,172.88067 78.8369662,173.04304 C78.8571528,172.960506 78.900254,172.881209 78.9586316,172.805688 C79.0262841,172.817016 79.0944822,172.827266 79.1626802,172.836436 L79.1441304,172.863947 C79.2074182,173.216739 80.1654648,172.912497 80.4660819,172.846685 C80.5413726,172.617425 80.6150265,172.389783 80.3836987,172.303473 L80.2396643,172.30617 C80.2816743,172.264634 80.3225932,172.220939 80.3580562,172.174008 C80.6172089,172.167535 80.8267134,172.234425 80.8998217,172.400032 C81.5665261,172.434017 81.7520249,171.966326 81.6931018,171.486227 C82.0384568,171.490543 82.3843575,171.494858 82.6980687,171.458177 C82.2785141,171.559591 81.8916946,171.725737 81.7171075,172.056411 C81.8916946,172.189652 82.0755566,172.311025 82.2665112,172.420531 C82.1072005,172.410821 81.9664397,172.424307 81.8595051,172.479869 C81.8485934,172.678921 81.7454779,172.763073 81.5763467,172.761994 C81.8464111,173.314377 82.1824912,173.843564 83.2583841,174 C83.5355411,173.662852 83.638111,173.333796 83.5922819,172.945942 C84.631075,173.190306 85.7364295,173.070551 86.6704704,172.43132 C86.7746771,172.407045 86.8805205,172.388704 86.9885462,172.374139 C86.6382809,172.726391 86.1707149,172.991254 86.4042251,173.395831 C87.6410655,173.594883 87.863664,172.655725 89.0535841,172.791123 C88.9668361,172.664356 88.9155512,172.552153 88.8899087,172.448581 C89.1179631,172.522484 89.291459,172.441029 89.4338566,172.577507 C89.6515448,172.51709 89.5457014,172.209072 89.8130379,172.187494 L89.7993983,172.158904 C90.0263615,172.186955 90.2402307,172.152431 90.4317309,172.100106 L90.4208192,172.140024 C90.7459876,172.245214 90.9445804,172.487421 91.1966405,172.672448 C90.661422,172.74689 90.1807619,172.899011 89.8326789,173.242632 C89.7672088,174.331214 91.1126205,173.6553 91.8911698,173.667707 C93.1552894,173.694679 94.4346853,173.916927 95.2857974,173.30197 C96.1210874,173.633183 96.9443747,173.455709 97.7922132,173.18653 C98.6427796,172.917891 99.5178974,172.558087 100.502678,172.513853 C100.420294,172.270568 100.295901,172.113052 100.140955,172.012178 C100.388105,171.997073 100.63089,171.932341 100.850761,171.870845 C101.099002,171.802337 101.332512,171.737065 101.558384,171.731671 L101.550746,171.783996 C102.458599,172.125459 103.787643,171.644282 104.817161,171.210575 C104.813887,170.81355 104.445072,170.950028 104.125905,171.009905 C104.124814,170.782263 103.511577,170.533044 102.874334,170.490968 C102.236546,170.44997 101.570387,170.616117 101.435082,171.25427 L101.449267,171.275847 C101.194479,171.297964 100.951694,171.363236 100.716001,171.428508 C100.189512,171.574155 99.8763465,171.638348 99.5746382,171.362157 C99.5189885,170.96729 99.8288806,171.003432 99.4507905,170.732096 C98.6258665,170.981854 98.1473888,170.936542 97.7294709,171.122647 C97.7081931,171.115635 97.6852786,171.113477 97.662364,171.116714 C97.6481788,171.119411 97.6334481,171.124266 97.6198084,171.130739 L97.4621345,171.20626 C97.2073465,171.325475 96.846715,171.489464 96.7583303,171.781838 C96.7163203,171.755406 96.6748558,171.726276 96.6350282,171.69445 C96.5155451,171.224601 97.059493,171.377261 97.0802252,171.041192 C98.0546394,171.060612 98.7257085,170.788197 99.4213289,170.541135 C100.118586,170.292455 100.838758,170.069668 101.93702,170.150583 C102.256187,169.97149 102.602633,169.831237 102.967083,169.718495 L102.985633,169.796713 L103.380637,169.702312 L103.357722,169.610608 C104.035884,169.442843 104.767513,169.358691 105.518783,169.315536 C105.555883,169.381887 105.594619,169.445001 105.63772,169.50326 C105.775753,170.075602 104.494175,169.934269 104.880994,170.634997 C105.027757,170.696493 105.177247,170.753673 105.328374,170.810314 C105.336012,170.895005 105.353471,170.987788 105.381841,171.088663 C106.334977,171.639427 107.189363,171.620547 108.023562,171.384813 C108.859943,171.150159 109.677229,170.695953 110.594357,170.363661 C110.643459,168.949798 109.76725,168.963824 108.616612,169.142916 C108.674444,169.036108 108.667352,168.899631 108.645528,168.756141 C108.910137,168.698961 109.240216,168.730248 109.628126,168.758298 C109.966389,168.266333 111.00791,168.258781 111.293796,167.730133 C112.188555,167.587722 113.004204,167.396222 113.768022,167.176672 C113.56943,167.330411 113.337556,167.602826 113.20116,167.67565 C113.550334,168.071057 113.810032,167.253271 114.094828,167.148081 C114.08337,167.122188 114.068094,167.106005 114.052272,167.093059 C114.51711,166.952806 114.962853,166.803382 115.39441,166.648024 C115.373678,166.820644 115.396593,167.009446 115.441876,167.205801 C115.779047,166.964134 115.901258,166.646406 116.14077,166.370754 C116.421746,166.263946 116.697812,166.156058 116.970604,166.048171 C118.626999,165.390598 120.174823,164.750288 122.05218,164.344632 C122.221311,164.666675 122.039631,164.811783 122.039086,165.048056 C121.292726,165.384125 121.074492,164.949879 120.460709,165.086356 C120.494535,165.870697 120.064615,166.411751 119.71053,166.9965 C119.86384,167.293729 120.219015,167.318543 120.284485,167.736067 C121.481498,167.604444 122.384986,167.191776 123.36813,166.801224 C124.35291,166.408514 125.412981,166.040079 126.970079,165.936508 C126.450683,165.36039 126.402671,165.039425 126.519427,164.560406 C126.781853,164.544223 127.197043,164.162842 126.808586,163.990222 L126.659642,164.072756 C126.678192,164.012339 126.697833,163.949764 126.716928,163.882874 L126.655823,163.805195 C126.879512,163.783618 127.078651,163.677888 127.255966,163.581329 C127.367811,163.520912 127.475291,163.462653 127.582225,163.426511 C127.641694,163.577014 127.847925,163.473982 128.001234,163.462114 C128.108715,164.034995 127.735535,164.908342 128.420789,165.288645 C129.623258,165.124117 129.061305,164.256703 129.568699,163.817602 C131.451512,163.321321 132.447749,162.350875 133.673678,161.502882 C133.444532,161.292502 133.106815,161.165734 132.729271,161.115027 C133.044619,160.982326 133.297224,160.862571 133.537827,160.467164 C133.083901,160.207695 132.357182,160.953736 131.906529,160.683478 C131.811597,160.82535 131.789774,160.977471 131.816508,161.136065 C131.218001,161.235321 130.643501,161.496408 130.308512,161.924181 C129.650537,162.003478 130.108282,161.663094 129.828397,161.1981 C130.248498,160.893858 130.641864,160.60526 131.130708,160.380315 C131.132345,160.386249 131.131253,160.392183 131.133981,160.398656 C131.165625,160.476335 131.262739,160.507082 131.350033,160.467704 C131.539896,160.381394 131.68284,160.258402 131.817053,160.132174 C132.157498,160.039391 132.544863,159.973041 133.004791,159.94445 C133.251395,159.714111 133.65731,159.264221 134.111782,158.934086 C134.11451,158.933008 134.116147,158.931389 134.118329,158.929232 C134.132515,158.993964 134.145063,159.069485 134.15652,159.159031 C134.446771,158.954585 134.780123,158.751757 135.001631,158.53814 C135.182765,158.519799 135.363899,158.54839 135.539577,158.642251 C136.149541,158.268962 136.714221,157.824466 137.288722,157.403167 L137.358556,157.493252 L137.858858,157.109174 L137.803208,157.038508 C138.246768,156.735884 138.705605,156.46239 139.204269,156.259022 C139.228275,156.952198 138.839273,157.201957 138.373344,157.404785 C137.918872,157.602758 137.396747,157.759734 137.087947,158.258173 C137.015929,158.312656 136.940639,158.365521 136.861529,158.418925 C136.66621,158.548929 136.464343,158.682709 136.298486,158.879603 C136.235743,158.954046 136.246109,159.057078 136.321946,159.107785 C136.397236,159.16011 136.509627,159.141769 136.572915,159.066248 C136.703309,158.913048 136.872986,158.799227 137.053029,158.679473 C137.1616,158.607728 137.270717,158.52843 137.376015,158.441581 L137.384199,158.518181 L137.727372,158.349338 C137.628075,159.024172 136.261931,159.344058 135.944401,159.950384 L135.955858,159.952542 C135.707617,160.117609 135.452284,160.281598 135.189312,160.409984 C135.057826,160.473637 134.998357,160.618206 135.056189,160.732567 C135.114021,160.846927 135.270058,160.885227 135.400453,160.823731 C135.730532,160.66244 136.035514,160.462309 136.327402,160.265415 L136.336676,160.330147 C136.520538,160.516792 136.483984,160.242759 136.688579,160.166698 C137.07267,160.033997 137.059031,160.816179 137.409841,160.765472 C138.36025,160.510858 139.831146,159.958476 140.955596,159.155255 C142.082228,158.354732 142.850411,157.321712 142.454317,156.207776 C142.285186,155.867931 142.986262,156.15599 143.28306,155.722823 C142.509967,155.4763 141.823076,155.002136 140.778281,155.596595 C140.680076,155.145087 141.134548,154.819807 141.636486,154.498303 C142.138423,154.177878 142.687827,153.857992 142.779485,153.451257 C143.205587,153.193406 143.628961,152.930701 144.049606,152.664759 C143.947582,152.310889 144.198551,151.919798 143.744625,151.852908 C144.620288,151.540035 145.498134,151.022176 146.316511,150.529671 C147.136524,150.038244 147.897615,149.571632 148.570321,149.370422 L148.774915,149.641759 L148.804922,149.604537 C148.963142,150.063598 149.334139,150.36784 149.835531,150.419086 C150.423126,150.481121 151.040728,150.171485 151.393176,149.635285 C151.47174,149.517688 151.440641,149.37204 151.326069,149.309466 C151.211496,149.247431 151.057641,149.292743 150.980168,149.408722 C150.740111,149.772302 150.32874,149.982143 149.937556,149.941685 C149.61948,149.910398 149.386515,149.724832 149.27849,149.430839 L149.328138,149.441628 C149.4749,149.370962 149.429617,149.283033 149.374512,149.194566 C149.755331,148.753847 150.024304,148.920532 150.371841,148.647578 C149.975747,148.457157 149.613479,148.091958 149.107722,148.544006 C149.252302,148.098432 149.864993,147.294132 150.479867,146.383564 C151.095832,145.474614 151.711251,144.459395 151.917482,143.634058 C151.629414,143.176616 151.138388,143.391851 151.485379,142.881544 C152.202823,143.001838 152.119894,143.89946 152.894625,143.90917 C153.606612,143.443637 153.332729,142.527674 154.260768,142.439206 C154.038716,143.56447 155.784041,144.661684 156.375455,144.656829 C155.999547,144.144904 157.25821,142.996444 156.802102,141.888982 C156.094478,142.644192 155.462146,141.825868 154.790531,141.941307 C155.718571,140.326235 156.376546,138.77158 157.97129,137.731007 C158.439401,138.138282 158.037851,139.025654 158.613988,139.043995 C159.958309,138.135584 159.908661,137.955952 160.424238,136.504869 C159.902659,136.06361 159.450915,137.113892 158.93261,136.661845 C159.028633,135.954644 159.53057,135.201591 159.428546,134.515428 C160.049967,134.41779 159.884655,134.116785 160.504985,134.012674 C161.889678,134.671865 160.465157,135.727002 160.149263,136.038796 C160.532809,136.35059 161.227884,136.136434 161.936053,136.565286 C162.513827,136.070623 163.140158,135.194578 163.515521,134.291562 C163.893065,133.390164 164.020186,132.467728 163.656281,131.889453 C163.046863,131.730319 162.617488,132.166723 162.212119,132.620928 C161.807841,133.076212 161.426477,133.548219 160.952364,133.457054 C160.422601,133.309788 160.8367,132.423495 161.232249,132.549183 C161.402471,132.073401 160.656657,132.422416 160.417691,131.930989 C160.811058,131.426617 161.258437,131.388317 161.711818,131.360805 C162.120461,130.548954 162.158106,129.800756 162.599484,128.9738 C163.298924,128.883175 162.881006,128.966248 163.565169,128.779603 C163.767035,128.038957 163.972175,126.359692 165.073165,126.808503 C165.429977,126.217281 164.85875,125.856398 164.759999,125.380616 C165.594744,123.846999 166.462223,122.434755 167.605223,121.41576 C167.679423,121.414681 167.764534,121.410365 167.855646,121.399577 L167.79345,121.459993 C168.076063,121.690872 168.251741,121.560868 168.483069,121.616969 C168.885165,120.795408 169.491855,119.879985 169.526227,119.16739 C169.160139,119.111288 168.851884,119.22457 168.600369,119.507234 C168.831152,118.47853 169.11922,117.343016 169.514769,116.263604 C169.911409,115.184193 170.417166,114.159803 171.114423,113.344176 C171.702564,113.723939 171.633274,114.207274 171.399219,114.758038 C171.17171,115.294777 170.793074,115.890315 170.71451,116.538717 L170.533921,116.694614 C170.506097,116.718349 170.484819,116.748558 170.470634,116.781463 C170.436262,116.859142 170.444445,116.953004 170.500641,117.021512 C170.580296,117.11915 170.723239,117.130478 170.82199,117.046326 L170.986757,116.903915 C171.421042,117.067364 171.361028,117.438497 171.517065,117.720082 L171.522521,117.725477 C171.506153,117.743817 171.490877,117.763777 171.47942,117.787512 C171.424861,117.895399 171.376304,118.007602 171.328838,118.120344 C171.266096,118.266531 171.204445,118.405706 171.1297,118.529776 C170.910375,118.391141 170.801258,118.569694 170.603211,118.490397 C170.731423,118.970495 170.149284,119.724627 169.906499,120.335808 C170.653404,120.505191 171.154797,119.862723 171.537252,118.913855 L171.511063,118.910078 C171.643095,118.721815 171.732571,118.520066 171.817136,118.322632 C171.852054,118.240099 171.889154,118.157565 171.92789,118.077189 C172.890847,117.199526 173.942734,116.295431 174.343193,114.952235 C173.730502,114.83302 173.647027,114.45919 173.35514,114.188393 C173.583739,113.907887 173.975469,113.145124 174.128779,112.385598 C174.284816,111.624993 174.204069,110.877334 173.539002,110.641061 C173.878355,110.081666 173.946553,110.750027 174.571793,110.788327 C175.950486,110.443088 175.583307,109.632855 176.186178,107.863504 C175.786265,107.727566 175.3989,107.616982 175.147385,107.761551 C175.093372,107.220496 175.321427,107.019826 175.648777,106.592592 C176.54681,107.476728 176.948906,106.780316 177.245704,105.670696 C177.543593,104.562694 177.706723,103.060364 178.231575,102.329968 C177.735093,101.641108 177.878582,100.427376 177.178051,99.5497134 L177.170958,99.5453979 C177.184598,99.5200444 177.194419,99.4925331 177.199874,99.4617853 L177.246249,99.1796602 C177.498855,98.7351647 177.95169,99.3560558 178.251762,99.3544375 C178.459629,99.1413602 178.617303,98.8527618 178.872637,98.7081929 C178.887368,97.413546 178.720419,96.2634681 179.034676,94.6608031 C179.375666,94.2745668 179.608085,93.5409336 179.71502,92.7220695 C179.823591,91.9026659 179.806132,91.0018074 179.677374,90.2875939 C179.924524,89.0307076 179.992177,88.3520968 179.999815,87.6632368 C180.003634,86.9727585 179.947984,86.2677154 179.870511,84.9466361 Z" id="Fill-97" fill="#BA605B" mask="url(#mask-2)"></path>
            </g>
        </g>
    </g>
</svg>