<?xml version="1.0" encoding="UTF-8"?>
<svg width="508px" height="194px" viewBox="0 0 508 194" version="1.1" xmlns="http://www.w3.org/2000/svg" xmlns:xlink="http://www.w3.org/1999/xlink">
    <!-- Generator: Sketch 52.6 (67491) - http://www.bohemiancoding.com/sketch -->
    <title>Group 3</title>
    <desc>Created with Sketch.</desc>
    <defs>
        <polygon id="path-1" points="0 0.606236359 508 0.606236359 508 203.606236 0 203.606236"></polygon>
        <path d="M500.541568,144.231782 C497.860091,157.117913 491.067755,167.871872 470.487605,173.226145 C445.135461,179.822482 417.943957,177.733453 391.75339,174.945053 C361.274676,171.702516 330.585433,169.095771 299.870336,166.879584 C218.37708,160.996241 136.100804,161.947658 55.3794888,153.328142 C38.1160971,151.484346 11.5746479,151.200511 3.6114745,139.572338 C-3.86785121,128.645807 2.44063684,112.349108 3.36770388,100.918485 C4.66412033,84.8488542 5.96792378,68.7792237 7.26434023,52.7050518 C8.24680968,40.5727874 5.09625915,24.3056074 12.9227733,12.8272999 C20.8970272,1.12419465 39.5861077,0.433906718 57.6805357,0.631456224 C161.637623,1.76225684 265.59471,3.61513497 369.540716,5.10470366 C393.718329,5.45438899 417.895942,5.77228475 442.069861,6.1469476 C459.850342,6.42397105 479.193171,6.57156551 492.47867,15.0094272 C504.057774,22.3619019 506.465932,33.0114097 507.245259,42.7617267 C508.530595,58.854064 507.995039,75.1053493 506.971941,91.1954159 C505.849119,108.877232 504.198127,126.670312 500.541568,144.231782" id="path-3"></path>
        <filter x="-3.1%" y="-4.5%" width="106.3%" height="118.1%" filterUnits="objectBoundingBox" id="filter-4">
            <feOffset dx="0" dy="4" in="SourceAlpha" result="shadowOffsetOuter1"></feOffset>
            <feGaussianBlur stdDeviation="2" in="shadowOffsetOuter1" result="shadowBlurOuter1"></feGaussianBlur>
            <feColorMatrix values="0 0 0 0 0   0 0 0 0 0   0 0 0 0 0  0 0 0 0.08 0" type="matrix" in="shadowBlurOuter1" result="shadowMatrixOuter1"></feColorMatrix>
            <feOffset dx="0" dy="8" in="SourceAlpha" result="shadowOffsetOuter2"></feOffset>
            <feGaussianBlur stdDeviation="4" in="shadowOffsetOuter2" result="shadowBlurOuter2"></feGaussianBlur>
            <feColorMatrix values="0 0 0 0 0   0 0 0 0 0   0 0 0 0 0  0 0 0 0.08 0" type="matrix" in="shadowBlurOuter2" result="shadowMatrixOuter2"></feColorMatrix>
            <feMerge>
                <feMergeNode in="shadowMatrixOuter1"></feMergeNode>
                <feMergeNode in="shadowMatrixOuter2"></feMergeNode>
            </feMerge>
        </filter>
    </defs>
    <g id="Welcome" stroke="none" stroke-width="1" fill="none" fill-rule="evenodd">
        <g id="11-copy-3" transform="translate(-139.000000, -5133.000000)">
            <g id="Group-3" transform="translate(139.000000, 5133.000000)">
                <mask id="mask-2" fill="white">
                    <use xlink:href="#path-1"></use>
                </mask>
                <g id="Clip-2"></g>
                <g id="Fill-1" mask="url(#mask-2)">
                    <use fill="black" fill-opacity="1" filter="url(#filter-4)" xlink:href="#path-3"></use>
                    <use fill="#FFFFFF" fill-rule="evenodd" xlink:href="#path-3"></use>
                </g>
            </g>
        </g>
    </g>
</svg>