<?xml version="1.0" encoding="UTF-8"?>
<svg width="80px" height="66px" viewBox="0 0 80 66" version="1.1" xmlns="http://www.w3.org/2000/svg" xmlns:xlink="http://www.w3.org/1999/xlink">
    <!-- Generator: Sketch 52.6 (67491) - http://www.bohemiancoding.com/sketch -->
    <title>Group 3</title>
    <desc>Created with Sketch.</desc>
    <defs>
        <polygon id="path-1" points="0 0 71 0 71 53 0 53"></polygon>
    </defs>
    <g id="Welcome" stroke="none" stroke-width="1" fill="none" fill-rule="evenodd">
        <g id="11-copy-3" transform="translate(-169.000000, -5172.000000)">
            <g id="Group-3" transform="translate(208.149072, 5205.785110) rotate(-15.000000) translate(-208.149072, -5205.785110) translate(172.649072, 5179.285110)">
                <mask id="mask-2" fill="white">
                    <use xlink:href="#path-1"></use>
                </mask>
                <g id="Clip-2"></g>
                <path d="M68.7994857,49.8133755 C69.3068508,48.5581679 69.2671258,43.8267308 69.5298685,42.4788051 C69.5012943,43.1510119 69.6295295,43.825326 69.6950409,44.4912111 C69.7675216,45.2238253 69.8846059,45.9543322 69.8985445,46.705209 C69.9194524,47.8894731 69.60444,48.9367672 68.7994857,49.8133755 Z M45.9213621,22.4474625 L67.7331827,6.82655541 L67.6126138,6.65446484 C64.7579882,8.21943543 61.9869942,9.90241099 59.2160003,11.5860889 C56.4645203,13.2971609 53.716525,15.0145546 51.0145271,16.79657 C48.2881367,18.5434649 45.6209853,20.3746491 42.9364106,22.1812489 C40.629572,23.7363857 38.3624585,25.347013 36.0834972,26.9407824 C33.7209042,25.1664935 31.3394941,23.4181938 28.9706288,21.6537386 C26.1898778,19.6841796 23.4495487,17.6619398 20.6353451,15.7380374 L16.4230997,12.8405941 L12.1655539,10.0035581 C9.3025651,8.15973054 6.44933336,6.30185477 3.49365291,4.58235387 C3.71457974,4.38427411 4.05537855,4.23255344 4.64289061,4.08574965 C5.23388731,3.93894586 6.09041438,4.07521349 6.70022819,4.07170144 C8.30037965,4.06327251 9.9005311,4.05835564 11.5006826,4.05765323 C14.7002885,4.05624841 17.9005915,4.07170144 21.1008944,4.10330991 C27.7280025,4.1693365 34.3558075,4.30911619 40.9815217,4.52335139 C47.377946,4.73056249 53.7722794,5.00450258 60.1631282,5.34446926 C61.9368153,5.43859227 63.8924011,5.31848007 65.6409986,5.65212506 C67.7687262,6.05882074 68.0419227,6.59616477 68.2907268,8.73289751 C68.4154773,9.81180003 68.5221076,10.8928098 68.6308287,11.9738195 C68.7283989,14.4526262 68.8099397,16.9314328 68.8587248,19.4116443 C68.9869599,25.9560029 69.0928933,32.5790315 68.6747353,39.1149612 C68.5701957,40.7621138 68.8141213,45.8349224 68.4057202,47.4371208 C68.1799149,48.3228604 67.879538,48.9606491 67.4753186,49.4453124 L45.9213621,22.4474625 Z M64.9050405,50.7770827 C63.3592496,51.1177518 61.6134397,51.171135 59.8752961,51.1774567 C52.7749725,51.0952746 30.3505503,49.2128145 23.2906487,48.4240075 C19.2986332,47.9779769 15.3198594,47.4146436 11.3605996,46.7319006 C9.71863235,46.4488292 7.52748419,46.3947436 6.01653979,45.7386922 C5.85415508,45.6677487 5.70501204,45.5925908 5.56562603,45.5146232 L29.4626614,24.5322168 L35.9239002,29.4294228 L36.0444691,29.5207362 L36.1671288,29.4329349 L44.2759102,23.6261073 L67.3442957,49.5886041 C66.7686315,50.197594 65.9936452,50.5375607 64.9050405,50.7770827 Z M59.8752961,52.1200916 C52.740126,51.9613468 30.274585,51.4169787 23.1554442,50.9014094 C19.5244385,50.6387078 15.8955236,50.3352665 12.2714872,49.9875733 C10.459469,49.8133755 8.64884469,49.6279391 6.84031114,49.4298594 C5.78655286,49.3139616 3.44417087,49.3575111 2.6893956,48.9178021 C1.85865495,48.4345437 1.3777732,46.8161899 1.22305472,45.9985841 C0.627179505,42.8412489 1.30738326,38.7686728 1.38892408,35.5502279 C1.47185876,32.3001745 1.58197371,29.0501212 1.7206628,25.802175 C1.74296456,25.264831 1.77153869,24.727487 1.79593124,24.1901429 C1.82659617,27.5069253 1.89559224,30.8230053 2.01755501,34.1376804 C2.13394233,37.3224096 1.9687699,40.7719476 2.51307229,43.9215562 C2.7542101,45.3179483 2.90753472,46.0020961 4.19964308,46.713638 C5.46457117,47.411834 7.58742018,47.4286918 8.99591586,47.682262 C10.7800569,48.003966 12.5669856,48.3010857 14.3587928,48.5764306 C17.5514295,49.0674155 20.7545201,49.4895642 23.9659739,49.8351502 C30.802858,50.5726812 53.0014748,51.8482587 59.8752961,51.9234166 C61.6218029,51.896725 63.3676127,51.8749503 65.1141195,51.8412346 C63.4930601,52.1545097 61.6678003,52.1531049 59.8752961,52.1200916 Z M3.26018133,10.3491441 C3.30478486,8.71744448 3.3612362,7.08574489 3.42814148,5.4540453 C3.43511078,5.27844268 3.42465683,5.04102793 3.41559674,4.79026738 L27.8450867,23.3065105 L5.47014661,45.4563232 C3.62537269,44.3689917 3.78984819,42.6333354 3.67137008,40.4284688 C3.32011732,33.9065873 3.13124927,27.3769794 3.12358304,20.8445617 C3.11870453,17.345855 3.16330805,13.8471483 3.26018133,10.3491441 Z M6.9692432,1.62380085 C10.0538557,1.38146923 13.4820548,2.08668937 16.5729397,2.26510164 C19.7760303,2.45053801 22.9812117,2.60577073 26.1870901,2.73150221 C32.5995437,2.98296517 39.0161789,3.11150629 45.4335111,3.13398343 C52.0787393,3.15716297 58.7260584,3.05601586 65.3671051,2.81860111 C67.5735857,2.73922873 68.0921017,2.81649388 68.278879,4.77551676 C46.7960094,3.45217538 25.2448406,2.77224202 3.71945825,3.00333507 C4.44705325,1.85348909 5.85136736,1.71160217 6.9692432,1.62380085 Z M70.7174373,39.1219853 C70.8986391,31.5661556 70.660986,24.0145403 70.0567476,16.4889142 C69.9536019,11.65633 69.7689155,6.82655541 69.4789926,2.00099529 C69.4566908,1.64487317 69.1841911,1.30420408 68.8029704,1.31965711 C54.1423493,1.91249157 39.474062,1.96657718 24.8134409,1.34915835 C21.1496795,1.19533045 17.4873119,1.00286997 13.8277321,0.770372099 C11.0414056,0.594067064 7.23547049,-0.388605223 4.53347258,0.169811123 C3.12915848,0.459906659 2.675457,1.04360978 2.28308537,2.38099937 C1.89907689,3.68818531 1.80917291,5.22435707 1.80986985,6.78300596 C1.25859815,14.2756187 0.806987465,21.7731484 0.537972455,29.282619 C0.387435559,33.4605567 0.283592977,37.6391967 0.227838571,41.8192416 C0.201355228,43.8183019 -0.618931472,47.6141282 1.02512658,49.2036832 C2.69984955,50.8227394 6.76504269,50.5052498 8.87604389,50.7405573 C12.9482063,51.1936121 17.0273381,51.5890692 21.1127422,51.9037491 C28.9113897,52.5043101 52.0571345,52.8513009 59.8752961,52.9981047 C61.5890472,53.0100457 63.3034952,52.9650914 65.0186401,52.8765877 C66.2745081,52.8119659 68.6008607,53.1125976 69.7584615,52.3048255 C70.4400591,51.829996 70.5933838,51.3523569 70.7766764,50.5572282 C71.3377051,48.1205662 70.6575013,41.616245 70.7174373,39.1219853 Z" id="Fill-1" fill="#EE845E" mask="url(#mask-2)"></path>
            </g>
        </g>
    </g>
</svg>