<?xml version="1.0" encoding="UTF-8"?>
<svg width="34px" height="52px" viewBox="0 0 34 52" version="1.1" xmlns="http://www.w3.org/2000/svg" xmlns:xlink="http://www.w3.org/1999/xlink">
    <!-- Generator: Sketch 52.6 (67491) - http://www.bohemiancoding.com/sketch -->
    <title>Group 12</title>
    <desc>Created with Sketch.</desc>
    <defs>
        <polygon id="path-1" points="0 0.204848485 33.9989103 0.204848485 33.9989103 51.7748188 0 51.7748188"></polygon>
    </defs>
    <g id="Welcome" stroke="none" stroke-width="1" fill="none" fill-rule="evenodd">
        <g id="Home" transform="translate(-730.000000, -6967.000000)">
            <g id="Group-12" transform="translate(730.000000, 6967.000000)">
                <g id="Group-3" transform="translate(0.000000, 0.020260)">
                    <mask id="mask-2" fill="white">
                        <use xlink:href="#path-1"></use>
                    </mask>
                    <g id="Clip-2"></g>
                    <path d="M4.25255,24.6131983 C4.30790897,24.7714494 4.31466538,24.8738736 4.36762692,24.9297004 C5.31439615,25.927155 5.85992179,27.1729039 6.43726795,28.4073974 C6.9559859,29.5174061 7.55360128,30.5880208 8.09389615,31.6878996 C8.19349872,31.8907221 8.23817821,32.1554494 8.21529359,32.381458 C8.18369103,32.695484 8.27130641,32.8463065 8.51301154,33.0599342 C8.83862692,33.3480727 9.15813974,33.7595706 9.24793462,34.1719688 C9.3019859,34.419813 9.35189615,34.5866182 9.52363974,34.7313628 C10.0957551,35.214445 10.3969603,35.8121074 10.3337551,36.5963844 C10.3206782,36.7595879 10.3973962,36.953181 10.4854474,37.098826 C11.464691,38.7178043 12.4613705,40.3257524 13.4395244,41.9454061 C14.6001013,43.8669299 15.74455,45.7988087 16.9044731,47.7205576 C17.0339346,47.9353108 17.219191,48.1138216 17.38505,48.3177697 C19.3468064,45.0915186 21.2896013,41.9260468 23.203409,38.742116 C26.0859987,33.9457351 28.7837679,29.0494061 30.7335372,23.7505835 C31.7413321,21.0123671 32.5680115,18.2514147 32.0846013,15.2640035 C31.4808833,11.5339602 29.7728192,8.40405541 27.0308064,5.95082597 C25.1684346,4.2848 22.8969731,3.30985628 20.4877679,2.78467879 C17.1671013,2.06118095 13.8902423,1.96438442 10.8415756,3.88770909 C10.5632551,4.06329351 10.27055,4.21501645 9.99179359,4.39015065 C4.83490897,7.62878268 2.08657564,12.62551 3.05949872,19.237839 C3.33912692,21.1379775 3.82580641,22.9656312 4.62328077,24.747813 C4.50013974,24.7030165 4.42429359,24.6755532 4.25255,24.6131983 M7.10179359,3.00168312 C8.55529359,2.77995152 9.55349872,1.7669645 10.7798962,1.25889524 C11.0089603,1.16412468 11.2493577,1.08421126 11.4917167,1.03918961 C12.5975885,0.834341126 13.7060756,0.645025108 14.8134731,0.449180952 C22.6990756,-0.945814719 30.3421013,3.74881732 33.0808449,11.550168 C34.4820372,15.5415619 34.1982679,19.4289558 32.7807295,23.2933887 C32.1074859,25.128471 31.3446654,26.9349645 30.5125372,28.6991377 C29.3140372,31.2401593 28.0606141,33.7566442 26.7472551,36.2364364 C25.0895372,39.3670165 23.3773321,42.4681074 21.6256782,45.5439861 C21.0328577,46.5855619 20.2353833,47.5015273 19.5603962,48.4958303 C19.3468064,48.8100814 19.2526526,49.2082978 19.0597679,49.5407827 C18.6783577,50.1980987 18.2703577,50.8389818 17.865409,51.4812156 C17.64005,51.8389126 17.1283064,51.8859602 16.8789731,51.5325403 C16.250191,50.6413368 15.6458192,49.7312242 15.0506013,48.8157091 C14.6988321,48.2740987 14.4172423,47.6820641 14.0456397,47.1566615 C11.6100628,43.7134061 9.55415256,40.0342372 7.59915256,36.2859602 C6.53338333,34.2428779 5.31221667,32.2862372 4.25189615,30.2404537 C2.63842179,27.1269818 1.41834487,23.8433281 0.537832051,20.4286615 C0.502960256,20.2938216 0.533473077,20.1409732 0.533473077,19.9964537 C0.586216667,19.995103 0.639178205,19.9937524 0.691921795,19.9924017 C0.610844872,19.7060641 0.560062821,19.4053195 0.443024359,19.1356398 C-0.0918217949,17.9036225 -0.0791807692,16.6427913 0.149229487,15.342116 C0.463511538,13.5525056 0.79130641,11.7725749 1.57766538,10.1094753 C1.67705,10.1601247 1.76052436,10.2026701 1.86710128,10.2569212 C2.16569103,8.33494719 3.33171667,6.96538874 4.46657564,5.57714632 C5.54237051,5.20796883 6.01226795,4.03920693 6.98933205,3.53789091 C7.21229359,3.42353593 7.45726795,3.30197749 7.10179359,3.00168312" id="Fill-1" fill="#132024" mask="url(#mask-2)"></path>
                </g>
                <path d="M6.17886795,15.6818719 C6.12982949,15.7723654 5.97334231,15.9330926 5.95982949,16.1057506 C5.85412436,17.4568502 5.83995769,18.8142528 6.21177821,20.1255082 C7.22545769,23.7000017 9.24104744,26.4382182 12.6081372,27.9471186 C13.5926115,28.3881056 14.6439962,28.7660623 15.6990859,28.9162095 C16.7609321,29.0672571 17.8944833,29.0524 18.9463038,28.8421489 C22.6294192,28.1055948 25.5061244,26.1172139 27.0784064,22.5154823 C29.2138679,17.6229801 28.0848936,12.0155342 24.1892782,8.76767273 C20.6393295,5.80817489 16.6390987,5.26498874 12.3936756,7.15657316 C12.2016628,7.24233939 11.9667141,7.22545628 11.66965,7.26822684 C11.1962654,7.98924848 10.3203295,8.26140433 9.53549615,8.6848329 C9.38075256,8.76834805 9.27003462,8.97184589 9.18263718,9.14382857 C9.12357308,9.26043463 9.14079103,9.41868571 9.12204744,9.57288485 C8.95270128,9.5031013 8.83609872,9.45515325 8.7367141,9.41418355 C8.45773974,9.94228745 8.47909872,10.6450753 7.73611154,10.7535775 C7.67138077,10.763032 7.59989359,10.8677074 7.56676538,10.9444693 C7.19777821,11.798755 6.76994487,12.6343567 6.49315,13.5199325 C6.28936795,14.1729714 6.28544487,14.8924173 6.17886795,15.6818719 M4.25263718,24.6335255 C4.42438077,24.6958805 4.50022692,24.7233437 4.62336795,24.7681403 C3.82589359,22.9859584 3.3392141,21.1580797 3.0595859,19.2579411 C2.08666282,12.6458372 4.83477821,7.64910996 9.99166282,4.41047792 C10.2704192,4.23534372 10.5631244,4.08362078 10.8416628,3.90803636 C13.8903295,1.98471169 17.1671885,2.08150823 20.4876372,2.80500606 C22.8970603,3.33018355 25.1685218,4.30490216 27.0308936,5.97115325 C29.7729064,8.42438268 31.4809705,11.5542874 32.0844705,15.2841056 C32.5680987,18.271742 31.7412013,21.0326944 30.7336244,23.7709108 C28.7838551,29.0697333 26.0860859,33.9660623 23.2032782,38.7622182 C21.2896885,41.946374 19.3468936,45.1116208 17.3851372,48.3378719 C17.2190603,48.1341489 17.0340218,47.955413 16.9043423,47.7408848 C15.7444192,45.8191359 14.6001885,43.8872571 13.4396115,41.9657333 C12.4612397,40.3458545 11.4647782,38.7381316 10.4855346,37.1189281 C10.3974833,36.9735082 10.3207654,36.7799152 10.3338423,36.6167117 C10.3970474,35.8324346 10.0956244,35.2345472 9.52350897,34.75169 C9.35198333,34.6067203 9.30207308,34.4401403 9.24802179,34.1922961 C9.15822692,33.7796727 8.83849615,33.3681749 8.51288077,33.0802615 C8.27139359,32.8666338 8.18377821,32.7158113 8.21538077,32.4015602 C8.23826538,32.1757766 8.1935859,31.9110494 8.09376538,31.7080017 C7.55347051,30.6083481 6.95607308,29.5377333 6.43735513,28.4277247 C5.86000897,27.1932312 5.31426538,25.9474823 4.36749615,24.9500277 C4.31453462,24.8942009 4.30799615,24.7915515 4.25263718,24.6335255" id="Fill-4" fill="#BA605B"></path>
                <path d="M13.0427487,25.3633039 C13.0296718,25.398871 13.0163769,25.4344381 13.0033,25.4702303 C13.2083897,25.6237541 13.3973513,25.810819 13.6214026,25.9242736 C14.1837103,26.2092606 14.7606205,26.4640831 15.3349154,26.7231827 C15.463941,26.7814857 15.6040821,26.8244814 15.7435692,26.8463169 C17.0360051,27.0489143 18.3125308,26.9453645 19.5744538,26.6106286 C24.5737615,25.2842909 27.5683769,19.8994771 26.0854538,14.9810874 C25.281441,12.3149056 23.8105051,10.3384554 21.2350051,9.2570355 C18.6401077,8.16751169 16.1445949,7.74588398 13.4954282,9.20548571 C12.5669667,9.71715671 11.8324795,10.356239 11.0343513,11.0018494 C10.1745436,11.6972087 9.76371026,12.5877368 9.38513333,13.5548017 C9.34437692,13.6590268 9.30253077,13.7625766 9.26351795,13.8674771 C8.7018641,15.3741264 8.36840256,16.9129662 8.63626154,18.5389229 C8.65108205,18.6291913 8.66372308,18.7953212 8.6347359,18.8063515 C8.21932564,18.9641524 8.52641538,19.1793558 8.59899231,19.3479619 C9.02508205,20.3370874 9.47972308,21.3133818 9.89012051,22.3090355 C10.0150051,22.6122563 10.0195821,22.9247065 10.4365179,23.0332087 C10.6313641,23.0840831 10.7566846,23.4194944 10.8841846,23.5869749 C11.0903641,23.7204641 11.4353769,23.8390961 11.4364667,23.9611048 C11.443441,24.7496589 12.1591846,24.8507325 12.5490949,25.2539013 C12.6489154,25.357226 12.8747103,25.3304381 13.0427487,25.3633039 M6.17888974,15.6818494 C6.28546667,14.8923948 6.28938974,14.1729489 6.49317179,13.5201351 C6.76996667,12.6343342 7.1978,11.7987325 7.56678718,10.9444468 C7.59991538,10.8676848 7.67118462,10.7630095 7.73613333,10.753555 C8.47912051,10.6452779 8.45754359,9.94249004 8.7367359,9.41416104 C8.83612051,9.45513074 8.95250513,9.50307879 9.12206923,9.57286234 C9.14081282,9.4186632 9.12359487,9.26041212 9.18265897,9.14380606 C9.26983846,8.97182338 9.38077436,8.76832554 9.53551795,8.68481039 C10.3203513,8.26138182 11.1962872,7.98922597 11.6696718,7.26820433 C11.9667359,7.22543377 12.2016846,7.24231688 12.3936974,7.15677576 C16.6391205,5.26496623 20.6391333,5.80815238 24.1893,8.76765022 C28.0849154,12.0157368 29.2138897,17.6229576 27.0782103,22.5154597 C25.5061462,26.1171913 22.629441,28.1057974 18.9463256,28.8421264 C17.8945051,29.0526026 16.7609538,29.0672346 15.6991077,28.916187 C14.6440179,28.7660398 13.5924154,28.3883082 12.607941,27.9473212 C9.24106923,26.4381957 7.22547949,23.6999792 6.2118,20.1254857 C5.83997949,18.8142303 5.85414615,17.4568277 5.95963333,16.1057281 C5.97314615,15.9330701 6.12985128,15.7723429 6.17888974,15.6818494" id="Fill-6" fill="#132024"></path>
                <path d="M16.6404064,10.6205835 C16.9769192,10.7542978 17.3204064,10.9141247 17.6780603,11.0255532 C17.9526756,11.1110944 18.2608551,11.0930857 18.5269705,11.1957351 C19.2200474,11.4633887 19.8989577,11.769761 20.5813551,12.0657784 C20.7097269,12.1216052 20.8583679,12.1727048 20.9468551,12.2733281 C21.4941244,12.8966528 22.0154577,13.5442892 22.5679577,14.1624364 C22.9785731,14.6216571 23.1793038,15.1463844 23.2728038,15.7627307 C23.3811244,16.4774494 23.5644192,17.183839 23.76515,17.8782978 C23.8518936,18.178142 24.0495731,18.4509732 24.4488551,18.3789385 C24.8291756,18.3102805 25.0989962,18.1711636 25.2112397,17.724774 C25.4749577,16.6780208 25.2428423,15.7186095 24.8067269,14.7907134 C23.3519192,11.6959255 21.1449705,9.66499913 17.6625859,9.48963983 C16.5898423,9.43561385 16.58265,9.4669039 16.6404064,10.6205835 M13.0427269,25.3633714 C12.8749064,25.3305056 12.6488936,25.3572935 12.5490731,25.2539688 C12.1591628,24.8505749 11.4434192,24.7497264 11.4364449,23.9611723 C11.4353551,23.8391636 11.0903423,23.7203065 10.8841628,23.5870424 C10.7566628,23.4193368 10.6313423,23.0839255 10.4364962,23.0332762 C10.0197782,22.924774 10.0152013,22.6123238 9.89009872,22.3088779 C9.47970128,21.3132242 9.02527821,20.337155 8.59897051,19.3480294 C8.52639359,19.1794234 8.21930385,18.9639948 8.6347141,18.806419 C8.66370128,18.7951636 8.65106026,18.6292589 8.63623974,18.5389905 C8.36838077,16.9130338 8.70206026,15.3739688 9.26349615,13.8673195 C9.30272692,13.7626442 9.34435513,13.6590944 9.38511154,13.5548693 C9.76368846,12.5875792 10.1745218,11.6970511 11.0343295,11.0016918 C11.8324577,10.3563065 12.5669449,9.71699913 13.4954064,9.20555325 C16.1445731,7.74595152 18.6400859,8.16757922 21.2349833,9.25710303 C23.8104833,10.3385229 25.2814192,12.3149732 26.0854321,14.981155 C27.5685731,19.8995446 24.5737397,25.2843584 19.5744321,26.610471 C18.312509,26.945432 17.0359833,27.0489818 15.7435474,26.8463844 C15.6042782,26.8243238 15.4641372,26.7815532 15.3348936,26.7232502 C14.7605987,26.4639255 14.1839064,26.2093281 13.6213808,25.9243411 C13.3975474,25.8108866 13.2083679,25.6235965 13.0034962,25.4700727 C13.0165731,25.4345056 13.02965,25.3989385 13.0427269,25.3633714" id="Fill-8" fill="#F1F3EE"></path>
                <path d="M16.6404064,10.6205835 C16.58265,9.4669039 16.5898423,9.43561385 17.6625859,9.48963983 C21.1449705,9.66499913 23.3519192,11.6959255 24.8067269,14.7907134 C25.2428423,15.7186095 25.4749577,16.6780208 25.2112397,17.724774 C25.0989962,18.1711636 24.8291756,18.3102805 24.4488551,18.3789385 C24.0495731,18.4509732 23.8518936,18.178142 23.76515,17.8782978 C23.5644192,17.183839 23.3811244,16.4774494 23.2728038,15.7627307 C23.1793038,15.1463844 22.9785731,14.6216571 22.5679577,14.1624364 C22.0154577,13.5442892 21.4941244,12.8966528 20.9468551,12.2733281 C20.8583679,12.1727048 20.7097269,12.1216052 20.5813551,12.0657784 C19.8989577,11.769761 19.2200474,11.4633887 18.5269705,11.1957351 C18.2608551,11.0930857 17.9526756,11.1110944 17.6780603,11.0255532 C17.3204064,10.9141247 16.9769192,10.7542978 16.6404064,10.6205835" id="Fill-10" fill="#132024"></path>
            </g>
        </g>
    </g>
</svg>