<?xml version="1.0" encoding="UTF-8"?>
<svg width="60px" height="64px" viewBox="0 0 60 64" version="1.1" xmlns="http://www.w3.org/2000/svg" xmlns:xlink="http://www.w3.org/1999/xlink">
    <!-- Generator: Sketch 52.6 (67491) - http://www.bohemiancoding.com/sketch -->
    <title>Group 3</title>
    <desc>Created with Sketch.</desc>
    <defs>
        <polygon id="path-1" points="0.262141013 0.727351999 63.262141 0.727351999 63.262141 59.727352 0.262141013 59.727352"></polygon>
    </defs>
    <g id="Welcome" stroke="none" stroke-width="1" fill="none" fill-rule="evenodd">
        <g id="Kontakt---form-active" transform="translate(-1288.000000, -1586.000000)">
            <g id="Group-3" transform="translate(1318.000000, 1618.000000) scale(-1, 1) rotate(-90.000000) translate(-1318.000000, -1618.000000) translate(1286.000000, 1588.000000)">
                <mask id="mask-2" fill="white">
                    <use xlink:href="#path-1"></use>
                </mask>
                <g id="Clip-2"></g>
                <path d="M62.33729,48.6080039 C62.0047947,52.9038718 61.1623037,56.4881775 58.6106258,58.273896 C55.3115768,60.5796606 51.96242,59.6319202 48.5495668,58.8825089 C44.438601,57.9801874 40.3204163,57.1603768 36.1971358,56.4230772 C26.5314192,54.6956462 16.6877772,54.3989096 7.12991973,51.6397133 C4.98887134,51.0250446 1.69789056,50.931179 0.710171689,47.0546786 C-0.217672568,43.4113283 0.564943892,37.9784747 0.679597416,34.1678316 L1.16326543,18.0956081 C1.28556252,14.0510578 0.894466612,8.62804495 1.86477514,4.80150529 C2.85376794,0.900024489 5.17189233,0.669902222 7.41527961,0.735759581 C20.307856,1.11197921 33.2000078,1.72967582 46.0913103,2.22701243 C49.0897123,2.34283054 52.0876896,2.4488079 55.0856669,2.57370979 C57.291261,2.66681847 59.6900675,2.71526526 61.3376811,5.52896416 C62.7729734,7.98006909 63.0719218,11.5295537 63.1687403,14.7807877 C63.3279813,20.144756 63.2613124,25.56247 63.1347689,30.9264384 C62.9959108,36.8210505 62.7903837,42.7527547 62.33729,48.6080039" id="Fill-1" fill="#132024" mask="url(#mask-2)"></path>
            </g>
        </g>
    </g>
</svg>