<?xml version="1.0" encoding="UTF-8"?>
<svg width="493px" height="13px" viewBox="0 0 493 13" version="1.1" xmlns="http://www.w3.org/2000/svg" xmlns:xlink="http://www.w3.org/1999/xlink">
    <!-- Generator: Sketch 52.6 (67491) - http://www.bohemiancoding.com/sketch -->
    <title>Group 119</title>
    <desc>Created with Sketch.</desc>
    <defs>
        <polygon id="path-1" points="0 0.522375 513.989281 0.522375 513.989281 13.16385 0 13.16385"></polygon>
    </defs>
    <g id="Welcome" stroke="none" stroke-width="1" fill="none" fill-rule="evenodd">
        <g id="Sermons" transform="translate(-142.000000, -1148.000000)">
            <g id="Group-10-Copy" transform="translate(142.000000, 931.000000)">
                <g id="Group-249-Copy" transform="translate(248.500000, 224.500000) rotate(-360.000000) translate(-248.500000, -224.500000) translate(-21.000000, 216.500000)">
                    <g id="Group-119">
                        <mask id="mask-2" fill="white">
                            <use xlink:href="#path-1"></use>
                        </mask>
                        <g id="Clip-118"></g>
                        <path d="M254.100337,3.10485 C254.069585,3.10135 254.030046,3.09785 253.991387,3.095225 C254.033561,3.0961 254.073978,3.0961 254.112638,3.096975 L254.100337,3.10485 Z M316.920802,6.9881 C315.788245,7.0371 314.638994,7.0861 313.47217,7.1351 C313.586392,7.139475 313.691828,7.14385 313.811322,7.148225 L310.409257,7.4921 C312.500402,7.65835 313.877219,8.126475 310.951373,8.345225 C311.19739,8.168475 310.342481,7.95235 311.359058,7.849975 C309.399708,7.594475 305.097923,7.345975 306.219058,7.99085 C309.986635,7.38185 307.096812,8.810725 310.057804,8.35835 C308.469236,8.77835 306.895605,8.590225 305.394901,8.7766 C306.956231,8.425725 305.031147,7.981225 302.68432,7.8141 C301.663349,7.91735 298.90005,7.818475 297.203411,7.988225 C297.80791,8.381975 296.33005,8.607725 299.095106,8.7066 C298.081164,8.810725 296.511927,8.8921 294.752905,8.689975 C295.450539,8.6226 296.669202,8.5736 296.584853,8.43185 C295.450539,8.068725 294.121168,8.084475 293.38751,7.930475 C292.803219,7.951475 292.212778,7.972475 291.639031,7.993475 C291.809486,8.0276 291.957975,8.072225 292.064289,8.128225 L290.120754,8.476475 C292.709205,8.290975 291.316573,8.658475 291.283185,8.8886 C291.353476,8.42835 289.617298,8.8291 288.731636,8.84485 L290.655841,9.33135 C289.726248,9.57635 287.371513,8.9796 287.858276,9.4626 C291.940402,9.6551 293.510518,9.57285 297.203411,9.4276 L295.704464,9.0496 C299.870939,8.780975 298.273585,9.697975 302.948788,9.680475 C304.892323,9.333975 309.978727,9.655975 310.075376,8.962975 C309.48845,9.174725 312.986286,9.578975 314.588033,9.265725 C316.357599,8.6331 321.712864,8.548225 320.090029,8.2586 C318.6438,8.250725 316.696751,8.598975 315.533441,8.18685 L318.339794,8.054725 L316.499058,7.709975 C317.450617,7.83335 317.357482,7.496475 316.920802,6.9881 Z M328.558289,6.456975 C330.383209,7.43435 332.396156,8.29885 340.916255,8.126475 L340.245858,8.19385 C344.538857,8.8081 348.61659,7.3836 353.840939,8.06435 C351.306084,8.432725 351.442272,8.40035 348.643828,9.2421 L351.363195,8.9656 C350.609329,9.4976 353.322546,9.221975 355.317041,9.248225 L353.556262,9.879975 C352.358686,9.697975 349.253599,9.633225 349.344098,9.776725 C350.024159,9.706725 345.245277,8.978725 342.648918,9.162475 C342.916901,9.59035 348.398689,9.4171 345.950819,10.117975 C348.107862,9.823975 348.375845,10.25185 350.630416,10.10135 C348.468101,10.394475 350.096207,10.68585 348.485674,10.998225 L352.182959,10.8521 C352.279609,10.9956 346.797821,11.169725 349.827346,11.6956 C351.309599,11.472475 355.266081,11.754225 355.336371,11.29135 L355.42687,11.433975 C358.198956,11.533725 356.646412,10.78035 360.050235,11.043725 C360.089773,10.81185 359.441342,10.65085 358.2218,10.698975 C357.191164,10.802225 357.033011,11.118975 354.910235,11.183725 C353.958676,10.82235 357.47057,11.229225 355.997103,10.618475 C355.266081,10.313975 350.394064,10.880975 351.945729,10.194975 L354.712542,10.294725 C354.783711,9.830975 356.786994,9.8581 356.730761,9.48535 C358.422129,9.3156 360.019482,9.836225 361.746874,9.433725 C362.463838,9.13535 361.210908,8.579725 364.069978,8.821225 C366.303462,9.5046 372.885298,9.3716 375.350741,9.27535 L377.507783,8.9796 C377.324149,8.6961 373.386118,9.0181 374.770843,8.649725 L378.136005,8.5386 L377.87593,8.716225 C378.990915,8.7556 380.130501,8.56485 381.147958,8.46335 C380.099749,8.79585 377.675602,8.66285 378.157093,9.1441 C379.735995,9.239475 379.977619,9.4171 381.430877,9.32435 C381.113691,9.358475 380.840436,9.405725 380.879975,9.473975 C384.078197,9.682225 383.968368,8.93585 384.769681,8.77835 C387.983718,8.152725 381.529284,8.19735 381.940484,7.7021 L391.326036,7.436975 C390.524723,7.594475 389.71726,7.74935 390.01951,7.946225 C392.321527,8.168475 390.072228,8.320725 393.304717,8.2971 C393.073636,7.6391 397.372785,7.886725 399.656351,7.506975 C400.723011,7.776475 400.942669,7.82985 398.610778,7.837725 C398.877882,8.264725 402.009329,8.1011 403.122556,8.14135 C403.768351,8.033725 404.868399,7.9716 405.566033,7.876225 C404.631168,7.6636 405.029188,7.39585 407.0518,7.21385 L407.169537,7.1246 C403.854457,7.008225 398.702156,6.540975 396.62419,6.978475 L397.211995,6.7676 C393.375007,6.397475 388.862351,7.5341 387.092785,6.72735 C387.256211,6.4071 386.321346,6.65385 386.389,6.19185 L383.564197,6.55235 L384.151123,6.343225 L379.345882,6.44735 L379.472405,6.3616 C377.190597,6.791225 375.400823,7.12985 373.96953,7.398475 C373.964258,7.6006 374.112747,7.66185 373.351852,7.809725 C372.587441,7.909475 372.007544,7.925225 371.490029,7.898975 L371.487394,7.900725 L371.487394,7.898975 C370.308269,7.84035 369.521893,7.550725 368.070392,7.433475 L372.539117,7.3836 C372.90287,7.04235 372.522423,6.6871 370.33287,6.44735 C371.229076,6.4351 371.602494,6.168225 370.495417,6.12885 C370.373288,6.2181 367.566935,6.3476 368.636231,6.6206 C364.390679,6.743975 357.518894,5.8471 351.073246,6.49635 C355.704518,6.1061 347.362782,6.038725 352.502782,5.898725 C348.914446,5.35185 349.415267,6.43685 345.75752,6.3511 C345.446484,6.154225 347.74938,6.376475 348.590231,5.989725 C342.508337,5.7701 338.328682,6.8726 332.445359,6.70635 L332.19407,6.280225 C331.080843,6.334475 329.843729,6.39485 328.558289,6.456975 Z M427.324488,7.06335 C427.667154,7.029225 427.791041,6.939975 427.791041,6.939975 C420.36484,7.949725 414.252194,8.24285 410.250023,8.203475 C411.025855,8.604225 414.615947,8.91485 416.321373,9.080225 L414.810125,9.536975 L413.866474,9.17735 L411.243756,9.592975 C411.977414,9.9001 414.095797,9.836225 415.511274,10.0716 C415.635161,9.98585 420.168905,9.4521 421.435893,9.1721 L417.813291,8.85535 C418.791209,8.983975 423.597329,8.8781 425.503082,8.761725 C425.540864,8.532475 422.256535,8.17985 421.842699,8.675975 C421.452587,8.336475 425.238614,8.33385 422.844341,7.96985 C425.681445,7.6076 430.195858,7.909475 432.28964,8.07835 L432.644607,8.64885 C434.942231,8.870225 434.197151,7.9611 436.927062,8.290975 C433.570686,8.4021 437.494658,8.9166 434.823616,8.9586 C435.676768,9.174725 434.842067,9.563225 437.517503,9.519475 C439.743958,8.765225 440.337035,9.99285 442.442238,9.3261 C443.848929,9.563225 440.929233,9.781975 443.696046,9.8826 C446.870546,9.48535 446.686911,9.200975 446.883725,8.651475 C443.915705,8.4966 443.548436,9.365475 441.120775,9.232475 L445.950617,8.290975 C445.059684,8.1571 444.401588,8.143975 443.848929,8.1816 C444.818939,8.126475 445.643975,7.98735 446.348638,7.79485 C446.750173,7.687225 447.120956,7.59535 447.463623,7.515725 C444.726682,7.510475 442.296385,7.498225 441.866734,7.263725 L442.244546,6.99685 C441.274535,6.75185 439.695633,6.94435 438.968125,7.1386 C436.517619,7.16835 434.069749,7.53935 433.534662,7.1946 L434.464255,6.950475 C431.451424,7.0266 431.114908,7.060725 427.324488,7.06335 Z M465.530942,8.033725 C465.605626,8.080975 465.863944,8.205225 466.226819,8.35835 L464.364118,8.630475 C461.040252,8.511475 458.378874,7.7196 455.388009,8.40035 C453.987469,8.22885 453.238874,7.867475 452.522788,7.57085 C453.207243,7.592725 453.848645,7.6216 454.381975,7.6671 C462.768522,6.670475 458.754929,8.717975 465.530942,8.033725 Z M262.252289,9.46785 C263.217028,8.99185 266.449517,8.969975 266.647209,8.418725 C266.852809,8.27785 266.173626,8.2236 265.410094,8.1781 C264.559578,8.163225 263.651072,8.14835 262.687212,8.1326 C262.653824,8.212225 262.462282,8.287475 262.14246,8.35835 C263.094019,8.42835 263.72927,8.563975 263.344429,8.9026 C260.897438,8.164975 261.152241,9.4276 258.507558,9.239475 C257.665828,9.6271 261.450098,9.6236 262.252289,9.46785 Z M246.94739,8.161475 L247.503564,7.76335 C246.987807,7.74935 246.460628,7.7336 245.920269,7.71785 C246.09951,7.8981 246.284901,8.054725 246.94739,8.161475 Z M242.185202,7.629475 C242.290638,7.62335 242.327541,7.6216 242.426826,7.615475 C241.872409,7.599725 241.317113,7.582225 240.737216,7.5656 C240.962146,7.6006 241.390918,7.62685 242.185202,7.629475 Z M287.815223,7.904225 C287.550754,7.898975 287.326703,7.890225 287.208966,7.86135 L287.815223,7.904225 Z M285.779431,8.458975 C288.12538,8.579725 287.591171,8.338225 287.954925,8.1221 C287.129889,8.1501 286.304853,8.177225 285.490361,8.203475 C285.802276,8.2586 285.956036,8.3356 285.779431,8.458975 Z M282.836891,6.635475 C278.697653,6.535725 274.522392,6.4351 270.545701,6.33885 C277.725007,7.426475 282.770994,8.250725 270.79084,8.22885 L270.006221,8.308475 C271.571944,8.441475 274.27286,8.457225 276.812987,8.378475 C277.840987,8.185975 280.012088,7.73535 281.91872,7.3171 C283.825352,6.89885 285.464881,6.51385 285.428857,6.449975 C284.70047,6.14635 283.639961,6.477975 282.315862,6.385225 L282.836891,6.635475 Z M20.8655884,8.352225 C21.0544944,8.299725 21.2029832,8.238475 21.3119337,8.161475 C21.1985901,8.241975 21.3259918,8.2936 20.8655884,8.352225 Z M222.056611,8.4826 C221.792142,8.507975 221.520645,8.534225 221.24124,8.560475 L221.665619,8.460725 C220.960077,8.4231 220.258929,8.385475 219.556023,8.346975 C219.302098,8.371475 219.027086,8.394225 218.687934,8.40735 C218.824122,8.394225 218.930436,8.35485 218.995455,8.31285 C218.767011,8.29885 218.542959,8.283975 218.318908,8.2691 C216.64072,8.6576 212.460187,8.940225 211.254703,9.1686 C209.659106,9.333975 207.706785,9.42935 206.481971,9.398725 C207.618043,9.405725 209.124898,9.32785 208.671523,9.113475 C206.36687,8.89035 205.247493,8.247225 201.269923,8.800225 L203.601814,8.79235 L198.357257,9.6236 C196.520036,9.27885 200.975582,9.20885 201.703089,8.908725 C197.624477,9.3191 194.232077,8.2236 192.340382,8.943725 C192.074156,8.5176 191.626932,7.804475 188.950617,7.846475 C190.880094,8.33385 187.346235,8.15885 188.92953,8.68035 C188.00433,8.92535 185.943937,8.52635 185.789298,8.8466 L186.040587,8.668975 C181.469062,7.993475 179.973629,9.0531 178.017794,9.40135 C172.54567,9.57635 170.031903,9.29985 165.569329,9.3716 C165.393602,9.085475 164.178453,8.29885 162.388679,8.327725 C161.555735,8.71535 157.516662,8.89385 157.104583,9.39085 C160.305441,9.59735 159.723787,8.97435 161.640084,8.857975 C163.234802,9.3786 161.785058,9.37335 163.963188,9.683975 C162.205045,9.480975 156.017715,9.95435 154.092631,9.466975 L154.771814,9.398725 C151.697479,9.1021 151.110552,7.874475 145.989004,8.6191 L143.544648,8.920975 C143.663264,8.871975 143.675564,8.81335 143.738826,8.7696 C139.738412,8.717975 140.830552,8.1536 136.414546,8.598975 C136.755455,8.563975 136.541947,8.509725 136.888129,8.476475 C134.370846,8.19735 131.832477,8.758225 129.929359,8.8746 C128.766929,8.460725 130.204371,8.467725 130.923093,8.168475 C126.494785,8.00835 121.715903,8.717975 118.965783,9.221975 L116.111106,8.9796 C117.804231,8.808975 119.872532,8.373225 119.356775,8.1221 C117.786658,8.205225 118.090665,8.401225 115.870361,8.3216 C116.249052,8.056475 117.180402,7.809725 118.223339,7.477225 C113.632484,7.034475 117.197975,8.415225 113.984816,7.6041 C112.542101,7.59885 111.703886,7.984725 111.545732,8.304975 L108.932679,7.886725 C108.641852,8.2936 105.415513,8.31635 103.300645,8.3776 C103.042327,8.55435 105.003435,8.8116 105.804747,8.654975 C105.646594,8.97435 103.397294,9.125725 101.950187,9.118725 C101.420371,8.264725 92.4785285,9.2421 94.1883474,8.23585 C87.6891029,8.5141 78.5592328,8.59985 74.2706277,8.955975 C72.8560294,8.7206 69.9732362,8.70835 71.7006277,8.308475 C66.4692499,8.304975 63.7709696,9.179975 58.5791303,8.947225 C58.1486003,8.840475 60.9259576,8.93935 60.7414448,8.654975 C57.3472875,8.9971 54.5664157,8.2936 49.3007713,8.5211 C50.1864328,8.506225 50.4447508,8.33035 50.5677593,8.241975 C50.6600157,8.38285 48.4098379,8.5351 47.0479576,8.67335 C46.2826687,8.598975 48.0680499,8.5701 47.6383986,8.460725 C37.4655918,8.045975 29.7160533,9.2071 19.5977217,9.1686 C22.4875439,9.179975 23.5796841,8.614725 23.6104362,8.38285 L20.780361,8.373225 C19.6890995,8.654975 17.5636875,8.6541 15.7870926,8.86585 C15.5683132,8.7591 14.7037388,8.644475 15.5858858,8.511475 C9.99426872,7.93835 6.85227897,9.5431 -0.000175726496,9.2491 L8.2976294,8.10985 L6.24514393,7.7126 L9.89322598,7.193725 C7.71421744,6.880475 5.81900718,7.6041 5.5571747,7.17535 C6.01669949,7.0546 7.12641231,7.0931 7.16155761,6.8621 C5.06953368,6.6941 4.9052294,7.013475 3.33247726,7.0966 C7.47610803,6.2251 15.5990653,6.238225 19.9711405,6.024725 C20.6591097,5.956475 19.3824568,6.234725 19.2612055,6.323975 C21.0448294,6.2951 22.1150038,6.56635 24.3607884,6.414975 C25.7560568,6.04835 23.2967644,6.1446 22.1905662,6.1061 C22.3425696,5.784975 22.8996226,5.8051 24.1323439,5.756975 C24.4003268,6.183975 30.8986926,5.907475 32.4872602,6.42985 C39.0734892,6.2951 31.4346585,5.322975 37.8636123,5.50935 L39.7843029,5.9976 C43.5167337,5.6196 48.3430619,5.284475 52.5666482,5.3886 L51.6765935,5.405225 C51.0843952,5.613475 52.0640704,5.742975 52.4972362,5.849725 C55.689308,6.05885 58.5571644,5.4656 60.4910345,5.954725 C64.1312089,5.43585 70.2008021,5.05085 74.3628841,4.782225 C75.4857764,5.4271 68.9329354,5.3291 67.2020294,5.7316 L70.989814,5.72985 C68.6482585,5.737725 67.7230585,5.982725 66.3198824,6.34935 C69.6402345,6.4701 70.7314961,5.90485 73.8796362,5.7421 C73.6344978,5.9171 74.0544841,6.024725 75.5068636,6.029975 L75.9189422,5.6021 C75.9461798,5.6371 76.1060909,5.669475 76.5550721,5.6966 L82.1554756,5.43585 C80.9675644,5.2521 80.9095747,4.87935 79.4633456,4.8741 C79.9791029,5.12435 78.752532,5.17335 77.3045456,5.16635 C78.5732909,4.887225 75.8925832,4.93185 75.9224568,4.699975 C78.8263371,4.712225 82.3927063,4.654475 84.2958243,4.537225 L84.9135029,4.93185 C87.6803166,5.030725 90.6017696,4.8111 92.4785285,4.925725 L91.8863303,5.13485 C95.2049251,5.2556 98.4734379,5.00185 101.420371,5.385975 C104.380484,4.936225 108.107643,4.56085 110.527397,4.0901 C111.821623,3.581725 119.214436,4.727975 122.552361,4.012225 C122.777291,4.06735 120.260009,4.395475 119.120423,4.5871 C121.340727,4.666725 123.106778,4.0341 123.801776,4.5696 C118.81993,4.390225 124.069759,4.9966 121.825732,5.14885 C124.158501,5.13835 126.617794,5.0421 127.761773,4.85135 C123.987168,4.85485 129.103445,4.1111 125.281394,4.34385 C128.242385,3.8941 132.284094,3.71385 135.813561,3.88885 C135.778416,4.118975 136.214217,4.227475 137.52953,4.32285 L138.590918,3.987725 C140.241869,4.0481 135.397089,4.3841 138.721835,4.503975 C142.142351,3.929975 149.022043,4.8286 150.520111,3.768975 C153.127014,4.187225 145.558474,4.192475 149.487718,4.705225 C147.202395,5.088475 144.048983,4.6501 143.295995,5.179475 C145.536508,5.0281 144.113123,5.6266 145.558474,5.63185 L148.057305,5.305475 L147.504645,5.284475 C151.697479,4.785725 158.340819,5.0246 163.695205,4.9406 C168.231585,4.407725 171.353366,3.63685 176.793858,3.695475 C175.187718,4.00785 181.311787,3.996475 177.886877,4.5696 C180.404159,4.845225 182.889811,4.517975 182.939014,4.28785 C180.723982,4.208225 182.160546,4.213475 180.295209,4.099725 C181.554289,3.81885 184.456412,3.831975 185.648717,4.01485 C185.096935,3.9956 185.306929,4.0481 185.184799,4.136475 C187.829482,4.3246 186.451787,3.85735 188.362812,3.740975 C188.969947,4.132975 192.582884,3.845975 194.327848,4.0481 L196.859188,3.488975 C195.468313,3.856475 199.283335,3.623725 199.682235,3.961475 C201.497489,3.70335 203.019281,3.24835 205.78258,3.34635 C204.640358,3.53885 208.303376,3.623725 208.35258,3.996475 C213.084016,4.353475 216.189103,2.97885 220.671007,3.513475 C220.531305,3.6001 219.627192,3.845975 220.937233,3.9396 C221.969626,3.835475 223.776094,3.879225 224.879657,3.838975 L224.84539,3.849475 C224.866477,3.8451 224.879657,3.84335 224.90338,3.838975 C225.443739,3.817975 225.782891,3.772475 225.796949,3.681475 C227.686888,3.3166 228.660412,2.942975 232.379664,2.6341 C232.107288,2.2071 228.967055,2.37335 227.607811,2.50985 L226.4322,2.9316 C225.309308,2.2876 223.07846,3.0436 222.223551,2.8266 C224.454399,2.0706 230.879838,2.256975 234.73352,1.79235 C232.384057,1.19735 227.271294,1.1046 222.811356,1.177225 L224.775978,1.432725 L222.441452,1.441475 L224.700416,1.894725 C222.489776,1.8151 220.578751,1.931475 218.580741,1.906975 C220.91966,1.898225 221.831681,2.4871 220.507582,2.393475 C217.900679,1.97435 217.79085,2.66735 215.798111,2.6411 C216.907824,2.680475 218.350539,2.6866 217.420067,2.9316 C213.490823,2.419725 212.430313,2.7531 208.856036,2.20535 C209.298867,2.916725 204.391705,2.276225 203.856617,2.85985 L205.514597,2.918475 L201.997431,3.348975 C198.752641,2.76885 204.871438,2.75835 199.932645,2.347975 C195.376057,2.276225 195.493794,3.023475 191.91073,3.079475 C193.091612,2.657725 195.93311,2.295475 198.822932,2.307725 L197.072696,2.10385 C197.998775,1.859725 201.997431,1.91135 203.992805,1.936725 C200.696176,2.421475 205.536563,2.085475 207.036388,2.46435 C207.312279,2.0566 205.194775,2.1196 207.695363,1.79235 C205.352929,1.800225 205.010262,1.83435 202.030819,1.68035 C208.471195,1.86585 207.821886,0.2646 213.443376,0.6076 C210.851411,0.79135 214.346611,1.1956 214.658525,1.394225 C215.877188,1.345225 218.350539,1.247225 219.367117,1.145725 L218.44631,0.55685 C221.721852,0.302225 222.859681,1.549975 226.638679,0.94185 C227.129835,0.589225 223.313934,0.82285 223.993995,0.7546 C229.165626,0.384475 231.028327,1.33385 235.62006,1.7766 C235.879257,1.59985 235.826539,1.2271 237.4318,0.914725 C236.927465,1.2691 238.116255,1.44935 236.308908,1.70835 C237.843879,1.857975 239.662648,1.598975 241.017499,1.460725 C237.821913,1.254225 242.324905,0.95235 242.913588,0.7406 C244.568932,0.800975 242.409253,1.093225 241.390918,1.1956 C242.719411,1.290975 244.298313,1.8116 245.053937,1.282225 C245.105776,1.654975 241.339079,2.262225 238.874515,2.358475 L240.536009,2.419725 C239.391151,2.6096 239.177643,2.55535 237.52845,2.4976 C239.142498,2.78635 238.982587,3.10485 238.607411,3.37085 C238.39566,3.315725 238.725147,3.282475 238.523062,3.2291 C237.195448,3.133725 236.177113,3.2361 236.484635,3.43385 C235.290573,3.93435 238.32537,3.7471 239.225089,3.996475 C239.905151,3.96235 240.585212,3.929975 241.251216,3.89585 L248.149359,2.28935 C251.096293,2.1021 252.42127,2.4871 254.634546,2.7286 L255.241681,2.29985 C257.806409,2.344475 260.226163,2.479225 258.582241,3.023475 C258.489985,2.879975 258.151711,2.914975 257.594658,2.893975 C257.520853,2.951725 257.392573,2.993725 257.230905,3.02785 C257.177308,3.05235 257.147435,3.077725 257.103503,3.102225 C259.849229,2.9561 261.563441,2.865975 261.722474,2.857225 C257.059571,3.4811 261.489636,3.63685 260.709411,4.398975 L265.418881,4.150475 C262.563325,3.90985 265.366163,3.7786 266.379226,3.67535 C266.658631,4.1041 270.172282,3.670975 271.82499,3.732225 L271.70286,3.81885 C273.232559,3.9676 275.913267,3.9256 277.819899,3.8101 C277.732915,3.6666 280.180785,2.965725 281.355517,2.5431 C278.082611,2.382975 280.024388,2.211475 279.762556,1.945475 C280.101708,1.969975 280.709722,1.97435 280.780891,1.9201 C281.248323,1.798475 280.14564,1.758225 280.052505,1.6156 C276.573999,1.8151 272.996207,1.871975 271.577216,2.4696 C272.644754,2.74085 273.397742,2.211475 274.592682,2.3926 C272.868805,2.7951 270.645865,2.715475 267.756043,2.7041 L266.808877,2.34535 L263.900604,2.5396 C265.114874,2.349725 264.383852,1.97435 267.435342,1.9026 C267.046108,1.563975 264.409332,1.9796 262.541359,1.86585 L261.586286,2.342725 C261.953554,2.076725 257.954898,2.025975 260.795517,1.663725 L265.418881,1.273475 L264.133441,0.947975 L268.041599,0.856975 L267.119035,1.103725 C273.397742,0.77385 268.970313,2.052225 275.289438,1.488725 C277.26724,0.911225 279.394409,0.849975 283.267421,0.99085 C280.465462,1.1186 282.979229,1.39685 281.92487,1.7311 C284.783941,1.971725 285.748679,1.4966 287.230932,1.27085 C287.959318,1.576225 288.476833,1.824725 285.924405,1.7801 C285.603705,2.419725 289.283417,1.66985 289.516255,2.326975 C297.975729,2.307725 296.294026,0.2051 306.183035,1.02585 L305.812252,1.290975 C312.091838,0.9611 315.71444,1.27785 321.529229,1.068725 L326.107783,1.742475 C325.084176,1.847475 322.330542,2.3506 323.615982,2.675225 C321.388648,1.9936 319.026005,2.2316 316.625582,1.86585 C316.381322,2.043475 317.357482,2.1721 317.782741,2.2806 C316.335633,2.27535 315.609004,1.968225 313.696221,2.087225 C313.789356,2.227225 315.875229,2.3961 314.303356,2.479225 L311.700846,2.0601 C308.220583,2.260475 309.986635,3.0646 305.897479,2.8721 C306.658375,2.4976 308.210918,1.955975 309.794214,1.86585 C307.926241,1.784475 312.284258,1.639225 310.578833,1.415225 C307.887582,1.969975 306.588084,1.530725 303.010293,1.878975 C303.430279,1.8011 303.541865,1.6926 304.421376,1.658475 L299.229537,1.42485 C300.514098,1.7486 294.940053,1.7801 295.422423,2.262225 C300.956929,2.4626 299.331458,2.1721 305.636525,2.4451 C303.852023,2.554475 301.550005,3.044475 300.471045,3.495975 C300.41657,3.476725 300.325192,3.460975 300.131893,3.452225 C299.167154,3.929975 300.149465,4.057725 300.131893,4.8916 C303.010293,4.29835 304.933619,4.7866 308.329534,4.44535 C308.968299,3.989475 306.35964,3.863475 304.672665,3.980725 L307.66353,3.677975 L307.073968,3.88885 L314.66711,4.0411 C313.22791,4.066475 312.73939,4.330725 311.989038,4.530225 C312.967835,4.5486 313.938723,4.668475 314.970238,4.8006 C314.753216,4.36485 314.890282,4.057725 315.845356,4.066475 C320.730552,4.169725 323.446405,4.56085 325.248481,5.058725 C325.435629,5.0491 325.64738,5.037725 325.816956,5.0281 C324.99807,4.580975 329.285797,4.22485 330.799681,3.768975 C330.724997,4.230975 333.316963,4.045475 334.725411,4.2826 C335.474005,3.751475 334.475,3.019975 332.75991,2.58685 C329.458009,3.0716 330.90951,3.075975 329.349937,3.763725 L324.050026,4.22135 L325.235301,3.7996 C322.590617,3.61235 320.05137,4.171475 320.244669,3.6211 C321.641694,3.254475 323.948983,3.476725 325.335465,3.10835 L323.586108,2.9071 C326.672744,2.367225 325.168525,3.427725 328.90447,3.0506 C327.530289,2.58335 329.242744,3.01735 330.844491,2.7041 C329.559052,2.3786 324.264412,2.8371 325.387305,2.043475 C327.33084,1.6961 331.925209,2.974475 334.496088,2.18435 L334.370443,2.27535 C338.163499,2.37685 339.496385,1.9236 340.916255,1.637475 C342.530303,1.894725 344.758515,1.532475 346.507872,1.504475 L346.464819,1.73635 L348.932898,1.63835 C347.757288,2.0601 346.04044,1.62785 343.921178,1.6891 L344.183889,2.11785 C341.740412,1.6086 340.110549,2.382975 338.215339,2.7531 C340.973366,2.381225 346.004416,2.858975 346.651968,2.018975 L348.358272,2.45385 L349.174522,2.295475 C350.445903,2.620975 349.148163,3.131975 346.68272,3.2291 C346.254826,3.1206 346.04044,3.06635 346.170477,2.9771 C345.025619,3.168725 343.975653,3.5021 341.207082,3.403225 L342.684064,3.175725 C339.23631,3.1451 336.102228,3.310475 334.921346,3.7331 C339.89792,3.912475 344.79366,3.9501 349.466228,3.929975 C350.844802,2.960475 352.480816,2.416225 353.183722,1.5141 C356.318682,1.346975 360.575657,1.2236 363.298539,1.55435 L363.049007,1.7311 C364.377499,1.822975 365.602313,1.773975 366.623284,1.67335 C368.027339,1.908725 365.662939,2.148475 366.640857,2.2771 L371.132426,1.97435 C370.855657,2.382975 367.07578,2.384725 365.280734,2.4136 C365.619886,2.379475 366.303462,2.311225 366.083804,2.256975 C363.996173,2.088975 360.107346,2.783725 359.194446,2.1931 C358.17699,2.295475 361.26099,1.758225 357.817629,1.726725 C355.512098,1.504475 354.759988,2.03385 354.520122,2.211475 C354.482341,2.442475 358.13833,2.528225 356.870464,2.806475 C358.664631,2.7776 359.378959,2.479225 361.674826,2.70235 C359.895595,2.73035 357.480235,3.19935 356.533069,2.8406 C353.015903,3.2711 353.520238,4.356975 355.178217,4.41735 C354.783711,4.0761 361.593992,3.998225 356.982929,3.5546 C359.053865,3.1171 362.839014,3.114475 365.548717,2.8406 L365.425708,2.9281 L368.789992,2.818725 C368.316409,2.94035 367.298952,3.0436 367.266443,3.273725 L371.92671,2.65335 C369.303113,3.070725 373.551301,2.9421 374.746241,3.12585 C375.244426,2.773225 377.064952,2.51335 375.318231,2.311225 C373.355366,2.05485 374.17513,2.50285 372.390628,2.529975 L374.918453,1.971725 L375.134597,2.02685 L376.656388,1.5701 C380.099749,1.602475 375.15217,2.6306 379.564662,2.18435 L378.990915,1.562225 C384.099284,1.6541 390.660033,2.3541 394.268576,2.0671 C393.273086,2.421475 392.83377,2.990225 394.202679,3.3271 C392.646621,3.22035 389.518689,3.242225 387.286963,3.30085 C386.857311,3.191475 390.075742,2.564975 392.501646,2.69885 C391.326036,1.68035 386.400423,3.313975 386.115746,2.28235 C379.937202,1.920975 381.507318,3.27635 376.261882,2.67085 C376.189835,3.131975 374.770843,2.895725 374.494952,3.3026 C376.047496,4.0551 381.507318,3.27635 384.910262,3.539725 C384.576382,3.572975 383.905985,3.6421 383.775069,3.7296 C386.207123,3.865225 387.213158,3.76285 388.913311,3.59135 L388.698046,3.536225 C391.667824,3.086475 390.536146,3.880975 392.283746,4.083975 C392.961171,4.01485 395.391469,4.148725 395.000477,3.8101 L398.16619,4.248475 L398.013308,3.7331 C399.798689,3.70335 400.189681,4.04285 401.807243,3.7296 L401.881927,3.268475 L397.448347,3.10835 C399.695889,2.95785 398.073934,2.66735 400.544648,2.5711 C397.785742,3.0751 402.495212,2.8266 402.76671,3.254475 L404.583722,2.9946 L404.118925,3.117975 C405.544067,3.354225 405.815564,2.9456 407.478816,3.00685 C405.516829,2.7496 404.232269,2.42585 401.732559,2.7531 C403.553086,2.4941 407.162508,2.2071 408.04817,2.19135 C409.959195,1.997975 411.292959,2.349725 413.080976,2.40135 C409.649917,2.585975 414.282946,3.7996 407.405889,3.467975 C407.53417,3.3796 408.091223,3.399725 408.306488,3.4531 C407.390074,2.8651 404.183944,3.48985 402.692905,3.7156 C403.077746,4.0551 401.518173,4.1391 404.161099,4.32635 C403.294768,4.108475 406.387554,3.57035 408.903958,3.8486 L408.460248,4.573975 L412.12151,4.65885 L411.778843,4.692975 C413.156539,5.1611 415.685243,4.603725 418.20604,4.8776 C420.027445,4.6186 427.009937,4.8251 424.005893,4.066475 C426.26925,4.519725 428.254959,3.94135 430.723917,3.8451 L427.646946,3.548475 C431.284484,3.028725 430.237154,3.364725 433.148942,2.538725 C433.443284,2.73735 434.091715,2.9001 433.501274,3.10835 C438.389985,3.14685 445.371599,3.352475 448.239455,2.75835 C451.68633,2.78985 452.226689,3.64385 457.061804,3.308725 C458.080139,3.20635 456.268399,2.6306 459.469257,2.83885 C459.684522,2.8931 456.387893,3.376975 459.952505,3.3201 C462.491752,2.760975 465.915783,3.6281 469.219441,3.144225 C470.962648,3.3446 473.988658,3.268475 473.358679,3.711225 C470.596258,3.609725 466.686344,3.702475 466.090631,3.914225 C466.472836,3.648225 464.126888,3.656975 466.162679,3.45135 C461.987417,3.1171 463.452976,3.72435 459.706488,3.495975 C459.44817,3.6736 461.631571,3.9851 462.434641,3.826725 C462.453093,4.430475 455.048857,4.1181 458.378874,4.841725 C462.381923,4.894225 463.569835,3.635975 467.039554,4.271225 C465.648679,4.638725 463.474064,4.327225 461.707134,4.960725 L464.557417,5.2031 L466.626597,4.76735 L466.503588,4.8566 C471.539031,5.408725 471.161219,4.23535 475.665968,3.933475 C473.055551,3.515225 476.26871,2.88785 474.305845,2.6306 C477.318676,2.554475 479.530194,2.6341 479.550402,3.236975 C473.914853,3.7296 479.231458,3.875725 474.020289,4.47685 C474.876077,4.692975 472.780539,5.359725 475.884747,5.4271 C479.382583,4.9966 474.839175,4.92485 478.327346,4.72535 C478.533824,4.778725 478.747332,4.83385 478.626081,4.922225 C480.230464,4.608975 480.498446,5.0351 482.440224,4.6886 L481.978942,4.80935 C484.374094,5.175975 484.599024,4.3946 486.660296,4.7936 C485.83526,4.3456 488.043264,4.4261 489.321674,4.1461 C487.232286,3.977225 486.101486,3.334975 481.978942,3.37085 C481.481636,3.72435 481.783007,3.9221 480.089882,4.092725 L482.769711,4.04985 C482.191571,4.1076 481.751376,4.1986 481.220682,4.269475 L478.647168,4.085725 C481.90953,3.83285 480.413219,3.453975 481.799701,3.086475 C484.786173,3.240475 484.264265,2.988475 486.141903,3.10485 C485.952997,3.623725 491.899582,3.9921 495.33767,4.32635 C494.802583,4.31935 494.114614,4.3106 493.742074,4.30535 C491.244122,4.63435 495.460679,4.738475 495.552935,4.881975 L497.372583,4.6221 C497.029917,4.6571 496.556334,4.778725 497.332166,4.852225 C499.79673,4.755975 499.653513,4.2406 502.113684,4.143475 C502.297318,4.4296 500.217595,4.864475 501.747294,5.0141 C502.274474,5.263475 503.954419,5.9276 507.222932,5.6756 C507.454891,5.56535 508.301014,5.503225 509.284204,5.45685 C509.147137,5.471725 508.975804,5.483975 508.914299,5.503225 L511.084522,5.8156 C509.235879,6.302975 507.344183,5.585475 505.484997,6.075475 L505.327722,6.539225 C503.880614,6.540975 501.91687,6.74135 501.013636,6.981975 C503.218125,7.060725 503.682922,6.9391 506.149243,6.841975 C506.494546,7.1351 504.757489,7.352975 504.507079,7.38535 L504.875226,7.1211 C501.933564,6.7361 500.476792,7.5656 496.816409,7.47985 C496.26287,7.4606 496.600265,7.4256 496.724152,7.3381 C493.759646,7.78785 490.850494,7.170975 487.970337,7.764225 L488.908717,7.5201 C486.947609,7.716975 483.112378,8.1746 479.278905,8.6156 L479.248152,8.79585 C479.673411,8.905225 478.235089,8.898225 477.46365,8.824725 L477.467164,8.822975 C475.543838,9.0321 473.696952,9.23335 472.187462,9.398725 C472.67071,9.508975 473.289267,9.603475 473.997445,9.62885 C474.598429,9.4171 478.121746,9.59035 477.637619,9.11085 C479.265725,9.3996 481.887564,8.983975 483.081626,9.165975 C480.905253,8.856225 484.599024,8.710975 484.980351,8.44585 C485.712252,8.749475 488.206689,8.422225 487.921134,8.831725 C488.350785,8.9376 486.852717,8.5596 485.926638,8.805475 C483.645708,9.1861 490.101899,9.139725 487.260402,9.50285 C490.874217,9.214975 495.634648,9.3401 499.363564,8.962975 L497.276812,8.79585 C498.933035,8.856225 502.853493,8.765225 503.146956,8.9621 C501.91687,9.010225 500.476792,9.004975 498.902282,9.087225 C498.825841,9.54835 502.687431,9.0846 502.862279,9.368975 L507.43644,8.605975 L505.433158,8.579725 C506.694874,8.299725 510.884194,8.637475 513.989281,8.702225 C512.207414,9.333975 509.305291,8.71885 506.038535,8.9726 C503.665349,9.211475 507.503216,9.5816 505.25831,9.732975 C505.839964,9.879975 507.306402,9.86335 508.028638,9.7041 L508.914299,9.818725 C506.910139,10.392725 502.419448,10.264975 499.430341,10.75935 C499.692173,10.697225 499.920617,10.632475 500.003209,10.5651 C497.70207,10.34285 495.364029,10.352475 493.120002,10.50385 C494.307035,10.68585 494.776224,10.5616 495.454529,10.495975 C495.539756,10.63685 493.420494,10.698975 492.619182,10.8556 C494.706812,11.0236 493.008416,11.1951 494.329879,11.2896 C492.969756,11.426975 491.867951,11.386725 490.211729,11.32635 C489.352426,11.108475 490.921664,11.0271 490.746816,10.7436 C489.040511,10.914225 488.260286,10.233475 485.762334,10.5616 C489.084443,10.681475 484.888094,11.1811 483.743236,11.37185 L484.300289,11.391975 C483.246809,11.72535 482.35324,11.738475 481.624853,11.433975 C482.984976,11.29835 484.300289,11.391975 483.913691,11.05335 C483.015729,11.06735 482.120402,11.08135 481.102946,11.183725 L482.027267,10.938725 L477.564693,11.010475 C476.857394,11.30885 475.678269,11.7306 475.058833,12.17335 C473.988658,11.901225 472.497619,12.126975 471.48192,12.2311 L471.954624,12.105975 C469.985609,11.85135 465.605626,12.063975 465.2366,12.3291 C463.829031,12.09285 475.178327,10.644725 465.2366,10.889725 C461.456723,10.89235 462.882744,11.73585 460.724823,12.02635 C460.724823,12.02635 460.846952,11.9406 460.632566,11.885475 C458.97898,11.824225 458.81204,12.144475 457.452795,12.2801 C458.443893,12.408725 459.881335,12.41485 460.344375,12.29235 C459.84619,12.644975 456.900135,12.261725 455.632269,12.539975 C457.277069,11.99485 452.434925,12.331725 453.712457,12.0526 C450.421978,11.701725 446.904812,12.1331 445.178299,12.53385 C442.945694,11.85135 441.263113,12.625725 437.640511,12.308975 C438.196686,12.3291 439.207992,12.226725 439.98646,12.300225 C442.051246,11.8671 436.232942,12.072725 439.410956,11.677225 C438.730894,11.7446 439.36351,11.90735 440.059387,11.838225 C441.278929,11.790975 442.427301,11.59935 442.120658,11.4016 L439.168453,11.019225 L440.199089,10.914225 L435.718064,10.3831 C435.596812,10.4706 436.017677,10.5791 436.232942,10.63335 C431.035831,10.399725 425.09364,10.695475 420.540566,10.6246 C419.685657,11.846975 409.33273,11.148725 405.653017,11.90035 C406.639722,11.5486 407.179202,10.929975 406.568552,10.67535 C407.390074,10.623725 409.069141,10.12935 410.929205,10.2326 C411.226183,10.429475 413.523807,10.65085 412.045069,10.875725 C417.186826,10.7366 411.35007,10.340225 412.86659,9.88435 C407.169537,10.004225 403.828098,10.719975 400.231855,11.006975 L400.141356,10.863475 L397.425503,11.136475 C399.64405,11.216975 399.534221,11.909975 396.675151,11.668475 L397.023089,11.63435 C395.391469,11.342975 391.997311,11.6851 389.450156,11.64135 L387.721886,12.041225 C385.169458,11.99485 385.060508,11.24935 384.229322,10.802225 C380.230665,10.749725 377.920741,11.362225 375.078364,11.72535 C373.794682,11.398975 367.802409,11.32285 370.976908,10.92735 C367.369243,11.215225 368.096751,12.958225 361.908542,11.992225 L363.514682,11.6781 C357.597971,11.743725 349.159585,12.368475 346.434067,12.037725 C348.61659,10.90985 339.043889,10.889725 337.991288,9.7846 C338.284751,10.037475 336.061811,10.121475 335.738474,10.256225 C335.250833,10.12585 334.440734,10.000725 333.579674,10.2291 C335.886963,10.45135 331.95684,11.376225 336.368453,10.929975 C334.136727,11.6886 331.260084,12.2801 326.369616,12.242475 L326.444299,11.78135 L330.312918,11.922225 C329.921927,11.58185 331.913787,11.607225 332.729158,11.449725 C325.532279,11.190725 333.67193,10.37085 326.313383,10.43035 C325.603448,10.7296 326.062973,10.606225 324.151069,10.72435 C325.050788,10.7086 325.212457,10.390975 323.762713,10.38485 L322.370959,10.753225 C319.801838,9.98585 326.624419,10.252725 324.432231,9.71285 C327.27285,9.3506 332.19407,9.15635 331.277657,8.567475 C326.638477,8.35485 327.103274,9.67085 322.251465,9.4031 L321.735708,9.15285 C320.029404,9.3226 319.753513,9.7286 318.819527,9.974475 C318.735178,9.830975 318.301134,9.7251 317.205479,9.683975 C314.323564,10.27635 312.410782,10.392725 309.753797,11.03935 C316.828546,10.5546 315.802303,11.49085 323.10286,11.057725 C321.958002,11.24935 316.818881,11.390225 316.502573,12.02635 L316.571106,11.56435 C314.196163,11.804975 311.823855,12.0421 308.842655,11.88985 L310.662303,11.629975 C306.710214,11.9511 304.092768,10.929975 300.974501,11.69735 C302.076306,11.738475 302.969876,11.72535 303.650816,11.654475 C301.615903,11.860975 299.063476,11.8146 296.852836,11.73585 L292.277797,12.497975 C292.318214,12.2696 289.419605,12.2556 290.81751,11.88985 C287.524395,11.538975 285.971852,12.226725 284.068734,12.34135 C280.697421,11.85135 286.991065,12.1226 287.321431,11.484725 C282.674344,11.271225 277.749609,11.4646 275.12777,11.87935 C276.075814,11.972975 276.535339,12.0526 276.487014,12.1646 C276.346433,12.01935 274.474067,12.0561 273.43113,12.0526 L272.714166,12.35185 C270.975352,12.149725 271.219612,11.972975 272.698351,11.74635 C271.036857,11.6886 269.056419,12.265225 267.343964,11.832975 C270.181947,11.472475 273.79752,11.7866 275.276258,11.561725 C269.346368,11.857475 269.309465,10.648225 261.791886,11.02885 C261.698751,10.88535 262.971889,10.606225 261.523903,10.60185 C258.169284,10.7121 260.647028,11.2196 259.599698,11.552975 C262.182877,11.367475 263.383968,11.549475 264.882915,11.92835 L264.194067,12.17335 C264.08951,12.046475 262.467554,12.0386 261.989578,11.9161 L261.572228,12.4131 C261.765527,11.864475 259.170046,11.44535 257.129862,11.650975 C259.191134,12.0491 258.634081,12.0281 259.195527,12.65285 C256.32767,13.2461 255.959523,12.07185 252.745486,12.699225 C252.985352,12.522475 255.792583,12.39035 253.367558,12.2556 C251.359882,12.231975 251.626987,12.65985 250.280922,12.795475 C251.797441,12.338725 251.408207,11.999225 253.05125,11.456725 C256.617619,11.398975 254.489571,11.46285 257.975985,11.262475 L255.025537,10.8766 C258.047154,10.802225 257.222997,10.352475 257.47165,10.17835 C252.311441,9.71285 253.582823,10.872225 250.26247,10.75235 C248.661602,11.066475 253.372829,10.817975 250.868727,11.1461 C247.76364,11.0796 250.160549,11.44535 246.675893,11.643975 L247.258426,11.433975 C246.193523,11.16185 245.140922,11.496975 243.907322,11.54335 C242.55247,11.6816 245.442293,13.133225 239.869127,13.16385 C240.142382,13.0361 240.242546,12.954725 240.242546,12.90135 L245.680402,9.0601 C240.032552,9.06885 233.524522,8.9621 226.983982,8.70485 C225.443739,7.9541 231.652156,8.086225 231.251499,7.7476 L234.235335,7.900725 C234.067517,8.2201 227.984744,7.9996 230.678631,8.562225 C235.946033,8.33385 238.336792,8.6996 243.334453,8.04335 C241.781031,7.289975 236.751739,8.177225 233.501677,7.59535 C234.866194,7.643475 236.018959,7.561225 237.137458,7.4536 C234.085089,7.354725 230.818334,7.24885 227.345099,7.13685 L226.564874,7.31885 C228.905551,7.403725 230.52487,7.4676 230.733985,7.4956 C227.630655,7.429975 225.01233,7.846475 224.80673,8.39685 L225.357633,8.4161 L224.236498,8.588475 C223.508111,8.553475 222.780604,8.5176 222.056611,8.4826 Z" id="Fill-117" fill="#BA605B" mask="url(#mask-2)"></path>
                    </g>
                </g>
            </g>
        </g>
    </g>
</svg>