<?xml version="1.0" encoding="UTF-8"?>
<svg width="12px" height="12px" viewBox="0 0 12 12" version="1.1" xmlns="http://www.w3.org/2000/svg" xmlns:xlink="http://www.w3.org/1999/xlink">
    <!-- Generator: Sketch 52.6 (67491) - http://www.bohemiancoding.com/sketch -->
    <title>. copy 8</title>
    <desc>Created with Sketch.</desc>
    <g id="Welcome" stroke="none" stroke-width="1" fill="none" fill-rule="evenodd">
        <g id="Uber-uns" transform="translate(-556.000000, -4778.000000)" fill="#132024">
            <path d="M561.542725,4778.22525 C562.207852,4777.57132 564.535797,4778.44323 564.757506,4779.53311 C565.090069,4781.05894 565.755196,4781.82185 567.307159,4781.82185 C567.861432,4781.82185 568.083141,4782.2578 567.972286,4782.91173 C567.639723,4784.1106 567.639723,4785.41845 567.418014,4786.72631 C567.196305,4788.47012 565.422633,4789.66898 563.759815,4789.55999 C561.986143,4789.34202 560.877598,4790.32291 559.547344,4789.88696 C559.214781,4789.77797 558.660508,4789.99595 558.327945,4789.66898 C557.441109,4788.25214 556,4786.94428 556,4785.20048 C556,4783.45667 556.775982,4781.82185 558.21709,4780.62298 C559.325635,4779.75108 560.655889,4779.20614 561.542725,4778.22525 Z" id=".-copy-8"></path>
        </g>
    </g>
</svg>