<?xml version="1.0" encoding="UTF-8"?>
<svg width="740px" height="231px" viewBox="0 0 740 231" version="1.1" xmlns="http://www.w3.org/2000/svg" xmlns:xlink="http://www.w3.org/1999/xlink">
    <!-- Generator: Sketch 52.6 (67491) - http://www.bohemiancoding.com/sketch -->
    <title>Group 3</title>
    <desc>Created with Sketch.</desc>
    <defs>
        <filter x="-2.2%" y="-7.1%" width="104.4%" height="114.2%" filterUnits="objectBoundingBox" id="filter-1">
            <feOffset dx="0" dy="4" in="SourceAlpha" result="shadowOffsetOuter1"></feOffset>
            <feGaussianBlur stdDeviation="2" in="shadowOffsetOuter1" result="shadowBlurOuter1"></feGaussianBlur>
            <feColorMatrix values="0 0 0 0 0   0 0 0 0 0   0 0 0 0 0  0 0 0 0.08 0" type="matrix" in="shadowBlurOuter1" result="shadowMatrixOuter1"></feColorMatrix>
            <feMerge>
                <feMergeNode in="shadowMatrixOuter1"></feMergeNode>
                <feMergeNode in="SourceGraphic"></feMergeNode>
            </feMerge>
        </filter>
        <polygon id="path-2" points="0 0 732 0 732 225 0 225"></polygon>
        <path d="M728.879932,152.939629 C729.899772,151.876183 731.651161,144.537442 731.109209,143.191803 C730.968094,142.842546 730.913552,142.507225 730.896237,142.181485 C729.943059,137.860634 727.365756,134.647648 726.783114,130.135185 C726.187486,125.512109 726.261073,121.150323 724.831739,116.625666 C723.509757,112.434589 719.49879,107.288935 719.624322,102.681536 C719.690119,100.268096 721.013833,98.5671035 722.516755,96.9183691 C721.444105,95.8044064 721.153217,94.1774461 722.426718,91.9756497 C722.791194,91.344201 725.40659,89.2843717 725.121762,89.5238867 C727.598639,87.4405414 728.034106,88.0711191 728.370012,85.6480979 C729.418422,78.0820357 723.958209,78.7892583 721.806849,73.5930885 C720.88224,71.3608083 721.561845,69.4359784 723.177313,67.6722768 C726.822938,63.6902304 732.219086,64.5254847 731.993128,57.2869048 C731.897897,54.2812089 731.152496,51.5063183 730.883251,48.5868478 C729.714504,48.1095596 728.775178,47.2664667 728.450526,45.7056996 C728.259198,44.7868329 728.637526,44.1266423 728.861752,43.3575813 C728.034106,44.5229308 729.295487,40.4494333 728.99421,42.8019064 C728.969969,42.9987443 728.914562,43.1781628 728.861752,43.3575813 C728.903307,43.2983558 728.945728,43.2391303 728.998539,43.1529048 C729.860814,41.7332339 730.603618,40.553949 731.478879,39.5871792 C730.497998,35.4257143 725.532987,31.0047022 724.952077,26.1133697 C724.795378,24.8008273 726.161514,20.2064935 725.545974,19.2414656 C724.612707,17.7799884 720.261506,18.6326619 718.594094,16.9517019 C718.418349,16.7748962 718.26771,16.5937358 718.134386,16.4108334 C713.19102,13.2213641 706.249529,5.70494677 701.276727,7.19864963 C698.512424,8.0286781 696.293536,9.95350802 693.305007,10.5361828 C690.105238,11.1597928 686.587743,11.1092769 683.368061,10.6215372 C682.075514,10.4255704 680.158769,10.0815397 678.87661,9.53892927 C676.695815,8.61483671 677.668039,7.74387295 676.395404,8.50596624 C674.781667,9.47186506 673.999039,13.2161383 672.026022,14.5896481 C668.099032,17.3236034 663.733113,16.1373508 659.536013,14.832647 C653.919967,13.0872356 648.626842,13.9973928 643.013394,12.310336 C638.793785,11.0413418 638.255295,11.7555321 634.176802,12.3408197 C632.112881,12.6369474 630.029049,12.3138198 628.19022,11.3496629 C625.705551,10.0458302 622.56292,3.88898732 619.549284,4.63191941 C618.40651,4.91324071 615.396337,10.7042788 613.620707,11.7712094 C610.643433,13.5610399 605.574534,13.9695219 601.966136,12.7144632 C599.711753,12.6413022 597.839161,11.8365317 596.090369,9.84637948 C595.781301,9.49451011 595.628931,9.08167329 595.573523,8.65141719 C592.558156,8.16977423 587.794863,8.64009466 585.624457,8.34657987 C582.417762,7.91283992 579.940018,7.40942286 576.641555,7.95116232 C573.880715,8.40493444 571.782165,9.18793087 568.984964,8.75244899 C565.557505,8.2185482 562.852072,5.96884879 559.415091,5.25727139 C553.369639,4.00656743 548.369133,6.35468574 542.953074,8.5477725 C542.714995,8.64357852 542.560028,8.70541694 542.439691,8.75244899 C542.305501,8.81341645 542.166117,8.87612584 541.991238,8.95538354 C541.186967,9.31857543 540.474464,9.91083079 539.661536,10.2853452 C538.03135,11.036116 536.420211,11.2137926 534.65497,11.2407925 C528.743708,11.3287598 522.810802,11.0918577 516.697823,10.1599264 C514.108399,9.76537985 511.867002,8.90922246 509.325194,9.60686444 C506.840525,10.2888291 505.5272,12.0952079 502.662471,12.2302073 C500.364801,12.3382068 498.987411,11.684984 496.95206,10.6293759 C493.403398,8.78728754 491.625171,8.20374181 487.628923,8.23945133 C484.900981,8.26470928 482.430163,7.84577571 479.838142,7.00877953 C477.112797,6.12823516 475.267909,4.80698313 472.017927,5.7066887 C471.146128,5.9470747 470.526259,6.92255411 469.620697,7.15161758 C465.058255,8.30564457 463.655759,8.19241928 459.65345,6.02284854 C454.423524,3.18873245 449.658499,3.74440733 444.43117,1.16983844 C441.078165,-0.480637894 442.065107,-0.674862814 438.623797,2.50067108 C437.313934,3.71043975 436.309678,5.11878816 435.115824,6.37210501 C432.365373,9.25673701 429.534409,10.6903434 425.463706,10.3053774 C413.548548,9.1800922 402.535489,13.919877 390.54328,14.7403249 C382.413995,15.2968707 372.610373,16.2784469 364.521778,15.1575165 C360.313424,14.5739708 359.946351,13.6115558 357.607991,10.2923129 C351.601498,1.76383573 338.240556,10.9986645 329.226487,9.68786407 C322.291922,8.68015899 316.858547,4.85053132 310.16206,8.38141842 C305.487938,10.8453749 302.562608,10.3733126 297.669454,9.93870164 C294.72248,9.67828347 295.444506,8.31609614 292.457709,10.5326989 C291.840437,10.9908259 291.587641,12.1596592 290.953921,12.6613344 C289.59904,13.7343617 288.614695,14.4903583 286.86677,15.0085817 C282.010842,16.4482848 276.064085,14.3945523 271.208158,13.4242986 C266.51499,12.4880126 259.605531,13.0950743 255.47163,10.7983429 C253.971305,9.96483055 253.371348,8.6993202 252.193078,7.52003526 C249.510155,4.83572493 249.22879,4.14766356 246.97787,6.5358462 C247.998575,5.45236728 245.904354,8.66709454 245.240333,9.31770447 C243.950382,10.5806019 242.000739,11.3531468 240.264068,11.7102419 C235.428919,12.7040116 233.723414,9.40392988 229.341046,8.69148152 C223.97693,7.81877583 217.721104,8.71151369 212.219336,8.31957999 C206.87773,7.93983979 202.03046,3.76879432 196.64903,4.83746686 C190.885809,5.98191325 186.196103,10.2862162 180.135068,10.915923 C174.086154,11.5438879 168.354965,8.66709454 162.415133,9.36038169 C159.652562,9.68350925 157.531503,10.6886014 154.780186,10.0075078 C152.626229,9.47360698 150.954488,7.70816343 149.12778,7.36500371 C147.726149,7.10197265 145.462243,8.07309725 143.837252,7.88584004 C141.397601,7.60626067 139.273079,5.92094578 136.928659,5.58475377 C132.15844,4.90104721 129.472919,6.98003772 124.863728,4.98291781 C121.741875,3.63031108 115.431507,0.685582588 111.731341,0.494841524 C107.626875,0.282326365 105.453871,7.52700297 100.781481,8.87264199 C99.1123368,9.35341398 97.6769425,9.25151122 95.9844238,9.24105966 C91.3302138,9.20970496 87.6326448,9.90995983 83.3091469,11.6658228 C74.2214902,15.3543543 62.9123486,15.9509645 53.1528789,14.8117439 C46.9741034,14.0905859 48.7228951,11.5952747 44.8036971,7.77087282 C41.3242942,4.37585606 35.6874711,7.06190832 31.390811,8.89267415 C31.3466584,8.91357728 31.3146261,8.93796427 31.2704734,8.95799643 C31.1380154,9.01809293 31.0046917,9.07818943 30.871368,9.1391569 C30.867905,9.13044726 30.8644421,9.12260859 30.8601134,9.11476991 C30.4133923,9.30202712 29.9770601,9.48057469 29.5675658,9.63299335 C28.6490173,9.97441115 27.789339,10.0406044 27.0188318,9.91692754 C23.737683,10.1172492 21.3768142,9.08777004 18.5397893,8.14800013 C17.4169265,8.91619017 16.0819578,9.46925217 14.7002392,9.79150876 C14.2820875,11.8461123 14.018903,13.3154282 11.8078069,15.9927708 C9.30841999,19.015886 6.88348655,22.2401939 5.05850986,25.7510488 C3.18158886,29.3603226 4.65940443,31.2877655 3.63783304,34.7167498 C3.07596877,36.6049992 1.68472706,37.621414 0.588702157,39.0071173 C0.703845373,39.352019 0.777433143,39.736985 0.788687743,40.19337 C0.817257112,41.4327514 0.522906034,42.3228764 0,43.1050018 C1.16528398,47.95627 3.92439247,50.5935483 8.05656217,54.2829508 C12.5973604,58.3364162 9.13440656,59.7917966 9.35690134,65.4704804 C9.50840558,69.3506239 11.5056642,73.05222 11.9385335,76.9410732 C12.2995464,80.188897 11.9653713,83.1832705 12.873531,86.3849333 C14.5911561,92.4320347 14.8275027,97.4453021 15.2231452,103.476726 C18.1934939,105.339718 18.1017256,108.250479 15.614459,110.525436 C15.816176,114.957771 16.4637484,121.10242 15.2066962,124.742178 C13.9202088,128.470773 10.6970645,128.233 8.10158057,130.416506 C1.92799956,135.608321 8.5231952,144.144637 9.66683571,150.647253 C11.2450769,159.622534 6.87829211,166.558019 6.09220159,175.204076 C5.65933235,179.963022 9.87201573,183.596683 11.5082614,187.748567 C13.5262978,192.868963 12.8666051,198.675679 18.97439,201.089119 C22.5291121,202.493984 27.6741958,200.599638 30.831544,202.934692 C33.7863094,205.120811 31.6055142,207.83125 33.380278,210.340496 C36.2709788,214.431413 46.446003,208.194442 50.457835,207.263381 C55.9154503,205.995258 59.1983306,205.179165 64.2421229,202.531435 C66.5770195,201.30686 69.1248878,200.30351 71.8147373,200.911443 C75.5374127,201.753665 77.1563436,205.218359 78.9977693,208.37386 C80.4695247,208.191829 81.9334885,208.168313 83.1914064,208.009797 C87.4690202,207.471542 91.7353794,203.543495 96.2025899,205.426519 C99.3755213,206.763448 99.4828729,210.718495 102.860984,211.78107 C105.160386,212.503099 109.140185,211.202751 111.559059,211.235847 C114.641088,211.276782 116.730115,211.127848 119.56714,210.631398 C121.882124,210.2264 123.82311,209.554016 126.241117,210.267335 C128.553505,210.9493 129.936089,212.170391 132.270986,212.319326 C135.057798,212.497874 138.166665,212.173875 141.016676,212.245294 C144.393056,212.328907 146.508055,211.22017 149.648088,210.771623 C153.545643,210.215949 156.208654,211.963973 160.076774,210.222916 C164.53273,208.216216 166.817414,204.355233 172.325242,205.49097 C173.417804,205.71655 174.641958,205.937775 175.549252,206.639771 C175.731923,206.781738 175.931908,206.968996 176.132759,207.175414 C179.385339,205.905549 183.146107,205.789711 185.329499,208.1657 C187.202092,209.059309 188.193362,210.631398 190.736902,211.860328 C195.13139,213.983738 202.020937,212.604131 206.640517,211.987489 C212.96214,211.142654 218.708912,209.671596 224.577753,207.041286 C229.556615,204.811618 234.55712,201.941793 239.968851,200.975023 C242.626668,200.500348 244.631718,200.711121 247.273086,201.210183 C249.134424,201.248506 249.662525,201.697923 248.858254,202.561048 C249.932635,202.108147 251.01654,201.680504 252.110833,201.277247 C257.190986,200.160672 263.245961,201.752794 268.50792,201.516763 C279.449988,201.02641 291.446526,197.918811 302.391192,199.259224 C306.702569,199.786158 311.581006,200.793863 314.961714,203.717688 C317.168482,205.62597 317.820383,208.023733 320.62451,209.271824 C320.768222,209.062793 320.950027,208.801503 321.184642,208.469666 C326.355698,201.166635 335.495299,199.065 340.834308,206.350611 C343.098214,209.43992 342.447179,212.401197 347.246833,212.186069 C349.251883,212.09723 351.701058,210.744624 353.672344,210.087917 C360.199146,207.910508 366.855809,207.75896 373.31595,205.832388 C381.700627,203.329238 387.564273,197.296072 394.095404,201.862535 C395.490975,201.47844 396.971388,201.400053 398.467384,201.738858 C401.225626,202.365081 402.353684,203.983332 403.227214,205.214875 C403.776092,205.98742 405.147422,209.171663 404.127582,206.676352 C404.104207,206.62061 404.848742,207.400123 405.059982,207.653573 C405.200232,207.82254 405.315375,207.989765 405.408875,208.15699 C406.494511,208.485344 407.550712,208.743149 408.176641,208.61773 C406.76895,208.900793 411.54696,204.872586 411.599771,204.831651 C414.209106,202.804047 416.754377,201.123958 420.31516,201.699665 C424.898379,202.441726 424.402311,204.748038 426.583106,208.136087 C429.378576,212.4761 433.236306,211.895167 437.382328,211.419621 C440.901555,208.431344 444.966197,208.451376 449.383194,209.979046 C447.834388,209.443404 449.132996,209.735177 450.403034,210.453722 C453.19937,209.230018 455.325623,207.282543 459.479436,208.23799 C461.302682,208.658665 463.01771,209.67508 462.915552,211.820264 C462.868802,212.804453 494.377354,210.65143 497.288832,211.058171 C501.425331,211.639103 501.056526,211.381298 504.303911,209.473017 C507.1747,207.78596 510.419488,206.43945 513.561253,205.37339 C518.660452,203.642785 521.338181,204.821199 525.100681,207.378349 C526.548195,207.122285 527.946363,207.089189 529.408595,207.465445 C532.019662,205.961291 534.518184,204.859521 538.056457,206.512611 C541.633688,208.182248 543.448276,210.913591 547.479154,211.834199 C552.845867,213.058774 557.710451,212.18694 563.057252,211.558104 C568.045637,210.969332 571.872201,211.315976 576.88829,210.110562 C583.302546,208.567214 588.926383,205.970871 595.08265,203.844849 C600.480529,201.981857 607.141521,199.855835 612.879635,200.811282 C614.882088,201.144861 618.168432,201.526343 619.931075,202.492242 C620.256593,202.670789 620.492074,202.818853 620.661758,202.941659 C620.703314,202.919885 620.739675,202.89724 620.794216,202.875466 C621.7422,202.493984 622.487601,201.697923 623.463288,201.319054 C626.205947,200.252123 634.003654,199.307998 636.673591,201.986212 C645.074717,201.665697 653.484501,200.238188 661.90121,200.15022 C670.3361,200.062253 678.675759,198.892549 687.120172,199.172999 C693.095499,199.37245 699.259556,200.314833 704.365682,203.695914 C706.45038,205.076391 708.94111,206.84619 710.941831,208.474021 C711.928773,207.769411 713.210932,207.01777 713.534718,206.669384 C718.394974,201.447085 718.520506,192.362933 721.171397,185.890802 C722.357459,182.996589 724.276801,181.594337 726.160648,179.378606 C731.522166,173.076312 729.456514,171.033902 724.79711,166.202666 C721.988654,163.290163 719.529957,160.054532 722.8163,156.349453 C724.399736,154.564848 727.357964,154.523913 728.879932,152.939629" id="path-4"></path>
        <filter x="-2.2%" y="-3.8%" width="104.4%" height="115.0%" filterUnits="objectBoundingBox" id="filter-5">
            <feOffset dx="0" dy="8" in="SourceAlpha" result="shadowOffsetOuter1"></feOffset>
            <feGaussianBlur stdDeviation="4" in="shadowOffsetOuter1" result="shadowBlurOuter1"></feGaussianBlur>
            <feColorMatrix values="0 0 0 0 0   0 0 0 0 0   0 0 0 0 0  0 0 0 0.08 0" type="matrix" in="shadowBlurOuter1"></feColorMatrix>
        </filter>
    </defs>
    <g id="Welcome" stroke="none" stroke-width="1" fill="none" fill-rule="evenodd">
        <g id="Andere" transform="translate(-548.000000, -1425.000000)">
            <g id="Group-3" filter="url(#filter-1)" transform="translate(552.000000, 1425.000000)">
                <mask id="mask-3" fill="white">
                    <use xlink:href="#path-2"></use>
                </mask>
                <g id="Clip-2"></g>
                <g id="Fill-1" mask="url(#mask-3)">
                    <use fill="black" fill-opacity="1" filter="url(#filter-5)" xlink:href="#path-4"></use>
                    <use fill="#FFFFFF" fill-rule="evenodd" xlink:href="#path-4"></use>
                </g>
            </g>
        </g>
    </g>
</svg>